%!PS-Adobe-3.0 EPSF-3.0
%%Creator: MATLAB, The MathWorks, Inc. Version 7.14.0.739 (R2012a). Operating System: Linux 3.0.74-0.6.8-default #1 SMP Wed May 15 07:26:33 UTC 2013 (5e244d7) x86_64.
%%Title: /global/u1/z/zxwang/git/citation-network-analysis/EM_clustering_nparascan_ncomm2.eps
%%CreationDate: 02/25/2014  01:48:28
%%DocumentNeededFonts: Helvetica
%%DocumentProcessColors: Cyan Magenta Yellow Black
%%LanguageLevel: 2
%%Pages: 1
%%BoundingBox:  -173   156   787   636
%%EndComments

%%BeginProlog
% MathWorks dictionary
/MathWorks 160 dict begin
% definition operators
/bdef {bind def} bind def
/ldef {load def} bind def
/xdef {exch def} bdef
/xstore {exch store} bdef
% operator abbreviations
/c  /clip ldef
/cc /concat ldef
/cp /closepath ldef
/gr /grestore ldef
/gs /gsave ldef
/mt /moveto ldef
/np /newpath ldef
/cm /currentmatrix ldef
/sm /setmatrix ldef
/rm /rmoveto ldef
/rl /rlineto ldef
/s {show newpath} bdef
/sc {setcmykcolor} bdef
/sr /setrgbcolor ldef
/sg /setgray ldef
/w /setlinewidth ldef
/j /setlinejoin ldef
/cap /setlinecap ldef
/rc {rectclip} bdef
/rf {rectfill} bdef
% page state control
/pgsv () def
/bpage {/pgsv save def} bdef
/epage {pgsv restore} bdef
/bplot /gsave ldef
/eplot {stroke grestore} bdef
% orientation switch
/portraitMode 0 def /landscapeMode 1 def /rotateMode 2 def
% coordinate system mappings
/dpi2point 0 def
% font control
/FontSize 0 def
/FMS {/FontSize xstore findfont [FontSize 0 0 FontSize neg 0 0]
  makefont setfont} bdef
/reencode {exch dup where {pop load} {pop StandardEncoding} ifelse
  exch dup 3 1 roll findfont dup length dict begin
  { 1 index /FID ne {def}{pop pop} ifelse } forall
  /Encoding exch def currentdict end definefont pop} bdef
/isroman {findfont /CharStrings get /Agrave known} bdef
/FMSR {3 1 roll 1 index dup isroman {reencode} {pop pop} ifelse
  exch FMS} bdef
/csm {1 dpi2point div -1 dpi2point div scale neg translate
 dup landscapeMode eq {pop -90 rotate}
  {rotateMode eq {90 rotate} if} ifelse} bdef
% line types: solid, dotted, dashed, dotdash
/SO { [] 0 setdash } bdef
/DO { [.5 dpi2point mul 4 dpi2point mul] 0 setdash } bdef
/DA { [6 dpi2point mul] 0 setdash } bdef
/DD { [.5 dpi2point mul 4 dpi2point mul 6 dpi2point mul 4
  dpi2point mul] 0 setdash } bdef
% macros for lines and objects
/L {lineto stroke} bdef
/MP {3 1 roll moveto 1 sub {rlineto} repeat} bdef
/AP {{rlineto} repeat} bdef
/PDlw -1 def
/W {/PDlw currentlinewidth def setlinewidth} def
/PP {closepath eofill} bdef
/DP {closepath stroke} bdef
/MR {4 -2 roll moveto dup  0 exch rlineto exch 0 rlineto
  neg 0 exch rlineto closepath} bdef
/FR {MR stroke} bdef
/PR {MR fill} bdef
/L1i {{currentfile picstr readhexstring pop} image} bdef
/tMatrix matrix def
/MakeOval {newpath tMatrix currentmatrix pop translate scale
0 0 1 0 360 arc tMatrix setmatrix} bdef
/FO {MakeOval stroke} bdef
/PO {MakeOval fill} bdef
/PD {currentlinewidth 2 div 0 360 arc fill
   PDlw -1 eq not {PDlw w /PDlw -1 def} if} def
/FA {newpath tMatrix currentmatrix pop translate scale
  0 0 1 5 -2 roll arc tMatrix setmatrix stroke} bdef
/PA {newpath tMatrix currentmatrix pop	translate 0 0 moveto scale
  0 0 1 5 -2 roll arc closepath tMatrix setmatrix fill} bdef
/FAn {newpath tMatrix currentmatrix pop translate scale
  0 0 1 5 -2 roll arcn tMatrix setmatrix stroke} bdef
/PAn {newpath tMatrix currentmatrix pop translate 0 0 moveto scale
  0 0 1 5 -2 roll arcn closepath tMatrix setmatrix fill} bdef
/vradius 0 def /hradius 0 def /lry 0 def
/lrx 0 def /uly 0 def /ulx 0 def /rad 0 def
/MRR {/vradius xdef /hradius xdef /lry xdef /lrx xdef /uly xdef
  /ulx xdef newpath tMatrix currentmatrix pop ulx hradius add uly
  vradius add translate hradius vradius scale 0 0 1 180 270 arc 
  tMatrix setmatrix lrx hradius sub uly vradius add translate
  hradius vradius scale 0 0 1 270 360 arc tMatrix setmatrix
  lrx hradius sub lry vradius sub translate hradius vradius scale
  0 0 1 0 90 arc tMatrix setmatrix ulx hradius add lry vradius sub
  translate hradius vradius scale 0 0 1 90 180 arc tMatrix setmatrix
  closepath} bdef
/FRR {MRR stroke } bdef
/PRR {MRR fill } bdef
/MlrRR {/lry xdef /lrx xdef /uly xdef /ulx xdef /rad lry uly sub 2 div def
  newpath tMatrix currentmatrix pop ulx rad add uly rad add translate
  rad rad scale 0 0 1 90 270 arc tMatrix setmatrix lrx rad sub lry rad
  sub translate rad rad scale 0 0 1 270 90 arc tMatrix setmatrix
  closepath} bdef
/FlrRR {MlrRR stroke } bdef
/PlrRR {MlrRR fill } bdef
/MtbRR {/lry xdef /lrx xdef /uly xdef /ulx xdef /rad lrx ulx sub 2 div def
  newpath tMatrix currentmatrix pop ulx rad add uly rad add translate
  rad rad scale 0 0 1 180 360 arc tMatrix setmatrix lrx rad sub lry rad
  sub translate rad rad scale 0 0 1 0 180 arc tMatrix setmatrix
  closepath} bdef
/FtbRR {MtbRR stroke } bdef
/PtbRR {MtbRR fill } bdef
/stri 6 array def /dtri 6 array def
/smat 6 array def /dmat 6 array def
/tmat1 6 array def /tmat2 6 array def /dif 3 array def
/asub {/ind2 exch def /ind1 exch def dup dup
  ind1 get exch ind2 get sub exch } bdef
/tri_to_matrix {
  2 0 asub 3 1 asub 4 0 asub 5 1 asub
  dup 0 get exch 1 get 7 -1 roll astore } bdef
/compute_transform {
  dmat dtri tri_to_matrix tmat1 invertmatrix 
  smat stri tri_to_matrix tmat2 concatmatrix } bdef
/ds {stri astore pop} bdef
/dt {dtri astore pop} bdef
/db {2 copy /cols xdef /rows xdef mul dup 3 mul string
  currentfile 
  3 index 0 eq {/ASCIIHexDecode filter}
  {/ASCII85Decode filter 3 index 2 eq {/RunLengthDecode filter} if }
  ifelse exch readstring pop
  dup 0 3 index getinterval /rbmap xdef
  dup 2 index dup getinterval /gbmap xdef
  1 index dup 2 mul exch getinterval /bbmap xdef pop pop}bdef
/it {gs np dtri aload pop moveto lineto lineto cp c
  cols rows 8 compute_transform 
  rbmap gbmap bbmap true 3 colorimage gr}bdef
/il {newpath moveto lineto stroke}bdef
currentdict end def
%%EndProlog

%%BeginSetup
MathWorks begin

0 cap

end
%%EndSetup

%%Page: 1 1
%%BeginPageSetup
%%PageBoundingBox:  -173   156   787   636
MathWorks begin
bpage
%%EndPageSetup

%%BeginObject: obj1
bplot

/dpi2point 12 def
portraitMode -2076 7632 csm

    0     0 11528  5760 rc
85 dict begin %Colortable dictionary
/c0 { 0.000000 0.000000 0.000000 sr} bdef
/c1 { 1.000000 1.000000 1.000000 sr} bdef
/c2 { 0.900000 0.000000 0.000000 sr} bdef
/c3 { 0.000000 0.820000 0.000000 sr} bdef
/c4 { 0.000000 0.000000 0.800000 sr} bdef
/c5 { 0.910000 0.820000 0.320000 sr} bdef
/c6 { 1.000000 0.260000 0.820000 sr} bdef
/c7 { 0.000000 0.820000 0.820000 sr} bdef
c0
1 j
1 sg
   0    0 11529 5761 rf
6 w
0 4694 3858 0 0 -4694 1499 5126 4 MP
PP
-3858 0 0 4694 3858 0 0 -4694 1499 5126 5 MP stroke
4 w
DO
SO
6 w
0 sg
1499 5126 mt 5357 5126 L
1499  432 mt 5357  432 L
1499 5126 mt 1499  432 L
5357 5126 mt 5357  432 L
1499 5126 mt 5357 5126 L
1499 5126 mt 1499  432 L
1499 5126 mt 1499 5079 L
1499  432 mt 1499  478 L
%%IncludeResource: font Helvetica
/Helvetica /ISOLatin1Encoding 120 FMSR

1466 5271 mt 
(3) s
2463 5126 mt 2463 5079 L
2463  432 mt 2463  478 L
2380 5271 mt 
(3.5) s
3428 5126 mt 3428 5079 L
3428  432 mt 3428  478 L
3395 5271 mt 
(4) s
4392 5126 mt 4392 5079 L
4392  432 mt 4392  478 L
4309 5271 mt 
(4.5) s
5357 5126 mt 5357 5079 L
5357  432 mt 5357  478 L
5324 5271 mt 
(5) s
1499 5126 mt 1545 5126 L
5357 5126 mt 5310 5126 L
1398 5170 mt 
(5) s
1499 4539 mt 1545 4539 L
5357 4539 mt 5310 4539 L
1298 4583 mt 
(5.5) s
1499 3952 mt 1545 3952 L
5357 3952 mt 5310 3952 L
1398 3996 mt 
(6) s
1499 3365 mt 1545 3365 L
5357 3365 mt 5310 3365 L
1298 3409 mt 
(6.5) s
1499 2779 mt 1545 2779 L
5357 2779 mt 5310 2779 L
1398 2823 mt 
(7) s
1499 2192 mt 1545 2192 L
5357 2192 mt 5310 2192 L
1298 2236 mt 
(7.5) s
1499 1605 mt 1545 1605 L
5357 1605 mt 5310 1605 L
1398 1649 mt 
(8) s
1499 1018 mt 1545 1018 L
5357 1018 mt 5310 1018 L
1298 1062 mt 
(8.5) s
1499  432 mt 1545  432 L
5357  432 mt 5310  432 L
1398  476 mt 
(9) s
1499 5126 mt 5357 5126 L
1499  432 mt 5357  432 L
1499 5126 mt 1499  432 L
5357 5126 mt 5357  432 L
gs 1499 432 3859 4695 rc
/c8 { 0.000000 0.000000 1.000000 sr} bdef
c8
1929 -1432 1929 -1564 1499 3606 3 MP stroke
gr

c8
0 j
36 47 -36 47 -36 -47 36 -47 1499 3653 5 MP
DP
36 47 -36 47 -36 -47 36 -47 3428 2089 5 MP
DP
36 47 -36 47 -36 -47 36 -47 5357 657 5 MP
DP
gs 1499 432 3859 4695 rc
/c9 { 0.000000 0.500000 0.000000 sr} bdef
c9
1929 -2172 1929 -1253 1499 4639 3 MP stroke
gr

c9
36 47 -36 47 -36 -47 36 -47 1499 4686 5 MP
DP
36 47 -36 47 -36 -47 36 -47 3428 3433 5 MP
DP
36 47 -36 47 -36 -47 36 -47 5357 1261 5 MP
DP
gs 1499 432 3859 4695 rc
gr

0 sg
%%IncludeResource: font Helvetica
/Helvetica /ISOLatin1Encoding 180 FMSR

2543 5458 mt 
(number of parameters) s
1203 4385 mt  -90 rotate
(percentage improvement in loglikelihood) s
90 rotate
%%IncludeResource: font Helvetica
/Helvetica /ISOLatin1Encoding 120 FMSR

1482 5169 mt 
( ) s
5341  474 mt 
( ) s
1 sg
0 400 1495 0 0 -400 1609 1030 4 MP
PP
-1495 0 0 400 1495 0 0 -400 1609 1030 5 MP stroke
4 w
DO
SO
6 w
0 sg
1609 1030 mt 3104 1030 L
1609  630 mt 3104  630 L
1609 1030 mt 1609  630 L
3104 1030 mt 3104  630 L
1609 1030 mt 3104 1030 L
1609 1030 mt 1609  630 L
1609 1030 mt 3104 1030 L
1609  630 mt 3104  630 L
1609 1030 mt 1609  630 L
3104 1030 mt 3104  630 L
2077  783 mt 
(training set) s
gs 1609 630 1496 401 rc
c8
360 0 1681 740 2 MP stroke
gr

c8
36 47 -36 47 -36 -47 36 -47 1861 787 5 MP
DP
gs 1609 630 1496 401 rc
gr

0 sg
2077  962 mt 
(validation set) s
gs 1609 630 1496 401 rc
c9
360 0 1681 919 2 MP stroke
gr

c9
36 47 -36 47 -36 -47 36 -47 1861 966 5 MP
DP
gs 1609 630 1496 401 rc
gr

1 sg
0 4694 3858 0 0 -4694 6575 5126 4 MP
PP
-3858 0 0 4694 3858 0 0 -4694 6575 5126 5 MP stroke
4 w
DO
SO
6 w
0 sg
6575 5126 mt 10433 5126 L
6575  432 mt 10433  432 L
6575 5126 mt 6575  432 L
10433 5126 mt 10433  432 L
6575 5126 mt 10433 5126 L
6575 5126 mt 6575  432 L
6575 5126 mt 6575 5079 L
6575  432 mt 6575  478 L
6542 5271 mt 
(3) s
7539 5126 mt 7539 5079 L
7539  432 mt 7539  478 L
7456 5271 mt 
(3.5) s
8504 5126 mt 8504 5079 L
8504  432 mt 8504  478 L
8471 5271 mt 
(4) s
9468 5126 mt 9468 5079 L
9468  432 mt 9468  478 L
9385 5271 mt 
(4.5) s
10433 5126 mt 10433 5079 L
10433  432 mt 10433  478 L
10400 5271 mt 
(5) s
6575 5126 mt 6621 5126 L
10433 5126 mt 10386 5126 L
6374 5170 mt 
(4.5) s
6575 4656 mt 6621 4656 L
10433 4656 mt 10386 4656 L
6474 4700 mt 
(5) s
6575 4187 mt 6621 4187 L
10433 4187 mt 10386 4187 L
6374 4231 mt 
(5.5) s
6575 3717 mt 6621 3717 L
10433 3717 mt 10386 3717 L
6474 3761 mt 
(6) s
6575 3248 mt 6621 3248 L
10433 3248 mt 10386 3248 L
6374 3292 mt 
(6.5) s
6575 2779 mt 6621 2779 L
10433 2779 mt 10386 2779 L
6474 2823 mt 
(7) s
6575 2309 mt 6621 2309 L
10433 2309 mt 10386 2309 L
6374 2353 mt 
(7.5) s
6575 1840 mt 6621 1840 L
10433 1840 mt 10386 1840 L
6474 1884 mt 
(8) s
6575 1370 mt 6621 1370 L
10433 1370 mt 10386 1370 L
6374 1414 mt 
(8.5) s
6575  901 mt 6621  901 L
10433  901 mt 10386  901 L
6474  945 mt 
(9) s
6575  432 mt 6621  432 L
10433  432 mt 10386  432 L
6374  476 mt 
(9.5) s
6575 5126 mt 10433 5126 L
6575  432 mt 10433  432 L
6575 5126 mt 6575  432 L
10433 5126 mt 10433  432 L
gs 6575 432 3859 4695 rc
c8
1929 -1457 1929 -1745 6575 3905 3 MP stroke
gr

c8
36 47 -36 47 -36 -47 36 -47 6575 3952 5 MP
DP
36 47 -36 47 -36 -47 36 -47 8504 2207 5 MP
DP
36 47 -36 47 -36 -47 36 -47 10433 750 5 MP
DP
gs 6575 432 3859 4695 rc
c9
1929 -2136 1929 -1093 6575 4700 3 MP stroke
gr

c9
36 47 -36 47 -36 -47 36 -47 6575 4747 5 MP
DP
36 47 -36 47 -36 -47 36 -47 8504 3654 5 MP
DP
36 47 -36 47 -36 -47 36 -47 10433 1518 5 MP
DP
gs 6575 432 3859 4695 rc
gr

0 sg
%%IncludeResource: font Helvetica
/Helvetica /ISOLatin1Encoding 180 FMSR

7619 5458 mt 
(number of parameters) s
6279 4722 mt  -90 rotate
(percentage improvement in sum of square errors) s
90 rotate
%%IncludeResource: font Helvetica
/Helvetica /ISOLatin1Encoding 120 FMSR

6558 5169 mt 
( ) s
10417  474 mt 
( ) s
1 sg
0 400 1495 0 0 -400 6739 938 4 MP
PP
-1495 0 0 400 1495 0 0 -400 6739 938 5 MP stroke
4 w
DO
SO
6 w
0 sg
6739  938 mt 8234  938 L
6739  538 mt 8234  538 L
6739  938 mt 6739  538 L
8234  938 mt 8234  538 L
6739  938 mt 8234  938 L
6739  938 mt 6739  538 L
6739  938 mt 8234  938 L
6739  538 mt 8234  538 L
6739  938 mt 6739  538 L
8234  938 mt 8234  538 L
7207  691 mt 
(training set) s
gs 6739 538 1496 401 rc
c8
360 0 6811 648 2 MP stroke
gr

c8
36 47 -36 47 -36 -47 36 -47 6991 695 5 MP
DP
gs 6739 538 1496 401 rc
gr

0 sg
7207  870 mt 
(validation set) s
gs 6739 538 1496 401 rc
c9
360 0 6811 827 2 MP stroke
gr

c9
36 47 -36 47 -36 -47 36 -47 6991 874 5 MP
DP
gs 6739 538 1496 401 rc
gr


end %%Color Dict

eplot
%%EndObject

epage
end

showpage

%%Trailer
%%EOF
