%!PS-Adobe-3.0 EPSF-3.0
%%Creator: MATLAB, The MathWorks, Inc. Version 7.14.0.739 (R2012a). Operating System: Linux 3.0.74-0.6.8-default #1 SMP Wed May 15 07:26:33 UTC 2013 (5e244d7) x86_64.
%%Title: /global/u1/z/zxwang/git/citation-network-analysis/EM_clustering_ncommscan_npara3.eps
%%CreationDate: 02/25/2014  00:05:23
%%DocumentNeededFonts: Helvetica
%%DocumentProcessColors: Cyan Magenta Yellow Black
%%LanguageLevel: 2
%%Pages: 1
%%BoundingBox:  -172   155   786   635
%%EndComments

%%BeginProlog
% MathWorks dictionary
/MathWorks 160 dict begin
% definition operators
/bdef {bind def} bind def
/ldef {load def} bind def
/xdef {exch def} bdef
/xstore {exch store} bdef
% operator abbreviations
/c  /clip ldef
/cc /concat ldef
/cp /closepath ldef
/gr /grestore ldef
/gs /gsave ldef
/mt /moveto ldef
/np /newpath ldef
/cm /currentmatrix ldef
/sm /setmatrix ldef
/rm /rmoveto ldef
/rl /rlineto ldef
/s {show newpath} bdef
/sc {setcmykcolor} bdef
/sr /setrgbcolor ldef
/sg /setgray ldef
/w /setlinewidth ldef
/j /setlinejoin ldef
/cap /setlinecap ldef
/rc {rectclip} bdef
/rf {rectfill} bdef
% page state control
/pgsv () def
/bpage {/pgsv save def} bdef
/epage {pgsv restore} bdef
/bplot /gsave ldef
/eplot {stroke grestore} bdef
% orientation switch
/portraitMode 0 def /landscapeMode 1 def /rotateMode 2 def
% coordinate system mappings
/dpi2point 0 def
% font control
/FontSize 0 def
/FMS {/FontSize xstore findfont [FontSize 0 0 FontSize neg 0 0]
  makefont setfont} bdef
/reencode {exch dup where {pop load} {pop StandardEncoding} ifelse
  exch dup 3 1 roll findfont dup length dict begin
  { 1 index /FID ne {def}{pop pop} ifelse } forall
  /Encoding exch def currentdict end definefont pop} bdef
/isroman {findfont /CharStrings get /Agrave known} bdef
/FMSR {3 1 roll 1 index dup isroman {reencode} {pop pop} ifelse
  exch FMS} bdef
/csm {1 dpi2point div -1 dpi2point div scale neg translate
 dup landscapeMode eq {pop -90 rotate}
  {rotateMode eq {90 rotate} if} ifelse} bdef
% line types: solid, dotted, dashed, dotdash
/SO { [] 0 setdash } bdef
/DO { [.5 dpi2point mul 4 dpi2point mul] 0 setdash } bdef
/DA { [6 dpi2point mul] 0 setdash } bdef
/DD { [.5 dpi2point mul 4 dpi2point mul 6 dpi2point mul 4
  dpi2point mul] 0 setdash } bdef
% macros for lines and objects
/L {lineto stroke} bdef
/MP {3 1 roll moveto 1 sub {rlineto} repeat} bdef
/AP {{rlineto} repeat} bdef
/PDlw -1 def
/W {/PDlw currentlinewidth def setlinewidth} def
/PP {closepath eofill} bdef
/DP {closepath stroke} bdef
/MR {4 -2 roll moveto dup  0 exch rlineto exch 0 rlineto
  neg 0 exch rlineto closepath} bdef
/FR {MR stroke} bdef
/PR {MR fill} bdef
/L1i {{currentfile picstr readhexstring pop} image} bdef
/tMatrix matrix def
/MakeOval {newpath tMatrix currentmatrix pop translate scale
0 0 1 0 360 arc tMatrix setmatrix} bdef
/FO {MakeOval stroke} bdef
/PO {MakeOval fill} bdef
/PD {currentlinewidth 2 div 0 360 arc fill
   PDlw -1 eq not {PDlw w /PDlw -1 def} if} def
/FA {newpath tMatrix currentmatrix pop translate scale
  0 0 1 5 -2 roll arc tMatrix setmatrix stroke} bdef
/PA {newpath tMatrix currentmatrix pop	translate 0 0 moveto scale
  0 0 1 5 -2 roll arc closepath tMatrix setmatrix fill} bdef
/FAn {newpath tMatrix currentmatrix pop translate scale
  0 0 1 5 -2 roll arcn tMatrix setmatrix stroke} bdef
/PAn {newpath tMatrix currentmatrix pop translate 0 0 moveto scale
  0 0 1 5 -2 roll arcn closepath tMatrix setmatrix fill} bdef
/vradius 0 def /hradius 0 def /lry 0 def
/lrx 0 def /uly 0 def /ulx 0 def /rad 0 def
/MRR {/vradius xdef /hradius xdef /lry xdef /lrx xdef /uly xdef
  /ulx xdef newpath tMatrix currentmatrix pop ulx hradius add uly
  vradius add translate hradius vradius scale 0 0 1 180 270 arc 
  tMatrix setmatrix lrx hradius sub uly vradius add translate
  hradius vradius scale 0 0 1 270 360 arc tMatrix setmatrix
  lrx hradius sub lry vradius sub translate hradius vradius scale
  0 0 1 0 90 arc tMatrix setmatrix ulx hradius add lry vradius sub
  translate hradius vradius scale 0 0 1 90 180 arc tMatrix setmatrix
  closepath} bdef
/FRR {MRR stroke } bdef
/PRR {MRR fill } bdef
/MlrRR {/lry xdef /lrx xdef /uly xdef /ulx xdef /rad lry uly sub 2 div def
  newpath tMatrix currentmatrix pop ulx rad add uly rad add translate
  rad rad scale 0 0 1 90 270 arc tMatrix setmatrix lrx rad sub lry rad
  sub translate rad rad scale 0 0 1 270 90 arc tMatrix setmatrix
  closepath} bdef
/FlrRR {MlrRR stroke } bdef
/PlrRR {MlrRR fill } bdef
/MtbRR {/lry xdef /lrx xdef /uly xdef /ulx xdef /rad lrx ulx sub 2 div def
  newpath tMatrix currentmatrix pop ulx rad add uly rad add translate
  rad rad scale 0 0 1 180 360 arc tMatrix setmatrix lrx rad sub lry rad
  sub translate rad rad scale 0 0 1 0 180 arc tMatrix setmatrix
  closepath} bdef
/FtbRR {MtbRR stroke } bdef
/PtbRR {MtbRR fill } bdef
/stri 6 array def /dtri 6 array def
/smat 6 array def /dmat 6 array def
/tmat1 6 array def /tmat2 6 array def /dif 3 array def
/asub {/ind2 exch def /ind1 exch def dup dup
  ind1 get exch ind2 get sub exch } bdef
/tri_to_matrix {
  2 0 asub 3 1 asub 4 0 asub 5 1 asub
  dup 0 get exch 1 get 7 -1 roll astore } bdef
/compute_transform {
  dmat dtri tri_to_matrix tmat1 invertmatrix 
  smat stri tri_to_matrix tmat2 concatmatrix } bdef
/ds {stri astore pop} bdef
/dt {dtri astore pop} bdef
/db {2 copy /cols xdef /rows xdef mul dup 3 mul string
  currentfile 
  3 index 0 eq {/ASCIIHexDecode filter}
  {/ASCII85Decode filter 3 index 2 eq {/RunLengthDecode filter} if }
  ifelse exch readstring pop
  dup 0 3 index getinterval /rbmap xdef
  dup 2 index dup getinterval /gbmap xdef
  1 index dup 2 mul exch getinterval /bbmap xdef pop pop}bdef
/it {gs np dtri aload pop moveto lineto lineto cp c
  cols rows 8 compute_transform 
  rbmap gbmap bbmap true 3 colorimage gr}bdef
/il {newpath moveto lineto stroke}bdef
currentdict end def
%%EndProlog

%%BeginSetup
MathWorks begin

0 cap

end
%%EndSetup

%%Page: 1 1
%%BeginPageSetup
%%PageBoundingBox:  -172   155   786   635
MathWorks begin
bpage
%%EndPageSetup

%%BeginObject: obj1
bplot

/dpi2point 12 def
portraitMode -2064 7620 csm

    0     0 11505  5749 rc
85 dict begin %Colortable dictionary
/c0 { 0.000000 0.000000 0.000000 sr} bdef
/c1 { 1.000000 1.000000 1.000000 sr} bdef
/c2 { 0.900000 0.000000 0.000000 sr} bdef
/c3 { 0.000000 0.820000 0.000000 sr} bdef
/c4 { 0.000000 0.000000 0.800000 sr} bdef
/c5 { 0.910000 0.820000 0.320000 sr} bdef
/c6 { 1.000000 0.260000 0.820000 sr} bdef
/c7 { 0.000000 0.820000 0.820000 sr} bdef
c0
1 j
1 sg
   0    0 11506 5750 rf
6 w
0 4686 3850 0 0 -4686 1496 5117 4 MP
PP
-3850 0 0 4686 3850 0 0 -4686 1496 5117 5 MP stroke
4 w
DO
SO
6 w
0 sg
1496 5117 mt 5346 5117 L
1496  431 mt 5346  431 L
1496 5117 mt 1496  431 L
5346 5117 mt 5346  431 L
1496 5117 mt 5346 5117 L
1496 5117 mt 1496  431 L
1496 5117 mt 1496 5070 L
1496  431 mt 1496  477 L
%%IncludeResource: font Helvetica
/Helvetica /ISOLatin1Encoding 120 FMSR

1463 5262 mt 
(2) s
1977 5117 mt 1977 5070 L
1977  431 mt 1977  477 L
1894 5262 mt 
(2.5) s
2458 5117 mt 2458 5070 L
2458  431 mt 2458  477 L
2425 5262 mt 
(3) s
2939 5117 mt 2939 5070 L
2939  431 mt 2939  477 L
2856 5262 mt 
(3.5) s
3421 5117 mt 3421 5070 L
3421  431 mt 3421  477 L
3388 5262 mt 
(4) s
3902 5117 mt 3902 5070 L
3902  431 mt 3902  477 L
3819 5262 mt 
(4.5) s
4383 5117 mt 4383 5070 L
4383  431 mt 4383  477 L
4350 5262 mt 
(5) s
4864 5117 mt 4864 5070 L
4864  431 mt 4864  477 L
4781 5262 mt 
(5.5) s
5346 5117 mt 5346 5070 L
5346  431 mt 5346  477 L
5313 5262 mt 
(6) s
1496 5117 mt 1542 5117 L
5346 5117 mt 5299 5117 L
1325 5161 mt 
(-2) s
1496 4596 mt 1542 4596 L
5346 4596 mt 5299 4596 L
1325 4640 mt 
(-1) s
1496 4075 mt 1542 4075 L
5346 4075 mt 5299 4075 L
1395 4119 mt 
(0) s
1496 3555 mt 1542 3555 L
5346 3555 mt 5299 3555 L
1395 3599 mt 
(1) s
1496 3034 mt 1542 3034 L
5346 3034 mt 5299 3034 L
1395 3078 mt 
(2) s
1496 2513 mt 1542 2513 L
5346 2513 mt 5299 2513 L
1395 2557 mt 
(3) s
1496 1993 mt 1542 1993 L
5346 1993 mt 5299 1993 L
1395 2037 mt 
(4) s
1496 1472 mt 1542 1472 L
5346 1472 mt 5299 1472 L
1395 1516 mt 
(5) s
1496  951 mt 1542  951 L
5346  951 mt 5299  951 L
1395  995 mt 
(6) s
1496  431 mt 1542  431 L
5346  431 mt 5299  431 L
1395  475 mt 
(7) s
1496 5117 mt 5346 5117 L
1496  431 mt 5346  431 L
1496 5117 mt 1496  431 L
5346 5117 mt 5346  431 L
gs 1496 431 3851 4687 rc
/c8 { 0.000000 0.000000 1.000000 sr} bdef
c8
963 -256 962 13 963 1050 962 1168 1496 802 5 MP stroke
gr

c8
0 j
36 47 -36 47 -36 -47 36 -47 1496 849 5 MP
DP
36 47 -36 47 -36 -47 36 -47 2458 2017 5 MP
DP
36 47 -36 47 -36 -47 36 -47 3421 3067 5 MP
DP
36 47 -36 47 -36 -47 36 -47 4383 3080 5 MP
DP
36 47 -36 47 -36 -47 36 -47 5346 2824 5 MP
DP
gs 1496 431 3851 4687 rc
/c9 { 0.000000 0.500000 0.000000 sr} bdef
c9
963 -325 962 -626 963 1740 962 1712 1496 1250 5 MP stroke
gr

c9
36 47 -36 47 -36 -47 36 -47 1496 1297 5 MP
DP
36 47 -36 47 -36 -47 36 -47 2458 3009 5 MP
DP
36 47 -36 47 -36 -47 36 -47 3421 4749 5 MP
DP
36 47 -36 47 -36 -47 36 -47 4383 4123 5 MP
DP
36 47 -36 47 -36 -47 36 -47 5346 3798 5 MP
DP
gs 1496 431 3851 4687 rc
gr

0 sg
%%IncludeResource: font Helvetica
/Helvetica /ISOLatin1Encoding 180 FMSR

2487 5449 mt 
(number of communities) s
1230 4380 mt  -90 rotate
(percentage improvement in loglikelihood) s
90 rotate
%%IncludeResource: font Helvetica
/Helvetica /ISOLatin1Encoding 120 FMSR

1479 5160 mt 
( ) s
5330  473 mt 
( ) s
1 sg
0 334 1204 0 0 -334 4083 825 4 MP
PP
-1204 0 0 334 1204 0 0 -334 4083 825 5 MP stroke
4 w
DO
SO
6 w
0 sg
4083  825 mt 5287  825 L
4083  491 mt 5287  491 L
4083  825 mt 4083  491 L
5287  825 mt 5287  491 L
4083  825 mt 5287  825 L
4083  825 mt 4083  491 L
4083  825 mt 5287  825 L
4083  491 mt 5287  491 L
4083  825 mt 4083  491 L
5287  825 mt 5287  491 L
4460  626 mt 
(training set) s
gs 4083 491 1205 335 rc
c8
290 0 4140 583 2 MP stroke
gs 4212 510 147 147 rc
36 47 -36 47 -36 -47 36 -47 4285 630 5 MP
DP
gr

gr

c8
0 sg
4460  775 mt 
(validation set) s
gs 4083 491 1205 335 rc
c9
290 0 4140 732 2 MP stroke
gs 4212 659 147 147 rc
36 47 -36 47 -36 -47 36 -47 4285 779 5 MP
DP
gr

gr

c9
1 sg
0 4686 3850 0 0 -4686 6562 5117 4 MP
PP
-3850 0 0 4686 3850 0 0 -4686 6562 5117 5 MP stroke
4 w
DO
SO
6 w
0 sg
6562 5117 mt 10412 5117 L
6562  431 mt 10412  431 L
6562 5117 mt 6562  431 L
10412 5117 mt 10412  431 L
6562 5117 mt 10412 5117 L
6562 5117 mt 6562  431 L
6562 5117 mt 6562 5070 L
6562  431 mt 6562  477 L
6529 5262 mt 
(2) s
7043 5117 mt 7043 5070 L
7043  431 mt 7043  477 L
6960 5262 mt 
(2.5) s
7524 5117 mt 7524 5070 L
7524  431 mt 7524  477 L
7491 5262 mt 
(3) s
8005 5117 mt 8005 5070 L
8005  431 mt 8005  477 L
7922 5262 mt 
(3.5) s
8487 5117 mt 8487 5070 L
8487  431 mt 8487  477 L
8454 5262 mt 
(4) s
8968 5117 mt 8968 5070 L
8968  431 mt 8968  477 L
8885 5262 mt 
(4.5) s
9449 5117 mt 9449 5070 L
9449  431 mt 9449  477 L
9416 5262 mt 
(5) s
9930 5117 mt 9930 5070 L
9930  431 mt 9930  477 L
9847 5262 mt 
(5.5) s
10412 5117 mt 10412 5070 L
10412  431 mt 10412  477 L
10379 5262 mt 
(6) s
6562 5117 mt 6608 5117 L
10412 5117 mt 10365 5117 L
6391 5161 mt 
(-4) s
6562 4648 mt 6608 4648 L
10412 4648 mt 10365 4648 L
6391 4692 mt 
(-3) s
6562 4179 mt 6608 4179 L
10412 4179 mt 10365 4179 L
6391 4223 mt 
(-2) s
6562 3711 mt 6608 3711 L
10412 3711 mt 10365 3711 L
6391 3755 mt 
(-1) s
6562 3242 mt 6608 3242 L
10412 3242 mt 10365 3242 L
6461 3286 mt 
(0) s
6562 2774 mt 6608 2774 L
10412 2774 mt 10365 2774 L
6461 2818 mt 
(1) s
6562 2305 mt 6608 2305 L
10412 2305 mt 10365 2305 L
6461 2349 mt 
(2) s
6562 1836 mt 6608 1836 L
10412 1836 mt 10365 1836 L
6461 1880 mt 
(3) s
6562 1368 mt 6608 1368 L
10412 1368 mt 10365 1368 L
6461 1412 mt 
(4) s
6562  899 mt 6608  899 L
10412  899 mt 10365  899 L
6461  943 mt 
(5) s
6562  431 mt 6608  431 L
10412  431 mt 10365  431 L
6461  475 mt 
(6) s
6562 5117 mt 10412 5117 L
6562  431 mt 10412  431 L
6562 5117 mt 6562  431 L
10412 5117 mt 10412  431 L
gs 6562 431 3851 4687 rc
c8
963 -408 962 -235 963 1463 962 740 6562 518 5 MP stroke
gr

c8
36 47 -36 47 -36 -47 36 -47 6562 565 5 MP
DP
36 47 -36 47 -36 -47 36 -47 7524 1305 5 MP
DP
36 47 -36 47 -36 -47 36 -47 8487 2768 5 MP
DP
36 47 -36 47 -36 -47 36 -47 9449 2533 5 MP
DP
36 47 -36 47 -36 -47 36 -47 10412 2125 5 MP
DP
gs 6562 431 3851 4687 rc
c9
963 -383 962 -992 963 2372 962 1483 6562 860 5 MP stroke
gr

c9
36 47 -36 47 -36 -47 36 -47 6562 907 5 MP
DP
36 47 -36 47 -36 -47 36 -47 7524 2390 5 MP
DP
36 47 -36 47 -36 -47 36 -47 8487 4762 5 MP
DP
36 47 -36 47 -36 -47 36 -47 9449 3770 5 MP
DP
36 47 -36 47 -36 -47 36 -47 10412 3387 5 MP
DP
gs 6562 431 3851 4687 rc
gr

0 sg
%%IncludeResource: font Helvetica
/Helvetica /ISOLatin1Encoding 180 FMSR

7553 5449 mt 
(number of communities) s
6296 4717 mt  -90 rotate
(percentage improvement in sum of square errors) s
90 rotate
%%IncludeResource: font Helvetica
/Helvetica /ISOLatin1Encoding 120 FMSR

6545 5160 mt 
( ) s
10396  473 mt 
( ) s
1 sg
0 334 1203 0 0 -334 9149 825 4 MP
PP
-1203 0 0 334 1203 0 0 -334 9149 825 5 MP stroke
4 w
DO
SO
6 w
0 sg
9149  825 mt 10352  825 L
9149  491 mt 10352  491 L
9149  825 mt 9149  491 L
10352  825 mt 10352  491 L
9149  825 mt 10352  825 L
9149  825 mt 9149  491 L
9149  825 mt 10352  825 L
9149  491 mt 10352  491 L
9149  825 mt 9149  491 L
10352  825 mt 10352  491 L
9526  626 mt 
(training set) s
gs 9149 491 1204 335 rc
c8
290 0 9206 583 2 MP stroke
gs 9278 510 147 147 rc
36 47 -36 47 -36 -47 36 -47 9351 630 5 MP
DP
gr

gr

c8
0 sg
9526  775 mt 
(validation set) s
gs 9149 491 1204 335 rc
c9
290 0 9206 732 2 MP stroke
gs 9278 659 147 147 rc
36 47 -36 47 -36 -47 36 -47 9351 779 5 MP
DP
gr

gr

c9

end %%Color Dict

eplot
%%EndObject

epage
end

showpage

%%Trailer
%%EOF
