%!PS-Adobe-3.0 EPSF-3.0
%%Creator: MATLAB, The MathWorks, Inc. Version 7.14.0.739 (R2012a). Operating System: Linux 3.0.74-0.6.8-default #1 SMP Wed May 15 07:26:33 UTC 2013 (5e244d7) x86_64.
%%Title: /global/u1/z/zxwang/git/citation-network-analysis/EM_clustering_summary.eps
%%CreationDate: 02/24/2014  21:25:55
%%DocumentNeededFonts: Helvetica
%%DocumentProcessColors: Cyan Magenta Yellow Black
%%LanguageLevel: 2
%%Pages: 1
%%BoundingBox:  -246   105   859   686
%%EndComments

%%BeginProlog
% MathWorks dictionary
/MathWorks 160 dict begin
% definition operators
/bdef {bind def} bind def
/ldef {load def} bind def
/xdef {exch def} bdef
/xstore {exch store} bdef
% operator abbreviations
/c  /clip ldef
/cc /concat ldef
/cp /closepath ldef
/gr /grestore ldef
/gs /gsave ldef
/mt /moveto ldef
/np /newpath ldef
/cm /currentmatrix ldef
/sm /setmatrix ldef
/rm /rmoveto ldef
/rl /rlineto ldef
/s {show newpath} bdef
/sc {setcmykcolor} bdef
/sr /setrgbcolor ldef
/sg /setgray ldef
/w /setlinewidth ldef
/j /setlinejoin ldef
/cap /setlinecap ldef
/rc {rectclip} bdef
/rf {rectfill} bdef
% page state control
/pgsv () def
/bpage {/pgsv save def} bdef
/epage {pgsv restore} bdef
/bplot /gsave ldef
/eplot {stroke grestore} bdef
% orientation switch
/portraitMode 0 def /landscapeMode 1 def /rotateMode 2 def
% coordinate system mappings
/dpi2point 0 def
% font control
/FontSize 0 def
/FMS {/FontSize xstore findfont [FontSize 0 0 FontSize neg 0 0]
  makefont setfont} bdef
/reencode {exch dup where {pop load} {pop StandardEncoding} ifelse
  exch dup 3 1 roll findfont dup length dict begin
  { 1 index /FID ne {def}{pop pop} ifelse } forall
  /Encoding exch def currentdict end definefont pop} bdef
/isroman {findfont /CharStrings get /Agrave known} bdef
/FMSR {3 1 roll 1 index dup isroman {reencode} {pop pop} ifelse
  exch FMS} bdef
/csm {1 dpi2point div -1 dpi2point div scale neg translate
 dup landscapeMode eq {pop -90 rotate}
  {rotateMode eq {90 rotate} if} ifelse} bdef
% line types: solid, dotted, dashed, dotdash
/SO { [] 0 setdash } bdef
/DO { [.5 dpi2point mul 4 dpi2point mul] 0 setdash } bdef
/DA { [6 dpi2point mul] 0 setdash } bdef
/DD { [.5 dpi2point mul 4 dpi2point mul 6 dpi2point mul 4
  dpi2point mul] 0 setdash } bdef
% macros for lines and objects
/L {lineto stroke} bdef
/MP {3 1 roll moveto 1 sub {rlineto} repeat} bdef
/AP {{rlineto} repeat} bdef
/PDlw -1 def
/W {/PDlw currentlinewidth def setlinewidth} def
/PP {closepath eofill} bdef
/DP {closepath stroke} bdef
/MR {4 -2 roll moveto dup  0 exch rlineto exch 0 rlineto
  neg 0 exch rlineto closepath} bdef
/FR {MR stroke} bdef
/PR {MR fill} bdef
/L1i {{currentfile picstr readhexstring pop} image} bdef
/tMatrix matrix def
/MakeOval {newpath tMatrix currentmatrix pop translate scale
0 0 1 0 360 arc tMatrix setmatrix} bdef
/FO {MakeOval stroke} bdef
/PO {MakeOval fill} bdef
/PD {currentlinewidth 2 div 0 360 arc fill
   PDlw -1 eq not {PDlw w /PDlw -1 def} if} def
/FA {newpath tMatrix currentmatrix pop translate scale
  0 0 1 5 -2 roll arc tMatrix setmatrix stroke} bdef
/PA {newpath tMatrix currentmatrix pop	translate 0 0 moveto scale
  0 0 1 5 -2 roll arc closepath tMatrix setmatrix fill} bdef
/FAn {newpath tMatrix currentmatrix pop translate scale
  0 0 1 5 -2 roll arcn tMatrix setmatrix stroke} bdef
/PAn {newpath tMatrix currentmatrix pop translate 0 0 moveto scale
  0 0 1 5 -2 roll arcn closepath tMatrix setmatrix fill} bdef
/vradius 0 def /hradius 0 def /lry 0 def
/lrx 0 def /uly 0 def /ulx 0 def /rad 0 def
/MRR {/vradius xdef /hradius xdef /lry xdef /lrx xdef /uly xdef
  /ulx xdef newpath tMatrix currentmatrix pop ulx hradius add uly
  vradius add translate hradius vradius scale 0 0 1 180 270 arc 
  tMatrix setmatrix lrx hradius sub uly vradius add translate
  hradius vradius scale 0 0 1 270 360 arc tMatrix setmatrix
  lrx hradius sub lry vradius sub translate hradius vradius scale
  0 0 1 0 90 arc tMatrix setmatrix ulx hradius add lry vradius sub
  translate hradius vradius scale 0 0 1 90 180 arc tMatrix setmatrix
  closepath} bdef
/FRR {MRR stroke } bdef
/PRR {MRR fill } bdef
/MlrRR {/lry xdef /lrx xdef /uly xdef /ulx xdef /rad lry uly sub 2 div def
  newpath tMatrix currentmatrix pop ulx rad add uly rad add translate
  rad rad scale 0 0 1 90 270 arc tMatrix setmatrix lrx rad sub lry rad
  sub translate rad rad scale 0 0 1 270 90 arc tMatrix setmatrix
  closepath} bdef
/FlrRR {MlrRR stroke } bdef
/PlrRR {MlrRR fill } bdef
/MtbRR {/lry xdef /lrx xdef /uly xdef /ulx xdef /rad lrx ulx sub 2 div def
  newpath tMatrix currentmatrix pop ulx rad add uly rad add translate
  rad rad scale 0 0 1 180 360 arc tMatrix setmatrix lrx rad sub lry rad
  sub translate rad rad scale 0 0 1 0 180 arc tMatrix setmatrix
  closepath} bdef
/FtbRR {MtbRR stroke } bdef
/PtbRR {MtbRR fill } bdef
/stri 6 array def /dtri 6 array def
/smat 6 array def /dmat 6 array def
/tmat1 6 array def /tmat2 6 array def /dif 3 array def
/asub {/ind2 exch def /ind1 exch def dup dup
  ind1 get exch ind2 get sub exch } bdef
/tri_to_matrix {
  2 0 asub 3 1 asub 4 0 asub 5 1 asub
  dup 0 get exch 1 get 7 -1 roll astore } bdef
/compute_transform {
  dmat dtri tri_to_matrix tmat1 invertmatrix 
  smat stri tri_to_matrix tmat2 concatmatrix } bdef
/ds {stri astore pop} bdef
/dt {dtri astore pop} bdef
/db {2 copy /cols xdef /rows xdef mul dup 3 mul string
  currentfile 
  3 index 0 eq {/ASCIIHexDecode filter}
  {/ASCII85Decode filter 3 index 2 eq {/RunLengthDecode filter} if }
  ifelse exch readstring pop
  dup 0 3 index getinterval /rbmap xdef
  dup 2 index dup getinterval /gbmap xdef
  1 index dup 2 mul exch getinterval /bbmap xdef pop pop}bdef
/it {gs np dtri aload pop moveto lineto lineto cp c
  cols rows 8 compute_transform 
  rbmap gbmap bbmap true 3 colorimage gr}bdef
/il {newpath moveto lineto stroke}bdef
currentdict end def
%%EndProlog

%%BeginSetup
MathWorks begin

0 cap

end
%%EndSetup

%%Page: 1 1
%%BeginPageSetup
%%PageBoundingBox:  -246   105   859   686
MathWorks begin
bpage
%%EndPageSetup

%%BeginObject: obj1
bplot

/dpi2point 12 def
portraitMode -2952 8232 csm

    0     0 13268  6969 rc
85 dict begin %Colortable dictionary
/c0 { 0.000000 0.000000 0.000000 sr} bdef
/c1 { 1.000000 1.000000 1.000000 sr} bdef
/c2 { 0.900000 0.000000 0.000000 sr} bdef
/c3 { 0.000000 0.820000 0.000000 sr} bdef
/c4 { 0.000000 0.000000 0.800000 sr} bdef
/c5 { 0.910000 0.820000 0.320000 sr} bdef
/c6 { 1.000000 0.260000 0.820000 sr} bdef
/c7 { 0.000000 0.820000 0.820000 sr} bdef
c0
1 j
1 sg
   0    0 13269 6970 rf
6 w
0 5679 4440 0 0 -5679 1725 6202 4 MP
PP
-4440 0 0 5679 4440 0 0 -5679 1725 6202 5 MP stroke
4 w
DO
SO
6 w
0 sg
1725 6202 mt 6165 6202 L
1725  523 mt 6165  523 L
1725 6202 mt 1725  523 L
6165 6202 mt 6165  523 L
1725 6202 mt 6165 6202 L
1725 6202 mt 1725  523 L
1725 6202 mt 1725 6145 L
1725  523 mt 1725  579 L
%%IncludeResource: font Helvetica
/Helvetica /ISOLatin1Encoding 120 FMSR

1692 6347 mt 
(2) s
2280 6202 mt 2280 6145 L
2280  523 mt 2280  579 L
2197 6347 mt 
(2.5) s
2835 6202 mt 2835 6145 L
2835  523 mt 2835  579 L
2802 6347 mt 
(3) s
3390 6202 mt 3390 6145 L
3390  523 mt 3390  579 L
3307 6347 mt 
(3.5) s
3945 6202 mt 3945 6145 L
3945  523 mt 3945  579 L
3912 6347 mt 
(4) s
4500 6202 mt 4500 6145 L
4500  523 mt 4500  579 L
4417 6347 mt 
(4.5) s
5055 6202 mt 5055 6145 L
5055  523 mt 5055  579 L
5022 6347 mt 
(5) s
5610 6202 mt 5610 6145 L
5610  523 mt 5610  579 L
5527 6347 mt 
(5.5) s
6165 6202 mt 6165 6145 L
6165  523 mt 6165  579 L
6132 6347 mt 
(6) s
1725 6202 mt 1781 6202 L
6165 6202 mt 6108 6202 L
1554 6246 mt 
(-2) s
1725 5634 mt 1781 5634 L
6165 5634 mt 6108 5634 L
1554 5678 mt 
(-1) s
1725 5066 mt 1781 5066 L
6165 5066 mt 6108 5066 L
1624 5110 mt 
(0) s
1725 4498 mt 1781 4498 L
6165 4498 mt 6108 4498 L
1624 4542 mt 
(1) s
1725 3930 mt 1781 3930 L
6165 3930 mt 6108 3930 L
1624 3974 mt 
(2) s
1725 3362 mt 1781 3362 L
6165 3362 mt 6108 3362 L
1624 3406 mt 
(3) s
1725 2794 mt 1781 2794 L
6165 2794 mt 6108 2794 L
1624 2838 mt 
(4) s
1725 2226 mt 1781 2226 L
6165 2226 mt 6108 2226 L
1624 2270 mt 
(5) s
1725 1658 mt 1781 1658 L
6165 1658 mt 6108 1658 L
1624 1702 mt 
(6) s
1725 1090 mt 1781 1090 L
6165 1090 mt 6108 1090 L
1624 1134 mt 
(7) s
1725  523 mt 1781  523 L
6165  523 mt 6108  523 L
1624  567 mt 
(8) s
1725 6202 mt 6165 6202 L
1725  523 mt 6165  523 L
1725 6202 mt 1725  523 L
6165 6202 mt 6165  523 L
gs 1725 523 4441 5680 rc
/c8 { 0.000000 0.000000 1.000000 sr} bdef
c8
1110 -970 1110 1080 1110 983 1110 1750 1725 822 5 MP stroke
gr

c8
0 j
36 47 -36 47 -36 -47 36 -47 1725 869 5 MP
DP
36 47 -36 47 -36 -47 36 -47 2835 2619 5 MP
DP
36 47 -36 47 -36 -47 36 -47 3945 3602 5 MP
DP
36 47 -36 47 -36 -47 36 -47 5055 4682 5 MP
DP
36 47 -36 47 -36 -47 36 -47 6165 3712 5 MP
DP
gs 1725 523 4441 5680 rc
/c9 { 0.000000 0.500000 0.000000 sr} bdef
c9
1110 -1078 1110 -71 1110 1989 1110 2582 1725 1104 5 MP stroke
gr

c9
36 47 -36 47 -36 -47 36 -47 1725 1151 5 MP
DP
36 47 -36 47 -36 -47 36 -47 2835 3733 5 MP
DP
36 47 -36 47 -36 -47 36 -47 3945 5722 5 MP
DP
36 47 -36 47 -36 -47 36 -47 5055 5651 5 MP
DP
36 47 -36 47 -36 -47 36 -47 6165 4573 5 MP
DP
gs 1725 523 4441 5680 rc
gr

0 sg
%%IncludeResource: font Helvetica
/Helvetica /ISOLatin1Encoding 180 FMSR

3011 6534 mt 
(number of communities) s
1459 4968 mt  -90 rotate
(percentage improvement in loglikelihood) s
90 rotate
%%IncludeResource: font Helvetica
/Helvetica /ISOLatin1Encoding 120 FMSR

1708 6245 mt 
( ) s
6149  565 mt 
( ) s
1 sg
0 5679 4441 0 0 -5679 7567 6202 4 MP
PP
-4441 0 0 5679 4441 0 0 -5679 7567 6202 5 MP stroke
4 w
DO
SO
6 w
0 sg
7567 6202 mt 12008 6202 L
7567  523 mt 12008  523 L
7567 6202 mt 7567  523 L
12008 6202 mt 12008  523 L
7567 6202 mt 12008 6202 L
7567 6202 mt 7567  523 L
7567 6202 mt 7567 6145 L
7567  523 mt 7567  579 L
7534 6347 mt 
(2) s
8122 6202 mt 8122 6145 L
8122  523 mt 8122  579 L
8039 6347 mt 
(2.5) s
8677 6202 mt 8677 6145 L
8677  523 mt 8677  579 L
8644 6347 mt 
(3) s
9232 6202 mt 9232 6145 L
9232  523 mt 9232  579 L
9149 6347 mt 
(3.5) s
9787 6202 mt 9787 6145 L
9787  523 mt 9787  579 L
9754 6347 mt 
(4) s
10342 6202 mt 10342 6145 L
10342  523 mt 10342  579 L
10259 6347 mt 
(4.5) s
10897 6202 mt 10897 6145 L
10897  523 mt 10897  579 L
10864 6347 mt 
(5) s
11452 6202 mt 11452 6145 L
11452  523 mt 11452  579 L
11369 6347 mt 
(5.5) s
12008 6202 mt 12008 6145 L
12008  523 mt 12008  579 L
11975 6347 mt 
(6) s
7567 6202 mt 7623 6202 L
12008 6202 mt 11951 6202 L
7396 6246 mt 
(-4) s
7567 5255 mt 7623 5255 L
12008 5255 mt 11951 5255 L
7396 5299 mt 
(-2) s
7567 4309 mt 7623 4309 L
12008 4309 mt 11951 4309 L
7466 4353 mt 
(0) s
7567 3362 mt 7623 3362 L
12008 3362 mt 11951 3362 L
7466 3406 mt 
(2) s
7567 2416 mt 7623 2416 L
12008 2416 mt 11951 2416 L
7466 2460 mt 
(4) s
7567 1469 mt 7623 1469 L
12008 1469 mt 11951 1469 L
7466 1513 mt 
(6) s
7567  523 mt 7623  523 L
12008  523 mt 11951  523 L
7466  567 mt 
(8) s
7567 6202 mt 12008 6202 L
7567  523 mt 12008  523 L
7567 6202 mt 7567  523 L
12008 6202 mt 12008  523 L
gs 7567 523 4442 5680 rc
c8
1111 -1081 1110 652 1110 1423 1110 1100 7567 1048 5 MP stroke
gr

c8
36 47 -36 47 -36 -47 36 -47 7567 1095 5 MP
DP
36 47 -36 47 -36 -47 36 -47 8677 2195 5 MP
DP
36 47 -36 47 -36 -47 36 -47 9787 3618 5 MP
DP
36 47 -36 47 -36 -47 36 -47 10897 4270 5 MP
DP
36 47 -36 47 -36 -47 36 -47 12008 3189 5 MP
DP
gs 7567 523 4442 5680 rc
c9
1111 -1262 1110 -455 1110 2766 1110 2307 7567 727 5 MP stroke
gr

c9
36 47 -36 47 -36 -47 36 -47 7567 774 5 MP
DP
36 47 -36 47 -36 -47 36 -47 8677 3081 5 MP
DP
36 47 -36 47 -36 -47 36 -47 9787 5847 5 MP
DP
36 47 -36 47 -36 -47 36 -47 10897 5392 5 MP
DP
36 47 -36 47 -36 -47 36 -47 12008 4130 5 MP
DP
gs 7567 523 4442 5680 rc
gr

0 sg
%%IncludeResource: font Helvetica
/Helvetica /ISOLatin1Encoding 180 FMSR

8853 6534 mt 
(number of communities) s
7301 5305 mt  -90 rotate
(percentage improvement in sum of square errors) s
90 rotate
%%IncludeResource: font Helvetica
/Helvetica /ISOLatin1Encoding 120 FMSR

7550 6245 mt 
( ) s
11992  565 mt 
( ) s
1 sg
0 334 1203 0 0 -334 4903 917 4 MP
PP
-1203 0 0 334 1203 0 0 -334 4903 917 5 MP stroke
4 w
DO
SO
6 w
0 sg
4903  917 mt 6106  917 L
4903  583 mt 6106  583 L
4903  917 mt 4903  583 L
6106  917 mt 6106  583 L
4903  917 mt 6106  917 L
4903  917 mt 4903  583 L
4903  917 mt 6106  917 L
4903  583 mt 6106  583 L
4903  917 mt 4903  583 L
6106  917 mt 6106  583 L
5280  718 mt 
(training set) s
gs 4903 583 1204 335 rc
c8
290 0 4960 675 2 MP stroke
gs 5032 602 147 147 rc
36 47 -36 47 -36 -47 36 -47 5105 722 5 MP
DP
gr

gr

c8
0 sg
5280  867 mt 
(validation set) s
gs 4903 583 1204 335 rc
c9
290 0 4960 824 2 MP stroke
gs 5032 751 147 147 rc
36 47 -36 47 -36 -47 36 -47 5105 871 5 MP
DP
gr

gr

c9
1 sg
0 334 1203 0 0 -334 10745 917 4 MP
PP
-1203 0 0 334 1203 0 0 -334 10745 917 5 MP stroke
4 w
DO
SO
6 w
0 sg
10745  917 mt 11948  917 L
10745  583 mt 11948  583 L
10745  917 mt 10745  583 L
11948  917 mt 11948  583 L
10745  917 mt 11948  917 L
10745  917 mt 10745  583 L
10745  917 mt 11948  917 L
10745  583 mt 11948  583 L
10745  917 mt 10745  583 L
11948  917 mt 11948  583 L
11122  718 mt 
(training set) s
gs 10745 583 1204 335 rc
c8
290 0 10802 675 2 MP stroke
gs 10874 602 147 147 rc
36 47 -36 47 -36 -47 36 -47 10947 722 5 MP
DP
gr

gr

c8
0 sg
11122  867 mt 
(validation set) s
gs 10745 583 1204 335 rc
c9
290 0 10802 824 2 MP stroke
gs 10874 751 147 147 rc
36 47 -36 47 -36 -47 36 -47 10947 871 5 MP
DP
gr

gr

c9

end %%Color Dict

eplot
%%EndObject

epage
end

showpage

%%Trailer
%%EOF
