%!PS-Adobe-3.0 EPSF-3.0
%%Creator: MATLAB, The MathWorks, Inc. Version 7.14.0.739 (R2012a). Operating System: Linux 3.0.74-0.6.8-default #1 SMP Wed May 15 07:26:33 UTC 2013 (5e244d7) x86_64.
%%Title: /global/u1/z/zxwang/git/citation-network-analysis/EM_clustering_ncommscan_npara5.eps
%%CreationDate: 02/25/2014  08:22:24
%%DocumentNeededFonts: Helvetica
%%DocumentProcessColors: Cyan Magenta Yellow Black
%%LanguageLevel: 2
%%Pages: 1
%%BoundingBox:  -173   156   787   636
%%EndComments

%%BeginProlog
% MathWorks dictionary
/MathWorks 160 dict begin
% definition operators
/bdef {bind def} bind def
/ldef {load def} bind def
/xdef {exch def} bdef
/xstore {exch store} bdef
% operator abbreviations
/c  /clip ldef
/cc /concat ldef
/cp /closepath ldef
/gr /grestore ldef
/gs /gsave ldef
/mt /moveto ldef
/np /newpath ldef
/cm /currentmatrix ldef
/sm /setmatrix ldef
/rm /rmoveto ldef
/rl /rlineto ldef
/s {show newpath} bdef
/sc {setcmykcolor} bdef
/sr /setrgbcolor ldef
/sg /setgray ldef
/w /setlinewidth ldef
/j /setlinejoin ldef
/cap /setlinecap ldef
/rc {rectclip} bdef
/rf {rectfill} bdef
% page state control
/pgsv () def
/bpage {/pgsv save def} bdef
/epage {pgsv restore} bdef
/bplot /gsave ldef
/eplot {stroke grestore} bdef
% orientation switch
/portraitMode 0 def /landscapeMode 1 def /rotateMode 2 def
% coordinate system mappings
/dpi2point 0 def
% font control
/FontSize 0 def
/FMS {/FontSize xstore findfont [FontSize 0 0 FontSize neg 0 0]
  makefont setfont} bdef
/reencode {exch dup where {pop load} {pop StandardEncoding} ifelse
  exch dup 3 1 roll findfont dup length dict begin
  { 1 index /FID ne {def}{pop pop} ifelse } forall
  /Encoding exch def currentdict end definefont pop} bdef
/isroman {findfont /CharStrings get /Agrave known} bdef
/FMSR {3 1 roll 1 index dup isroman {reencode} {pop pop} ifelse
  exch FMS} bdef
/csm {1 dpi2point div -1 dpi2point div scale neg translate
 dup landscapeMode eq {pop -90 rotate}
  {rotateMode eq {90 rotate} if} ifelse} bdef
% line types: solid, dotted, dashed, dotdash
/SO { [] 0 setdash } bdef
/DO { [.5 dpi2point mul 4 dpi2point mul] 0 setdash } bdef
/DA { [6 dpi2point mul] 0 setdash } bdef
/DD { [.5 dpi2point mul 4 dpi2point mul 6 dpi2point mul 4
  dpi2point mul] 0 setdash } bdef
% macros for lines and objects
/L {lineto stroke} bdef
/MP {3 1 roll moveto 1 sub {rlineto} repeat} bdef
/AP {{rlineto} repeat} bdef
/PDlw -1 def
/W {/PDlw currentlinewidth def setlinewidth} def
/PP {closepath eofill} bdef
/DP {closepath stroke} bdef
/MR {4 -2 roll moveto dup  0 exch rlineto exch 0 rlineto
  neg 0 exch rlineto closepath} bdef
/FR {MR stroke} bdef
/PR {MR fill} bdef
/L1i {{currentfile picstr readhexstring pop} image} bdef
/tMatrix matrix def
/MakeOval {newpath tMatrix currentmatrix pop translate scale
0 0 1 0 360 arc tMatrix setmatrix} bdef
/FO {MakeOval stroke} bdef
/PO {MakeOval fill} bdef
/PD {currentlinewidth 2 div 0 360 arc fill
   PDlw -1 eq not {PDlw w /PDlw -1 def} if} def
/FA {newpath tMatrix currentmatrix pop translate scale
  0 0 1 5 -2 roll arc tMatrix setmatrix stroke} bdef
/PA {newpath tMatrix currentmatrix pop	translate 0 0 moveto scale
  0 0 1 5 -2 roll arc closepath tMatrix setmatrix fill} bdef
/FAn {newpath tMatrix currentmatrix pop translate scale
  0 0 1 5 -2 roll arcn tMatrix setmatrix stroke} bdef
/PAn {newpath tMatrix currentmatrix pop translate 0 0 moveto scale
  0 0 1 5 -2 roll arcn closepath tMatrix setmatrix fill} bdef
/vradius 0 def /hradius 0 def /lry 0 def
/lrx 0 def /uly 0 def /ulx 0 def /rad 0 def
/MRR {/vradius xdef /hradius xdef /lry xdef /lrx xdef /uly xdef
  /ulx xdef newpath tMatrix currentmatrix pop ulx hradius add uly
  vradius add translate hradius vradius scale 0 0 1 180 270 arc 
  tMatrix setmatrix lrx hradius sub uly vradius add translate
  hradius vradius scale 0 0 1 270 360 arc tMatrix setmatrix
  lrx hradius sub lry vradius sub translate hradius vradius scale
  0 0 1 0 90 arc tMatrix setmatrix ulx hradius add lry vradius sub
  translate hradius vradius scale 0 0 1 90 180 arc tMatrix setmatrix
  closepath} bdef
/FRR {MRR stroke } bdef
/PRR {MRR fill } bdef
/MlrRR {/lry xdef /lrx xdef /uly xdef /ulx xdef /rad lry uly sub 2 div def
  newpath tMatrix currentmatrix pop ulx rad add uly rad add translate
  rad rad scale 0 0 1 90 270 arc tMatrix setmatrix lrx rad sub lry rad
  sub translate rad rad scale 0 0 1 270 90 arc tMatrix setmatrix
  closepath} bdef
/FlrRR {MlrRR stroke } bdef
/PlrRR {MlrRR fill } bdef
/MtbRR {/lry xdef /lrx xdef /uly xdef /ulx xdef /rad lrx ulx sub 2 div def
  newpath tMatrix currentmatrix pop ulx rad add uly rad add translate
  rad rad scale 0 0 1 180 360 arc tMatrix setmatrix lrx rad sub lry rad
  sub translate rad rad scale 0 0 1 0 180 arc tMatrix setmatrix
  closepath} bdef
/FtbRR {MtbRR stroke } bdef
/PtbRR {MtbRR fill } bdef
/stri 6 array def /dtri 6 array def
/smat 6 array def /dmat 6 array def
/tmat1 6 array def /tmat2 6 array def /dif 3 array def
/asub {/ind2 exch def /ind1 exch def dup dup
  ind1 get exch ind2 get sub exch } bdef
/tri_to_matrix {
  2 0 asub 3 1 asub 4 0 asub 5 1 asub
  dup 0 get exch 1 get 7 -1 roll astore } bdef
/compute_transform {
  dmat dtri tri_to_matrix tmat1 invertmatrix 
  smat stri tri_to_matrix tmat2 concatmatrix } bdef
/ds {stri astore pop} bdef
/dt {dtri astore pop} bdef
/db {2 copy /cols xdef /rows xdef mul dup 3 mul string
  currentfile 
  3 index 0 eq {/ASCIIHexDecode filter}
  {/ASCII85Decode filter 3 index 2 eq {/RunLengthDecode filter} if }
  ifelse exch readstring pop
  dup 0 3 index getinterval /rbmap xdef
  dup 2 index dup getinterval /gbmap xdef
  1 index dup 2 mul exch getinterval /bbmap xdef pop pop}bdef
/it {gs np dtri aload pop moveto lineto lineto cp c
  cols rows 8 compute_transform 
  rbmap gbmap bbmap true 3 colorimage gr}bdef
/il {newpath moveto lineto stroke}bdef
currentdict end def
%%EndProlog

%%BeginSetup
MathWorks begin

0 cap

end
%%EndSetup

%%Page: 1 1
%%BeginPageSetup
%%PageBoundingBox:  -173   156   787   636
MathWorks begin
bpage
%%EndPageSetup

%%BeginObject: obj1
bplot

/dpi2point 12 def
portraitMode -2076 7632 csm

    0     0 11528  5760 rc
85 dict begin %Colortable dictionary
/c0 { 0.000000 0.000000 0.000000 sr} bdef
/c1 { 1.000000 1.000000 1.000000 sr} bdef
/c2 { 0.900000 0.000000 0.000000 sr} bdef
/c3 { 0.000000 0.820000 0.000000 sr} bdef
/c4 { 0.000000 0.000000 0.800000 sr} bdef
/c5 { 0.910000 0.820000 0.320000 sr} bdef
/c6 { 1.000000 0.260000 0.820000 sr} bdef
/c7 { 0.000000 0.820000 0.820000 sr} bdef
c0
1 j
1 sg
   0    0 11529 5761 rf
6 w
0 4694 3858 0 0 -4694 1499 5126 4 MP
PP
-3858 0 0 4694 3858 0 0 -4694 1499 5126 5 MP stroke
4 w
DO
SO
6 w
0 sg
1499 5126 mt 5357 5126 L
1499  432 mt 5357  432 L
1499 5126 mt 1499  432 L
5357 5126 mt 5357  432 L
1499 5126 mt 5357 5126 L
1499 5126 mt 1499  432 L
1499 5126 mt 1499 5079 L
1499  432 mt 1499  478 L
%%IncludeResource: font Helvetica
/Helvetica /ISOLatin1Encoding 120 FMSR

1466 5271 mt 
(2) s
2142 5126 mt 2142 5079 L
2142  432 mt 2142  478 L
2109 5271 mt 
(3) s
2785 5126 mt 2785 5079 L
2785  432 mt 2785  478 L
2752 5271 mt 
(4) s
3428 5126 mt 3428 5079 L
3428  432 mt 3428  478 L
3395 5271 mt 
(5) s
4071 5126 mt 4071 5079 L
4071  432 mt 4071  478 L
4038 5271 mt 
(6) s
4714 5126 mt 4714 5079 L
4714  432 mt 4714  478 L
4681 5271 mt 
(7) s
5357 5126 mt 5357 5079 L
5357  432 mt 5357  478 L
5324 5271 mt 
(8) s
1499 5126 mt 1545 5126 L
5357 5126 mt 5310 5126 L
1398 5170 mt 
(0) s
1499 4656 mt 1545 4656 L
5357 4656 mt 5310 4656 L
1298 4700 mt 
(0.1) s
1499 4187 mt 1545 4187 L
5357 4187 mt 5310 4187 L
1298 4231 mt 
(0.2) s
1499 3717 mt 1545 3717 L
5357 3717 mt 5310 3717 L
1298 3761 mt 
(0.3) s
1499 3248 mt 1545 3248 L
5357 3248 mt 5310 3248 L
1298 3292 mt 
(0.4) s
1499 2779 mt 1545 2779 L
5357 2779 mt 5310 2779 L
1298 2823 mt 
(0.5) s
1499 2309 mt 1545 2309 L
5357 2309 mt 5310 2309 L
1298 2353 mt 
(0.6) s
1499 1840 mt 1545 1840 L
5357 1840 mt 5310 1840 L
1298 1884 mt 
(0.7) s
1499 1370 mt 1545 1370 L
5357 1370 mt 5310 1370 L
1298 1414 mt 
(0.8) s
1499  901 mt 1545  901 L
5357  901 mt 5310  901 L
1298  945 mt 
(0.9) s
1499  432 mt 1545  432 L
5357  432 mt 5310  432 L
1398  476 mt 
(1) s
1499 5126 mt 5357 5126 L
1499  432 mt 5357  432 L
1499 5126 mt 1499  432 L
5357 5126 mt 5357  432 L
gs 1499 432 3859 4695 rc
/c8 { 0.000000 0.000000 1.000000 sr} bdef
c8
643 -106 643 -478 643 -4 643 79 643 -169 643 3361 1499 1538 7 MP stroke
gr

c8
0 j
36 47 -36 47 -36 -47 36 -47 1499 1585 5 MP
DP
36 47 -36 47 -36 -47 36 -47 2142 4946 5 MP
DP
36 47 -36 47 -36 -47 36 -47 2785 4777 5 MP
DP
36 47 -36 47 -36 -47 36 -47 3428 4856 5 MP
DP
36 47 -36 47 -36 -47 36 -47 4071 4852 5 MP
DP
36 47 -36 47 -36 -47 36 -47 4714 4374 5 MP
DP
36 47 -36 47 -36 -47 36 -47 5357 4268 5 MP
DP
gs 1499 432 3859 4695 rc
/c9 { 0.000000 0.500000 0.000000 sr} bdef
c9
643 -392 643 -1498 643 102 643 345 643 -2812 643 1458 1499 3379 7 MP stroke
gr

c9
36 47 -36 47 -36 -47 36 -47 1499 3426 5 MP
DP
36 47 -36 47 -36 -47 36 -47 2142 4884 5 MP
DP
36 47 -36 47 -36 -47 36 -47 2785 2072 5 MP
DP
36 47 -36 47 -36 -47 36 -47 3428 2417 5 MP
DP
36 47 -36 47 -36 -47 36 -47 4071 2519 5 MP
DP
36 47 -36 47 -36 -47 36 -47 4714 1021 5 MP
DP
36 47 -36 47 -36 -47 36 -47 5357 629 5 MP
DP
gs 1499 432 3859 4695 rc
gr

0 sg
%%IncludeResource: font Helvetica
/Helvetica /ISOLatin1Encoding 180 FMSR

2543 5458 mt 
(number of parameters) s
1203 4385 mt  -90 rotate
(percentage improvement in loglikelihood) s
90 rotate
%%IncludeResource: font Helvetica
/Helvetica /ISOLatin1Encoding 120 FMSR

1482 5169 mt 
( ) s
5341  474 mt 
( ) s
1 sg
0 400 1494 0 0 -400 1771 984 4 MP
PP
-1494 0 0 400 1494 0 0 -400 1771 984 5 MP stroke
4 w
DO
SO
6 w
0 sg
1771  984 mt 3265  984 L
1771  584 mt 3265  584 L
1771  984 mt 1771  584 L
3265  984 mt 3265  584 L
1771  984 mt 3265  984 L
1771  984 mt 1771  584 L
1771  984 mt 3265  984 L
1771  584 mt 3265  584 L
1771  984 mt 1771  584 L
3265  984 mt 3265  584 L
2239  737 mt 
(training set) s
gs 1771 584 1495 401 rc
c8
360 0 1842 694 2 MP stroke
gs 1949 621 147 147 rc
36 47 -36 47 -36 -47 36 -47 2022 741 5 MP
DP
gr

gr

c8
0 sg
2239  916 mt 
(validation set) s
gs 1771 584 1495 401 rc
c9
360 0 1842 873 2 MP stroke
gs 1949 800 147 147 rc
36 47 -36 47 -36 -47 36 -47 2022 920 5 MP
DP
gr

gr

c9
1 sg
0 4694 3858 0 0 -4694 6575 5126 4 MP
PP
-3858 0 0 4694 3858 0 0 -4694 6575 5126 5 MP stroke
4 w
DO
SO
6 w
0 sg
6575 5126 mt 10433 5126 L
6575  432 mt 10433  432 L
6575 5126 mt 6575  432 L
10433 5126 mt 10433  432 L
6575 5126 mt 10433 5126 L
6575 5126 mt 6575  432 L
6575 5126 mt 6575 5079 L
6575  432 mt 6575  478 L
6542 5271 mt 
(2) s
7218 5126 mt 7218 5079 L
7218  432 mt 7218  478 L
7185 5271 mt 
(3) s
7861 5126 mt 7861 5079 L
7861  432 mt 7861  478 L
7828 5271 mt 
(4) s
8504 5126 mt 8504 5079 L
8504  432 mt 8504  478 L
8471 5271 mt 
(5) s
9147 5126 mt 9147 5079 L
9147  432 mt 9147  478 L
9114 5271 mt 
(6) s
9790 5126 mt 9790 5079 L
9790  432 mt 9790  478 L
9757 5271 mt 
(7) s
10433 5126 mt 10433 5079 L
10433  432 mt 10433  478 L
10400 5271 mt 
(8) s
6575 5126 mt 6621 5126 L
10433 5126 mt 10386 5126 L
6474 5170 mt 
(0) s
6575 4656 mt 6621 4656 L
10433 4656 mt 10386 4656 L
6374 4700 mt 
(0.2) s
6575 4187 mt 6621 4187 L
10433 4187 mt 10386 4187 L
6374 4231 mt 
(0.4) s
6575 3717 mt 6621 3717 L
10433 3717 mt 10386 3717 L
6374 3761 mt 
(0.6) s
6575 3248 mt 6621 3248 L
10433 3248 mt 10386 3248 L
6374 3292 mt 
(0.8) s
6575 2779 mt 6621 2779 L
10433 2779 mt 10386 2779 L
6474 2823 mt 
(1) s
6575 2309 mt 6621 2309 L
10433 2309 mt 10386 2309 L
6374 2353 mt 
(1.2) s
6575 1840 mt 6621 1840 L
10433 1840 mt 10386 1840 L
6374 1884 mt 
(1.4) s
6575 1370 mt 6621 1370 L
10433 1370 mt 10386 1370 L
6374 1414 mt 
(1.6) s
6575  901 mt 6621  901 L
10433  901 mt 10386  901 L
6374  945 mt 
(1.8) s
6575  432 mt 6621  432 L
10433  432 mt 10386  432 L
6474  476 mt 
(2) s
6575 5126 mt 10433 5126 L
6575  432 mt 10433  432 L
6575 5126 mt 6575  432 L
10433 5126 mt 10433  432 L
gs 6575 432 3859 4695 rc
c8
643 -54 643 -474 643 -3 643 127 643 -466 643 2267 6575 2649 7 MP stroke
gr

c8
36 47 -36 47 -36 -47 36 -47 6575 2696 5 MP
DP
36 47 -36 47 -36 -47 36 -47 7218 4963 5 MP
DP
36 47 -36 47 -36 -47 36 -47 7861 4497 5 MP
DP
36 47 -36 47 -36 -47 36 -47 8504 4624 5 MP
DP
36 47 -36 47 -36 -47 36 -47 9147 4621 5 MP
DP
36 47 -36 47 -36 -47 36 -47 9790 4147 5 MP
DP
36 47 -36 47 -36 -47 36 -47 10433 4093 5 MP
DP
gs 6575 432 3859 4695 rc
c9
643 -168 643 -1404 643 141 643 575 643 -3045 643 597 6575 4099 7 MP stroke
gr

c9
36 47 -36 47 -36 -47 36 -47 6575 4146 5 MP
DP
36 47 -36 47 -36 -47 36 -47 7218 4743 5 MP
DP
36 47 -36 47 -36 -47 36 -47 7861 1698 5 MP
DP
36 47 -36 47 -36 -47 36 -47 8504 2273 5 MP
DP
36 47 -36 47 -36 -47 36 -47 9147 2414 5 MP
DP
36 47 -36 47 -36 -47 36 -47 9790 1010 5 MP
DP
36 47 -36 47 -36 -47 36 -47 10433 842 5 MP
DP
gs 6575 432 3859 4695 rc
gr

0 sg
%%IncludeResource: font Helvetica
/Helvetica /ISOLatin1Encoding 180 FMSR

7619 5458 mt 
(number of parameters) s
6279 4722 mt  -90 rotate
(percentage improvement in sum of square errors) s
90 rotate
%%IncludeResource: font Helvetica
/Helvetica /ISOLatin1Encoding 120 FMSR

6558 5169 mt 
( ) s
10417  474 mt 
( ) s
1 sg
0 400 1494 0 0 -400 6728 961 4 MP
PP
-1494 0 0 400 1494 0 0 -400 6728 961 5 MP stroke
4 w
DO
SO
6 w
0 sg
6728  961 mt 8222  961 L
6728  561 mt 8222  561 L
6728  961 mt 6728  561 L
8222  961 mt 8222  561 L
6728  961 mt 8222  961 L
6728  961 mt 6728  561 L
6728  961 mt 8222  961 L
6728  561 mt 8222  561 L
6728  961 mt 6728  561 L
8222  961 mt 8222  561 L
7196  714 mt 
(training set) s
gs 6728 561 1495 401 rc
c8
360 0 6799 671 2 MP stroke
gs 6906 598 147 147 rc
36 47 -36 47 -36 -47 36 -47 6979 718 5 MP
DP
gr

gr

c8
0 sg
7196  893 mt 
(validation set) s
gs 6728 561 1495 401 rc
c9
360 0 6799 850 2 MP stroke
gs 6906 777 147 147 rc
36 47 -36 47 -36 -47 36 -47 6979 897 5 MP
DP
gr

gr

c9

end %%Color Dict

eplot
%%EndObject

epage
end

showpage

%%Trailer
%%EOF
