%!PS-Adobe-3.0 EPSF-3.0
%%Creator: MATLAB, The MathWorks, Inc. Version 7.13.0.564 (R2011b). Operating System: Linux 2.6.32-358.23.2.el6.x86_64 #1 SMP Wed Oct 16 18:37:12 UTC 2013 x86_64.
%%Title: /data/users/zhixuanw/git/citation-network-analysis/final_comparison.eps
%%CreationDate: 03/17/2014  04:00:21
%%DocumentNeededFonts: Helvetica
%%DocumentProcessColors: Cyan Magenta Yellow Black
%%LanguageLevel: 2
%%Pages: 1
%%BoundingBox:  -173   155   786   636
%%EndComments

%%BeginProlog
% MathWorks dictionary
/MathWorks 160 dict begin
% definition operators
/bdef {bind def} bind def
/ldef {load def} bind def
/xdef {exch def} bdef
/xstore {exch store} bdef
% operator abbreviations
/c  /clip ldef
/cc /concat ldef
/cp /closepath ldef
/gr /grestore ldef
/gs /gsave ldef
/mt /moveto ldef
/np /newpath ldef
/cm /currentmatrix ldef
/sm /setmatrix ldef
/rm /rmoveto ldef
/rl /rlineto ldef
/s {show newpath} bdef
/sc {setcmykcolor} bdef
/sr /setrgbcolor ldef
/sg /setgray ldef
/w /setlinewidth ldef
/j /setlinejoin ldef
/cap /setlinecap ldef
/rc {rectclip} bdef
/rf {rectfill} bdef
% page state control
/pgsv () def
/bpage {/pgsv save def} bdef
/epage {pgsv restore} bdef
/bplot /gsave ldef
/eplot {stroke grestore} bdef
% orientation switch
/portraitMode 0 def /landscapeMode 1 def /rotateMode 2 def
% coordinate system mappings
/dpi2point 0 def
% font control
/FontSize 0 def
/FMS {/FontSize xstore findfont [FontSize 0 0 FontSize neg 0 0]
  makefont setfont} bdef
/reencode {exch dup where {pop load} {pop StandardEncoding} ifelse
  exch dup 3 1 roll findfont dup length dict begin
  { 1 index /FID ne {def}{pop pop} ifelse } forall
  /Encoding exch def currentdict end definefont pop} bdef
/isroman {findfont /CharStrings get /Agrave known} bdef
/FMSR {3 1 roll 1 index dup isroman {reencode} {pop pop} ifelse
  exch FMS} bdef
/csm {1 dpi2point div -1 dpi2point div scale neg translate
 dup landscapeMode eq {pop -90 rotate}
  {rotateMode eq {90 rotate} if} ifelse} bdef
% line types: solid, dotted, dashed, dotdash
/SO { [] 0 setdash } bdef
/DO { [.5 dpi2point mul 4 dpi2point mul] 0 setdash } bdef
/DA { [6 dpi2point mul] 0 setdash } bdef
/DD { [.5 dpi2point mul 4 dpi2point mul 6 dpi2point mul 4
  dpi2point mul] 0 setdash } bdef
% macros for lines and objects
/L {lineto stroke} bdef
/MP {3 1 roll moveto 1 sub {rlineto} repeat} bdef
/AP {{rlineto} repeat} bdef
/PDlw -1 def
/W {/PDlw currentlinewidth def setlinewidth} def
/PP {closepath eofill} bdef
/DP {closepath stroke} bdef
/MR {4 -2 roll moveto dup  0 exch rlineto exch 0 rlineto
  neg 0 exch rlineto closepath} bdef
/FR {MR stroke} bdef
/PR {MR fill} bdef
/L1i {{currentfile picstr readhexstring pop} image} bdef
/tMatrix matrix def
/MakeOval {newpath tMatrix currentmatrix pop translate scale
0 0 1 0 360 arc tMatrix setmatrix} bdef
/FO {MakeOval stroke} bdef
/PO {MakeOval fill} bdef
/PD {currentlinewidth 2 div 0 360 arc fill
   PDlw -1 eq not {PDlw w /PDlw -1 def} if} def
/FA {newpath tMatrix currentmatrix pop translate scale
  0 0 1 5 -2 roll arc tMatrix setmatrix stroke} bdef
/PA {newpath tMatrix currentmatrix pop	translate 0 0 moveto scale
  0 0 1 5 -2 roll arc closepath tMatrix setmatrix fill} bdef
/FAn {newpath tMatrix currentmatrix pop translate scale
  0 0 1 5 -2 roll arcn tMatrix setmatrix stroke} bdef
/PAn {newpath tMatrix currentmatrix pop translate 0 0 moveto scale
  0 0 1 5 -2 roll arcn closepath tMatrix setmatrix fill} bdef
/vradius 0 def /hradius 0 def /lry 0 def
/lrx 0 def /uly 0 def /ulx 0 def /rad 0 def
/MRR {/vradius xdef /hradius xdef /lry xdef /lrx xdef /uly xdef
  /ulx xdef newpath tMatrix currentmatrix pop ulx hradius add uly
  vradius add translate hradius vradius scale 0 0 1 180 270 arc 
  tMatrix setmatrix lrx hradius sub uly vradius add translate
  hradius vradius scale 0 0 1 270 360 arc tMatrix setmatrix
  lrx hradius sub lry vradius sub translate hradius vradius scale
  0 0 1 0 90 arc tMatrix setmatrix ulx hradius add lry vradius sub
  translate hradius vradius scale 0 0 1 90 180 arc tMatrix setmatrix
  closepath} bdef
/FRR {MRR stroke } bdef
/PRR {MRR fill } bdef
/MlrRR {/lry xdef /lrx xdef /uly xdef /ulx xdef /rad lry uly sub 2 div def
  newpath tMatrix currentmatrix pop ulx rad add uly rad add translate
  rad rad scale 0 0 1 90 270 arc tMatrix setmatrix lrx rad sub lry rad
  sub translate rad rad scale 0 0 1 270 90 arc tMatrix setmatrix
  closepath} bdef
/FlrRR {MlrRR stroke } bdef
/PlrRR {MlrRR fill } bdef
/MtbRR {/lry xdef /lrx xdef /uly xdef /ulx xdef /rad lrx ulx sub 2 div def
  newpath tMatrix currentmatrix pop ulx rad add uly rad add translate
  rad rad scale 0 0 1 180 360 arc tMatrix setmatrix lrx rad sub lry rad
  sub translate rad rad scale 0 0 1 0 180 arc tMatrix setmatrix
  closepath} bdef
/FtbRR {MtbRR stroke } bdef
/PtbRR {MtbRR fill } bdef
/stri 6 array def /dtri 6 array def
/smat 6 array def /dmat 6 array def
/tmat1 6 array def /tmat2 6 array def /dif 3 array def
/asub {/ind2 exch def /ind1 exch def dup dup
  ind1 get exch ind2 get sub exch } bdef
/tri_to_matrix {
  2 0 asub 3 1 asub 4 0 asub 5 1 asub
  dup 0 get exch 1 get 7 -1 roll astore } bdef
/compute_transform {
  dmat dtri tri_to_matrix tmat1 invertmatrix 
  smat stri tri_to_matrix tmat2 concatmatrix } bdef
/ds {stri astore pop} bdef
/dt {dtri astore pop} bdef
/db {2 copy /cols xdef /rows xdef mul dup 3 mul string
  currentfile 
  3 index 0 eq {/ASCIIHexDecode filter}
  {/ASCII85Decode filter 3 index 2 eq {/RunLengthDecode filter} if }
  ifelse exch readstring pop
  dup 0 3 index getinterval /rbmap xdef
  dup 2 index dup getinterval /gbmap xdef
  1 index dup 2 mul exch getinterval /bbmap xdef pop pop}bdef
/it {gs np dtri aload pop moveto lineto lineto cp c
  cols rows 8 compute_transform 
  rbmap gbmap bbmap true 3 colorimage gr}bdef
/il {newpath moveto lineto stroke}bdef
currentdict end def
%%EndProlog

%%BeginSetup
MathWorks begin

0 cap

end
%%EndSetup

%%Page: 1 1
%%BeginPageSetup
%%PageBoundingBox:  -173   155   786   636
MathWorks begin
bpage
%%EndPageSetup

%%BeginObject: obj1
bplot

/dpi2point 12 def
portraitMode -2076 7632 csm

    0     0 11516  5767 rc
85 dict begin %Colortable dictionary
/c0 { 0.000000 0.000000 0.000000 sr} bdef
/c1 { 1.000000 1.000000 1.000000 sr} bdef
/c2 { 0.900000 0.000000 0.000000 sr} bdef
/c3 { 0.000000 0.820000 0.000000 sr} bdef
/c4 { 0.000000 0.000000 0.800000 sr} bdef
/c5 { 0.910000 0.820000 0.320000 sr} bdef
/c6 { 1.000000 0.260000 0.820000 sr} bdef
/c7 { 0.000000 0.820000 0.820000 sr} bdef
c0
1 j
1 sg
   0    0 11517 5768 rf
6 w
0 4700 3854 0 0 -4700 1497 5133 4 MP
PP
-3854 0 0 4700 3854 0 0 -4700 1497 5133 5 MP stroke
4 w
DO
SO
6 w
0 sg
1497 5133 mt 5351 5133 L
1497  433 mt 5351  433 L
1497 5133 mt 1497  433 L
5351 5133 mt 5351  433 L
1497 5133 mt 5351 5133 L
1497 5133 mt 1497  433 L
1497 5133 mt 1497 5086 L
1497  433 mt 1497  480 L
%%IncludeResource: font Helvetica
/Helvetica /ISOLatin1Encoding 120 FMSR

1414 5278 mt 
(0.5) s
2267 5133 mt 2267 5086 L
2267  433 mt 2267  480 L
2234 5278 mt 
(1) s
3038 5133 mt 3038 5086 L
3038  433 mt 3038  480 L
2955 5278 mt 
(1.5) s
3809 5133 mt 3809 5086 L
3809  433 mt 3809  480 L
3776 5278 mt 
(2) s
4580 5133 mt 4580 5086 L
4580  433 mt 4580  480 L
4497 5278 mt 
(2.5) s
5351 5133 mt 5351 5086 L
5351  433 mt 5351  480 L
5318 5278 mt 
(3) s
5081 5480 mt 
(x 10) s
%%IncludeResource: font Helvetica
/Helvetica /ISOLatin1Encoding 80 FMSR

5307 5406 mt 
(4) s
1497 5133 mt 1544 5133 L
5351 5133 mt 5304 5133 L
%%IncludeResource: font Helvetica
/Helvetica /ISOLatin1Encoding 120 FMSR

1192 5177 mt 
(-200) s
1497 4610 mt 1544 4610 L
5351 4610 mt 5304 4610 L
1396 4654 mt 
(0) s
1497 4088 mt 1544 4088 L
5351 4088 mt 5304 4088 L
1262 4132 mt 
(200) s
1497 3566 mt 1544 3566 L
5351 3566 mt 5304 3566 L
1262 3610 mt 
(400) s
1497 3044 mt 1544 3044 L
5351 3044 mt 5304 3044 L
1262 3088 mt 
(600) s
1497 2521 mt 1544 2521 L
5351 2521 mt 5304 2521 L
1262 2565 mt 
(800) s
1497 1999 mt 1544 1999 L
5351 1999 mt 5304 1999 L
1196 2043 mt 
(1000) s
1497 1477 mt 1544 1477 L
5351 1477 mt 5304 1477 L
1196 1521 mt 
(1200) s
1497  955 mt 1544  955 L
5351  955 mt 5304  955 L
1196  999 mt 
(1400) s
1497  433 mt 1544  433 L
5351  433 mt 5304  433 L
1196  477 mt 
(1600) s
1497 5133 mt 5351 5133 L
1497  433 mt 5351  433 L
1497 5133 mt 1497  433 L
5351 5133 mt 5351  433 L
gs 1497 433 3855 4701 rc
/c8 { 0.000000 0.000000 1.000000 sr} bdef
c8
-117 394 -166 3 -139 -106 -88 73 -430 560 -396 -77 -634 203 -1005 710 
4816 2005 9 MP stroke
gr

c8
0 j
36 47 -36 47 -36 -47 36 -47 4816 2052 5 MP
DP
36 47 -36 47 -36 -47 36 -47 3811 2762 5 MP
DP
36 47 -36 47 -36 -47 36 -47 3177 2965 5 MP
DP
36 47 -36 47 -36 -47 36 -47 2781 2888 5 MP
DP
36 47 -36 47 -36 -47 36 -47 2351 3448 5 MP
DP
36 47 -36 47 -36 -47 36 -47 2263 3521 5 MP
DP
36 47 -36 47 -36 -47 36 -47 2124 3415 5 MP
DP
36 47 -36 47 -36 -47 36 -47 1958 3418 5 MP
DP
36 47 -36 47 -36 -47 36 -47 1841 3812 5 MP
DP
gs 1497 433 3855 4701 rc
/c9 { 0.000000 0.500000 0.000000 sr} bdef
c9
-117 568 -166 613 -139 217 -88 -578 -430 37 -396 1410 -634 -1320 -1005 -1572 
4816 4612 9 MP stroke
gr

c9
36 47 -36 47 -36 -47 36 -47 4816 4659 5 MP
DP
36 47 -36 47 -36 -47 36 -47 3811 3087 5 MP
DP
36 47 -36 47 -36 -47 36 -47 3177 1767 5 MP
DP
36 47 -36 47 -36 -47 36 -47 2781 3177 5 MP
DP
36 47 -36 47 -36 -47 36 -47 2351 3214 5 MP
DP
36 47 -36 47 -36 -47 36 -47 2263 2636 5 MP
DP
36 47 -36 47 -36 -47 36 -47 2124 2853 5 MP
DP
36 47 -36 47 -36 -47 36 -47 1958 3466 5 MP
DP
36 47 -36 47 -36 -47 36 -47 1841 4034 5 MP
DP
gs 1497 433 3855 4701 rc
/c10 { 1.000000 0.000000 0.000000 sr} bdef
c10
-117 549 -166 115 -139 -100 -88 516 -430 610 -396 186 -634 290 -1005 798 
4816 578 9 MP stroke
gr

c10
36 47 -36 47 -36 -47 36 -47 4816 625 5 MP
DP
36 47 -36 47 -36 -47 36 -47 3811 1423 5 MP
DP
36 47 -36 47 -36 -47 36 -47 3177 1713 5 MP
DP
36 47 -36 47 -36 -47 36 -47 2781 1899 5 MP
DP
36 47 -36 47 -36 -47 36 -47 2351 2509 5 MP
DP
36 47 -36 47 -36 -47 36 -47 2263 3025 5 MP
DP
36 47 -36 47 -36 -47 36 -47 2124 2925 5 MP
DP
36 47 -36 47 -36 -47 36 -47 1958 3040 5 MP
DP
36 47 -36 47 -36 -47 36 -47 1841 3589 5 MP
DP
gs 1497 433 3855 4701 rc
gr

0 sg
%%IncludeResource: font Helvetica
/Helvetica /ISOLatin1Encoding 180 FMSR

2189 5465 mt 
(number of nodes in training set) s
1097 3914 mt  -90 rotate
(improvement in loglikelihood) s
90 rotate
%%IncludeResource: font Helvetica
/Helvetica /ISOLatin1Encoding 120 FMSR

1480 5176 mt 
( ) s
5335  475 mt 
( ) s
1 sg
0 4700 3854 0 0 -4700 6568 5133 4 MP
PP
-3854 0 0 4700 3854 0 0 -4700 6568 5133 5 MP stroke
4 w
DO
SO
6 w
0 sg
6568 5133 mt 10422 5133 L
6568  433 mt 10422  433 L
6568 5133 mt 6568  433 L
10422 5133 mt 10422  433 L
6568 5133 mt 10422 5133 L
6568 5133 mt 6568  433 L
6568 5133 mt 6568 5086 L
6568  433 mt 6568  480 L
6485 5278 mt 
(0.5) s
7338 5133 mt 7338 5086 L
7338  433 mt 7338  480 L
7305 5278 mt 
(1) s
8109 5133 mt 8109 5086 L
8109  433 mt 8109  480 L
8026 5278 mt 
(1.5) s
8880 5133 mt 8880 5086 L
8880  433 mt 8880  480 L
8847 5278 mt 
(2) s
9651 5133 mt 9651 5086 L
9651  433 mt 9651  480 L
9568 5278 mt 
(2.5) s
10422 5133 mt 10422 5086 L
10422  433 mt 10422  480 L
10389 5278 mt 
(3) s
10152 5480 mt 
(x 10) s
%%IncludeResource: font Helvetica
/Helvetica /ISOLatin1Encoding 80 FMSR

10378 5406 mt 
(4) s
6568 5133 mt 6615 5133 L
10422 5133 mt 10375 5133 L
%%IncludeResource: font Helvetica
/Helvetica /ISOLatin1Encoding 120 FMSR

6397 5177 mt 
(-3) s
6568 4461 mt 6615 4461 L
10422 4461 mt 10375 4461 L
6297 4505 mt 
(-2.5) s
6568 3790 mt 6615 3790 L
10422 3790 mt 10375 3790 L
6397 3834 mt 
(-2) s
6568 3118 mt 6615 3118 L
10422 3118 mt 10375 3118 L
6297 3162 mt 
(-1.5) s
6568 2447 mt 6615 2447 L
10422 2447 mt 10375 2447 L
6397 2491 mt 
(-1) s
6568 1775 mt 6615 1775 L
10422 1775 mt 10375 1775 L
6297 1819 mt 
(-0.5) s
6568 1104 mt 6615 1104 L
10422 1104 mt 10375 1104 L
6467 1148 mt 
(0) s
6568  433 mt 6615  433 L
10422  433 mt 10375  433 L
6367  477 mt 
(0.5) s
6568  379 mt 
(x 10) s
%%IncludeResource: font Helvetica
/Helvetica /ISOLatin1Encoding 80 FMSR

6794  305 mt 
(4) s
6568 5133 mt 10422 5133 L
6568  433 mt 10422  433 L
6568 5133 mt 6568  433 L
10422 5133 mt 10422  433 L
gs 6568 433 3855 4701 rc
c8
-117 -221 -166 -41 -139 10 -88 -5 -430 -563 -396 -120 -634 -542 -1005 -1267 
9887 4148 9 MP stroke
gr

c8
36 47 -36 47 -36 -47 36 -47 9887 4195 5 MP
DP
36 47 -36 47 -36 -47 36 -47 8882 2928 5 MP
DP
36 47 -36 47 -36 -47 36 -47 8248 2386 5 MP
DP
36 47 -36 47 -36 -47 36 -47 7852 2266 5 MP
DP
36 47 -36 47 -36 -47 36 -47 7422 1703 5 MP
DP
36 47 -36 47 -36 -47 36 -47 7334 1698 5 MP
DP
36 47 -36 47 -36 -47 36 -47 7195 1708 5 MP
DP
36 47 -36 47 -36 -47 36 -47 7029 1667 5 MP
DP
36 47 -36 47 -36 -47 36 -47 6912 1446 5 MP
DP
gs 6568 433 3855 4701 rc
c9
-117 -304 -166 -239 -139 -135 -88 181 -430 -207 -396 -1009 -634 727 -1005 1093 
9887 1084 9 MP stroke
gr

c9
36 47 -36 47 -36 -47 36 -47 9887 1131 5 MP
DP
36 47 -36 47 -36 -47 36 -47 8882 2224 5 MP
DP
36 47 -36 47 -36 -47 36 -47 8248 2951 5 MP
DP
36 47 -36 47 -36 -47 36 -47 7852 1942 5 MP
DP
36 47 -36 47 -36 -47 36 -47 7422 1735 5 MP
DP
36 47 -36 47 -36 -47 36 -47 7334 1916 5 MP
DP
36 47 -36 47 -36 -47 36 -47 7195 1781 5 MP
DP
36 47 -36 47 -36 -47 36 -47 7029 1542 5 MP
DP
36 47 -36 47 -36 -47 36 -47 6912 1238 5 MP
DP
gs 6568 433 3855 4701 rc
c10
-117 -231 -166 -64 -139 102 -88 -320 -430 -750 -396 -38 -634 -984 -1005 -1345 
9887 5056 9 MP stroke
gr

c10
36 47 -36 47 -36 -47 36 -47 9887 5103 5 MP
DP
36 47 -36 47 -36 -47 36 -47 8882 3758 5 MP
DP
36 47 -36 47 -36 -47 36 -47 8248 2774 5 MP
DP
36 47 -36 47 -36 -47 36 -47 7852 2736 5 MP
DP
36 47 -36 47 -36 -47 36 -47 7422 1986 5 MP
DP
36 47 -36 47 -36 -47 36 -47 7334 1666 5 MP
DP
36 47 -36 47 -36 -47 36 -47 7195 1768 5 MP
DP
36 47 -36 47 -36 -47 36 -47 7029 1704 5 MP
DP
36 47 -36 47 -36 -47 36 -47 6912 1473 5 MP
DP
gs 6568 433 3855 4701 rc
gr

0 sg
%%IncludeResource: font Helvetica
/Helvetica /ISOLatin1Encoding 180 FMSR

7260 5465 mt 
(number of nodes in training set) s
6202 4104 mt  -90 rotate
(reduction in sum of square errors) s
90 rotate
%%IncludeResource: font Helvetica
/Helvetica /ISOLatin1Encoding 120 FMSR

6551 5176 mt 
( ) s
10406  475 mt 
( ) s
1 sg
0 480 1602 0 0 -480 3690 973 4 MP
PP
-1602 0 0 480 1602 0 0 -480 3690 973 5 MP stroke
4 w
DO
SO
6 w
0 sg
3690  973 mt 5292  973 L
3690  493 mt 5292  493 L
3690  973 mt 3690  493 L
5292  973 mt 5292  493 L
3690  973 mt 5292  973 L
3690  973 mt 3690  493 L
3690  973 mt 5292  973 L
3690  493 mt 5292  493 L
3690  973 mt 3690  493 L
5292  973 mt 5292  493 L
4069  627 mt 
(Mixture Model) s
gs 3690 493 1603 481 rc
c8
291 0 3748 584 2 MP stroke
gs 3821 511 147 147 rc
36 47 -36 47 -36 -47 36 -47 3894 631 5 MP
DP
gr

gr

c8
0 sg
4069  776 mt 
(Modularity) s
gs 3690 493 1603 481 rc
c9
291 0 3748 733 2 MP stroke
gs 3821 660 147 147 rc
36 47 -36 47 -36 -47 36 -47 3894 780 5 MP
DP
gr

gr

c9
0 sg
4069  924 mt 
(Diretional Modularity) s
gs 3690 493 1603 481 rc
c10
291 0 3748 881 2 MP stroke
gs 3821 808 147 147 rc
36 47 -36 47 -36 -47 36 -47 3894 928 5 MP
DP
gr

gr

c10
1 sg
0 480 1601 0 0 -480 8762 973 4 MP
PP
-1601 0 0 480 1601 0 0 -480 8762 973 5 MP stroke
4 w
DO
SO
6 w
0 sg
8762  973 mt 10363  973 L
8762  493 mt 10363  493 L
8762  973 mt 8762  493 L
10363  973 mt 10363  493 L
8762  973 mt 10363  973 L
8762  973 mt 8762  493 L
8762  973 mt 10363  973 L
8762  493 mt 10363  493 L
8762  973 mt 8762  493 L
10363  973 mt 10363  493 L
9141  627 mt 
(Mixture Model) s
gs 8762 493 1602 481 rc
c8
291 0 8820 584 2 MP stroke
gs 8892 511 147 147 rc
36 47 -36 47 -36 -47 36 -47 8965 631 5 MP
DP
gr

gr

c8
0 sg
9141  776 mt 
(Modularity) s
gs 8762 493 1602 481 rc
c9
291 0 8820 733 2 MP stroke
gs 8892 660 147 147 rc
36 47 -36 47 -36 -47 36 -47 8965 780 5 MP
DP
gr

gr

c9
0 sg
9141  924 mt 
(Diretional Modularity) s
gs 8762 493 1602 481 rc
c10
291 0 8820 881 2 MP stroke
gs 8892 808 147 147 rc
36 47 -36 47 -36 -47 36 -47 8965 928 5 MP
DP
gr

gr

c10

end %%Color Dict

eplot
%%EndObject

epage
end

showpage

%%Trailer
%%EOF
