%!PS-Adobe-3.0 EPSF-3.0
%%Creator: MATLAB, The MathWorks, Inc. Version 8.1.0.604 (R2013a). Operating System: Microsoft Windows 7.
%%Title: E:\Data Mining Project\hist_citefrom.eps
%%CreationDate: 02/25/2014  22:28:55
%%DocumentNeededFonts: Helvetica
%%DocumentProcessColors: Cyan Magenta Yellow Black
%%LanguageLevel: 2
%%Pages: 1
%%BoundingBox:    69   245   542   546
%%EndComments

%%BeginProlog
% MathWorks dictionary
/MathWorks 160 dict begin
% definition operators
/bdef {bind def} bind def
/ldef {load def} bind def
/xdef {exch def} bdef
/xstore {exch store} bdef
% operator abbreviations
/c  /clip ldef
/cc /concat ldef
/cp /closepath ldef
/gr /grestore ldef
/gs /gsave ldef
/mt /moveto ldef
/np /newpath ldef
/cm /currentmatrix ldef
/sm /setmatrix ldef
/rm /rmoveto ldef
/rl /rlineto ldef
/s {show newpath} bdef
/sc {setcmykcolor} bdef
/sr /setrgbcolor ldef
/sg /setgray ldef
/w /setlinewidth ldef
/j /setlinejoin ldef
/cap /setlinecap ldef
/rc {rectclip} bdef
/rf {rectfill} bdef
% page state control
/pgsv () def
/bpage {/pgsv save def} bdef
/epage {pgsv restore} bdef
/bplot /gsave ldef
/eplot {stroke grestore} bdef
% orientation switch
/portraitMode 0 def /landscapeMode 1 def /rotateMode 2 def
% coordinate system mappings
/dpi2point 0 def
% font control
/FontSize 0 def
/FMS {/FontSize xstore findfont [FontSize 0 0 FontSize neg 0 0]
  makefont setfont} bdef
/ISOLatin1Encoding where {pop /WindowsLatin1Encoding 256 array bdef
ISOLatin1Encoding WindowsLatin1Encoding copy pop
/.notdef/.notdef/quotesinglbase/florin/quotedblbase/ellipsis/dagger
/daggerdbl/circumflex/perthousand/Scaron/guilsinglleft/OE/.notdef/.notdef
/.notdef/.notdef/quoteleft/quoteright/quotedblleft/quotedblright/bullet
/endash/emdash/tilde/trademark/scaron/guilsinglright/oe/.notdef/.notdef
/Ydieresis WindowsLatin1Encoding 128 32 getinterval astore pop}
{/WindowsLatin1Encoding StandardEncoding bdef} ifelse
/reencode {exch dup where {pop load} {pop StandardEncoding} ifelse
  exch dup 3 1 roll findfont dup length dict begin
  { 1 index /FID ne {def}{pop pop} ifelse } forall
  /Encoding exch def currentdict end definefont pop} bdef
/isroman {findfont /CharStrings get /Agrave known} bdef
/FMSR {3 1 roll 1 index dup isroman {reencode} {pop pop} ifelse
  exch FMS} bdef
/csm {1 dpi2point div -1 dpi2point div scale neg translate
 dup landscapeMode eq {pop -90 rotate}
  {rotateMode eq {90 rotate} if} ifelse} bdef
% line types: solid, dotted, dashed, dotdash
/SO { [] 0 setdash } bdef
/DO { [.5 dpi2point mul 4 dpi2point mul] 0 setdash } bdef
/DA { [6 dpi2point mul] 0 setdash } bdef
/DD { [.5 dpi2point mul 4 dpi2point mul 6 dpi2point mul 4
  dpi2point mul] 0 setdash } bdef
% macros for lines and objects
/L {lineto stroke} bdef
/MP {3 1 roll moveto 1 sub {rlineto} repeat} bdef
/AP {{rlineto} repeat} bdef
/PDlw -1 def
/W {/PDlw currentlinewidth def setlinewidth} def
/PP {closepath eofill} bdef
/DP {closepath stroke} bdef
/MR {4 -2 roll moveto dup  0 exch rlineto exch 0 rlineto
  neg 0 exch rlineto closepath} bdef
/FR {MR stroke} bdef
/PR {MR fill} bdef
/L1i {{currentfile picstr readhexstring pop} image} bdef
/tMatrix matrix def
/MakeOval {newpath tMatrix currentmatrix pop translate scale
0 0 1 0 360 arc tMatrix setmatrix} bdef
/FO {MakeOval stroke} bdef
/PO {MakeOval fill} bdef
/PD {currentlinewidth 2 div 0 360 arc fill
   PDlw -1 eq not {PDlw w /PDlw -1 def} if} def
/FA {newpath tMatrix currentmatrix pop translate scale
  0 0 1 5 -2 roll arc tMatrix setmatrix stroke} bdef
/PA {newpath tMatrix currentmatrix pop	translate 0 0 moveto scale
  0 0 1 5 -2 roll arc closepath tMatrix setmatrix fill} bdef
/FAn {newpath tMatrix currentmatrix pop translate scale
  0 0 1 5 -2 roll arcn tMatrix setmatrix stroke} bdef
/PAn {newpath tMatrix currentmatrix pop translate 0 0 moveto scale
  0 0 1 5 -2 roll arcn closepath tMatrix setmatrix fill} bdef
/vradius 0 def /hradius 0 def /lry 0 def
/lrx 0 def /uly 0 def /ulx 0 def /rad 0 def
/MRR {/vradius xdef /hradius xdef /lry xdef /lrx xdef /uly xdef
  /ulx xdef newpath tMatrix currentmatrix pop ulx hradius add uly
  vradius add translate hradius vradius scale 0 0 1 180 270 arc 
  tMatrix setmatrix lrx hradius sub uly vradius add translate
  hradius vradius scale 0 0 1 270 360 arc tMatrix setmatrix
  lrx hradius sub lry vradius sub translate hradius vradius scale
  0 0 1 0 90 arc tMatrix setmatrix ulx hradius add lry vradius sub
  translate hradius vradius scale 0 0 1 90 180 arc tMatrix setmatrix
  closepath} bdef
/FRR {MRR stroke } bdef
/PRR {MRR fill } bdef
/MlrRR {/lry xdef /lrx xdef /uly xdef /ulx xdef /rad lry uly sub 2 div def
  newpath tMatrix currentmatrix pop ulx rad add uly rad add translate
  rad rad scale 0 0 1 90 270 arc tMatrix setmatrix lrx rad sub lry rad
  sub translate rad rad scale 0 0 1 270 90 arc tMatrix setmatrix
  closepath} bdef
/FlrRR {MlrRR stroke } bdef
/PlrRR {MlrRR fill } bdef
/MtbRR {/lry xdef /lrx xdef /uly xdef /ulx xdef /rad lrx ulx sub 2 div def
  newpath tMatrix currentmatrix pop ulx rad add uly rad add translate
  rad rad scale 0 0 1 180 360 arc tMatrix setmatrix lrx rad sub lry rad
  sub translate rad rad scale 0 0 1 0 180 arc tMatrix setmatrix
  closepath} bdef
/FtbRR {MtbRR stroke } bdef
/PtbRR {MtbRR fill } bdef
/stri 6 array def /dtri 6 array def
/smat 6 array def /dmat 6 array def
/tmat1 6 array def /tmat2 6 array def /dif 3 array def
/asub {/ind2 exch def /ind1 exch def dup dup
  ind1 get exch ind2 get sub exch } bdef
/tri_to_matrix {
  2 0 asub 3 1 asub 4 0 asub 5 1 asub
  dup 0 get exch 1 get 7 -1 roll astore } bdef
/compute_transform {
  dmat dtri tri_to_matrix tmat1 invertmatrix 
  smat stri tri_to_matrix tmat2 concatmatrix } bdef
/ds {stri astore pop} bdef
/dt {dtri astore pop} bdef
/db {2 copy /cols xdef /rows xdef mul dup 3 mul string
  currentfile 
  3 index 0 eq {/ASCIIHexDecode filter}
  {/ASCII85Decode filter 3 index 2 eq {/RunLengthDecode filter} if }
  ifelse exch readstring pop
  dup 0 3 index getinterval /rbmap xdef
  dup 2 index dup getinterval /gbmap xdef
  1 index dup 2 mul exch getinterval /bbmap xdef pop pop}bdef
/it {gs np dtri aload pop moveto lineto lineto cp c
  cols rows 8 compute_transform 
  rbmap gbmap bbmap true 3 colorimage gr}bdef
/il {newpath moveto lineto stroke}bdef
currentdict end def
%%EndProlog

%%BeginSetup
MathWorks begin

0 cap

end
%%EndSetup

%%Page: 1 1
%%BeginPageSetup
%%PageBoundingBox:    69   245   542   546
MathWorks begin
bpage
%%EndPageSetup

%%BeginObject: obj1
bplot

/dpi2point 12 def
portraitMode 0828 6552 csm

    0     0  5679  3609 rc
85 dict begin %Colortable dictionary
/c0 { 0.000000 0.000000 0.000000 sr} bdef
/c1 { 1.000000 1.000000 1.000000 sr} bdef
/c2 { 0.900000 0.000000 0.000000 sr} bdef
/c3 { 0.000000 0.820000 0.000000 sr} bdef
/c4 { 0.000000 0.000000 0.800000 sr} bdef
/c5 { 0.910000 0.820000 0.320000 sr} bdef
/c6 { 1.000000 0.260000 0.820000 sr} bdef
/c7 { 0.000000 0.820000 0.820000 sr} bdef
c0
1 j
1 sg
   0    0 5680 3610 rf
6 w
0 2941 4401 0 0 -2941 738 3212 4 MP
PP
-4401 0 0 2941 4401 0 0 -2941 738 3212 5 MP stroke
4 w
DO
SO
6 w
0 sg
 738  271 mt 5139  271 L
 738 3212 mt 5139 3212 L
5139 3212 mt 5139  271 L
 738 3212 mt  738  271 L
 738 3212 mt 5139 3212 L
 738 3212 mt  738  271 L
 738 3212 mt  738 3167 L
 738  271 mt  738  315 L
%%IncludeResource: font Helvetica
/Helvetica /WindowsLatin1Encoding 120 FMSR

 705 3357 mt 
(0) s
1288 3212 mt 1288 3167 L
1288  271 mt 1288  315 L
1222 3357 mt 
(50) s
1838 3212 mt 1838 3167 L
1838  271 mt 1838  315 L
1738 3357 mt 
(100) s
2388 3212 mt 2388 3167 L
2388  271 mt 2388  315 L
2288 3357 mt 
(150) s
2938 3212 mt 2938 3167 L
2938  271 mt 2938  315 L
2838 3357 mt 
(200) s
3488 3212 mt 3488 3167 L
3488  271 mt 3488  315 L
3388 3357 mt 
(250) s
4038 3212 mt 4038 3167 L
4038  271 mt 4038  315 L
3938 3357 mt 
(300) s
4588 3212 mt 4588 3167 L
4588  271 mt 4588  315 L
4488 3357 mt 
(350) s
5139 3212 mt 5139 3167 L
5139  271 mt 5139  315 L
5039 3357 mt 
(400) s
 738 3212 mt  782 3212 L
5139 3212 mt 5094 3212 L
 637 3256 mt 
(0) s
 738 2791 mt  782 2791 L
5139 2791 mt 5094 2791 L
 437 2835 mt 
(2000) s
 738 2371 mt  782 2371 L
5139 2371 mt 5094 2371 L
 437 2415 mt 
(4000) s
 738 1951 mt  782 1951 L
5139 1951 mt 5094 1951 L
 437 1995 mt 
(6000) s
 738 1531 mt  782 1531 L
5139 1531 mt 5094 1531 L
 437 1575 mt 
(8000) s
 738 1111 mt  782 1111 L
5139 1111 mt 5094 1111 L
 370 1155 mt 
(10000) s
 738  691 mt  782  691 L
5139  691 mt 5094  691 L
 370  735 mt 
(12000) s
 738  271 mt  782  271 L
5139  271 mt 5094  271 L
 370  315 mt 
(14000) s
 738  271 mt 5139  271 L
 738 3212 mt 5139 3212 L
5139 3212 mt 5139  271 L
 738 3212 mt  738  271 L
gs 738 271 4402 2942 rc
/c8 { 0.000000 0.000000 0.562500 sr} bdef
c8
0 2730 85 0 0 -2730 738 3212 4 MP
PP
0 sg
-85 0 0 2730 85 0 0 -2730 738 3212 5 MP stroke
c8
0 898 86 0 0 -898 823 3212 4 MP
PP
0 sg
-86 0 0 898 86 0 0 -898 823 3212 5 MP stroke
c8
0 451 85 0 0 -451 909 3212 4 MP
PP
0 sg
-85 0 0 451 85 0 0 -451 909 3212 5 MP stroke
c8
0 213 86 0 0 -213 994 3212 4 MP
PP
0 sg
-86 0 0 213 86 0 0 -213 994 3212 5 MP stroke
c8
0 78 85 0 0 -78 1080 3212 4 MP
PP
0 sg
-85 0 0 78 85 0 0 -78 1080 3212 5 MP stroke
c8
0 44 86 0 0 -44 1165 3212 4 MP
PP
0 sg
-86 0 0 44 86 0 0 -44 1165 3212 5 MP stroke
c8
0 19 86 0 0 -19 1251 3212 4 MP
PP
0 sg
-86 0 0 19 86 0 0 -19 1251 3212 5 MP stroke
c8
0 9 85 0 0 -9 1337 3212 4 MP
PP
0 sg
-85 0 0 9 85 0 0 -9 1337 3212 5 MP stroke
c8
0 6 86 0 0 -6 1422 3212 4 MP
PP
0 sg
-86 0 0 6 86 0 0 -6 1422 3212 5 MP stroke
c8
0 2 85 0 0 -2 1508 3212 4 MP
PP
0 sg
-85 0 0 2 85 0 0 -2 1508 3212 5 MP stroke
c8
0 3 86 0 0 -3 1593 3212 4 MP
PP
0 sg
-86 0 0 3 86 0 0 -3 1593 3212 5 MP stroke
c8
0 1 86 0 0 -1 1679 3212 4 MP
PP
0 sg
-86 0 0 1 86 0 0 -1 1679 3212 5 MP stroke
c8
0 2 85 0 0 -2 1765 3212 4 MP
PP
0 sg
-85 0 0 2 85 0 0 -2 1765 3212 5 MP stroke
c8
0 0 86 0 0 0 1850 3212 4 MP
PP
0 sg
-86 0 0 0 86 0 0 0 1850 3212 5 MP stroke
c8
0 1 85 0 0 -1 1936 3212 4 MP
PP
0 sg
-85 0 0 1 85 0 0 -1 1936 3212 5 MP stroke
c8
0 1 86 0 0 -1 2021 3212 4 MP
PP
0 sg
-86 0 0 1 86 0 0 -1 2021 3212 5 MP stroke
c8
0 1 86 0 0 -1 2107 3212 4 MP
PP
0 sg
-86 0 0 1 86 0 0 -1 2107 3212 5 MP stroke
c8
0 1 85 0 0 -1 2193 3212 4 MP
PP
0 sg
-85 0 0 1 85 0 0 -1 2193 3212 5 MP stroke
c8
0 1 86 0 0 -1 2278 3212 4 MP
PP
0 sg
-86 0 0 1 86 0 0 -1 2278 3212 5 MP stroke
c8
0 1 85 0 0 -1 2364 3212 4 MP
PP
0 sg
-85 0 0 1 85 0 0 -1 2364 3212 5 MP stroke
c8
0 0 86 0 0 0 2449 3212 4 MP
PP
0 sg
-86 0 0 0 86 0 0 0 2449 3212 5 MP stroke
c8
0 1 86 0 0 -1 2535 3212 4 MP
PP
0 sg
-86 0 0 1 86 0 0 -1 2535 3212 5 MP stroke
c8
0 1 85 0 0 -1 2621 3212 4 MP
PP
0 sg
-85 0 0 1 85 0 0 -1 2621 3212 5 MP stroke
c8
0 0 86 0 0 0 2706 3212 4 MP
PP
0 sg
-86 0 0 0 86 0 0 0 2706 3212 5 MP stroke
c8
0 1 85 0 0 -1 2792 3212 4 MP
PP
0 sg
-85 0 0 1 85 0 0 -1 2792 3212 5 MP stroke
c8
0 1 86 0 0 -1 2877 3212 4 MP
PP
0 sg
-86 0 0 1 86 0 0 -1 2877 3212 5 MP stroke
c8
0 0 86 0 0 0 2963 3212 4 MP
PP
0 sg
-86 0 0 0 86 0 0 0 2963 3212 5 MP stroke
c8
0 1 85 0 0 -1 3049 3212 4 MP
PP
0 sg
-85 0 0 1 85 0 0 -1 3049 3212 5 MP stroke
c8
0 0 86 0 0 0 3134 3212 4 MP
PP
0 sg
-86 0 0 0 86 0 0 0 3134 3212 5 MP stroke
c8
0 0 85 0 0 0 3220 3212 4 MP
PP
0 sg
-85 0 0 0 85 0 0 0 3220 3212 5 MP stroke
c8
0 0 86 0 0 0 3305 3212 4 MP
PP
0 sg
-86 0 0 0 86 0 0 0 3305 3212 5 MP stroke
c8
0 0 86 0 0 0 3391 3212 4 MP
PP
0 sg
-86 0 0 0 86 0 0 0 3391 3212 5 MP stroke
c8
0 0 85 0 0 0 3477 3212 4 MP
PP
0 sg
-85 0 0 0 85 0 0 0 3477 3212 5 MP stroke
c8
0 1 86 0 0 -1 3562 3212 4 MP
PP
0 sg
-86 0 0 1 86 0 0 -1 3562 3212 5 MP stroke
c8
0 0 85 0 0 0 3648 3212 4 MP
PP
0 sg
-85 0 0 0 85 0 0 0 3648 3212 5 MP stroke
c8
0 0 86 0 0 0 3733 3212 4 MP
PP
0 sg
-86 0 0 0 86 0 0 0 3733 3212 5 MP stroke
c8
0 0 86 0 0 0 3819 3212 4 MP
PP
0 sg
-86 0 0 0 86 0 0 0 3819 3212 5 MP stroke
c8
0 0 85 0 0 0 3905 3212 4 MP
PP
0 sg
-85 0 0 0 85 0 0 0 3905 3212 5 MP stroke
c8
0 0 86 0 0 0 3990 3212 4 MP
PP
0 sg
-86 0 0 0 86 0 0 0 3990 3212 5 MP stroke
c8
0 0 85 0 0 0 4076 3212 4 MP
PP
0 sg
-85 0 0 0 85 0 0 0 4076 3212 5 MP stroke
c8
0 0 86 0 0 0 4161 3212 4 MP
PP
0 sg
-86 0 0 0 86 0 0 0 4161 3212 5 MP stroke
c8
0 0 86 0 0 0 4247 3212 4 MP
PP
0 sg
-86 0 0 0 86 0 0 0 4247 3212 5 MP stroke
c8
0 0 85 0 0 0 4333 3212 4 MP
PP
0 sg
-85 0 0 0 85 0 0 0 4333 3212 5 MP stroke
c8
0 0 86 0 0 0 4418 3212 4 MP
PP
0 sg
-86 0 0 0 86 0 0 0 4418 3212 5 MP stroke
c8
0 0 85 0 0 0 4504 3212 4 MP
PP
0 sg
-85 0 0 0 85 0 0 0 4504 3212 5 MP stroke
c8
0 0 86 0 0 0 4589 3212 4 MP
PP
0 sg
-86 0 0 0 86 0 0 0 4589 3212 5 MP stroke
c8
0 0 86 0 0 0 4675 3212 4 MP
PP
0 sg
-86 0 0 0 86 0 0 0 4675 3212 5 MP stroke
c8
0 0 85 0 0 0 4761 3212 4 MP
PP
0 sg
-85 0 0 0 85 0 0 0 4761 3212 5 MP stroke
c8
0 0 86 0 0 0 4846 3212 4 MP
PP
0 sg
-86 0 0 0 86 0 0 0 4846 3212 5 MP stroke
c8
0 1 85 0 0 -1 4932 3212 4 MP
PP
0 sg
-85 0 0 1 85 0 0 -1 4932 3212 5 MP stroke
gr

2428 3500 mt 
(total citations given) s
 288 1889 mt  -90 rotate
(count) s
90 rotate

end %%Color Dict

eplot
%%EndObject

epage
end

showpage

%%Trailer
%%EOF
