%!PS-Adobe-3.0 EPSF-3.0
%%Creator: MATLAB, The MathWorks, Inc. Version 8.1.0.604 (R2013a). Operating System: Microsoft Windows 7.
%%Title: E:\Data Mining Project\hist_logcitefrom.eps
%%CreationDate: 02/25/2014  22:26:52
%%DocumentNeededFonts: Helvetica
%%DocumentProcessColors: Cyan Magenta Yellow Black
%%LanguageLevel: 2
%%Pages: 1
%%BoundingBox:    69   245   542   546
%%EndComments

%%BeginProlog
% MathWorks dictionary
/MathWorks 160 dict begin
% definition operators
/bdef {bind def} bind def
/ldef {load def} bind def
/xdef {exch def} bdef
/xstore {exch store} bdef
% operator abbreviations
/c  /clip ldef
/cc /concat ldef
/cp /closepath ldef
/gr /grestore ldef
/gs /gsave ldef
/mt /moveto ldef
/np /newpath ldef
/cm /currentmatrix ldef
/sm /setmatrix ldef
/rm /rmoveto ldef
/rl /rlineto ldef
/s {show newpath} bdef
/sc {setcmykcolor} bdef
/sr /setrgbcolor ldef
/sg /setgray ldef
/w /setlinewidth ldef
/j /setlinejoin ldef
/cap /setlinecap ldef
/rc {rectclip} bdef
/rf {rectfill} bdef
% page state control
/pgsv () def
/bpage {/pgsv save def} bdef
/epage {pgsv restore} bdef
/bplot /gsave ldef
/eplot {stroke grestore} bdef
% orientation switch
/portraitMode 0 def /landscapeMode 1 def /rotateMode 2 def
% coordinate system mappings
/dpi2point 0 def
% font control
/FontSize 0 def
/FMS {/FontSize xstore findfont [FontSize 0 0 FontSize neg 0 0]
  makefont setfont} bdef
/ISOLatin1Encoding where {pop /WindowsLatin1Encoding 256 array bdef
ISOLatin1Encoding WindowsLatin1Encoding copy pop
/.notdef/.notdef/quotesinglbase/florin/quotedblbase/ellipsis/dagger
/daggerdbl/circumflex/perthousand/Scaron/guilsinglleft/OE/.notdef/.notdef
/.notdef/.notdef/quoteleft/quoteright/quotedblleft/quotedblright/bullet
/endash/emdash/tilde/trademark/scaron/guilsinglright/oe/.notdef/.notdef
/Ydieresis WindowsLatin1Encoding 128 32 getinterval astore pop}
{/WindowsLatin1Encoding StandardEncoding bdef} ifelse
/reencode {exch dup where {pop load} {pop StandardEncoding} ifelse
  exch dup 3 1 roll findfont dup length dict begin
  { 1 index /FID ne {def}{pop pop} ifelse } forall
  /Encoding exch def currentdict end definefont pop} bdef
/isroman {findfont /CharStrings get /Agrave known} bdef
/FMSR {3 1 roll 1 index dup isroman {reencode} {pop pop} ifelse
  exch FMS} bdef
/csm {1 dpi2point div -1 dpi2point div scale neg translate
 dup landscapeMode eq {pop -90 rotate}
  {rotateMode eq {90 rotate} if} ifelse} bdef
% line types: solid, dotted, dashed, dotdash
/SO { [] 0 setdash } bdef
/DO { [.5 dpi2point mul 4 dpi2point mul] 0 setdash } bdef
/DA { [6 dpi2point mul] 0 setdash } bdef
/DD { [.5 dpi2point mul 4 dpi2point mul 6 dpi2point mul 4
  dpi2point mul] 0 setdash } bdef
% macros for lines and objects
/L {lineto stroke} bdef
/MP {3 1 roll moveto 1 sub {rlineto} repeat} bdef
/AP {{rlineto} repeat} bdef
/PDlw -1 def
/W {/PDlw currentlinewidth def setlinewidth} def
/PP {closepath eofill} bdef
/DP {closepath stroke} bdef
/MR {4 -2 roll moveto dup  0 exch rlineto exch 0 rlineto
  neg 0 exch rlineto closepath} bdef
/FR {MR stroke} bdef
/PR {MR fill} bdef
/L1i {{currentfile picstr readhexstring pop} image} bdef
/tMatrix matrix def
/MakeOval {newpath tMatrix currentmatrix pop translate scale
0 0 1 0 360 arc tMatrix setmatrix} bdef
/FO {MakeOval stroke} bdef
/PO {MakeOval fill} bdef
/PD {currentlinewidth 2 div 0 360 arc fill
   PDlw -1 eq not {PDlw w /PDlw -1 def} if} def
/FA {newpath tMatrix currentmatrix pop translate scale
  0 0 1 5 -2 roll arc tMatrix setmatrix stroke} bdef
/PA {newpath tMatrix currentmatrix pop	translate 0 0 moveto scale
  0 0 1 5 -2 roll arc closepath tMatrix setmatrix fill} bdef
/FAn {newpath tMatrix currentmatrix pop translate scale
  0 0 1 5 -2 roll arcn tMatrix setmatrix stroke} bdef
/PAn {newpath tMatrix currentmatrix pop translate 0 0 moveto scale
  0 0 1 5 -2 roll arcn closepath tMatrix setmatrix fill} bdef
/vradius 0 def /hradius 0 def /lry 0 def
/lrx 0 def /uly 0 def /ulx 0 def /rad 0 def
/MRR {/vradius xdef /hradius xdef /lry xdef /lrx xdef /uly xdef
  /ulx xdef newpath tMatrix currentmatrix pop ulx hradius add uly
  vradius add translate hradius vradius scale 0 0 1 180 270 arc 
  tMatrix setmatrix lrx hradius sub uly vradius add translate
  hradius vradius scale 0 0 1 270 360 arc tMatrix setmatrix
  lrx hradius sub lry vradius sub translate hradius vradius scale
  0 0 1 0 90 arc tMatrix setmatrix ulx hradius add lry vradius sub
  translate hradius vradius scale 0 0 1 90 180 arc tMatrix setmatrix
  closepath} bdef
/FRR {MRR stroke } bdef
/PRR {MRR fill } bdef
/MlrRR {/lry xdef /lrx xdef /uly xdef /ulx xdef /rad lry uly sub 2 div def
  newpath tMatrix currentmatrix pop ulx rad add uly rad add translate
  rad rad scale 0 0 1 90 270 arc tMatrix setmatrix lrx rad sub lry rad
  sub translate rad rad scale 0 0 1 270 90 arc tMatrix setmatrix
  closepath} bdef
/FlrRR {MlrRR stroke } bdef
/PlrRR {MlrRR fill } bdef
/MtbRR {/lry xdef /lrx xdef /uly xdef /ulx xdef /rad lrx ulx sub 2 div def
  newpath tMatrix currentmatrix pop ulx rad add uly rad add translate
  rad rad scale 0 0 1 180 360 arc tMatrix setmatrix lrx rad sub lry rad
  sub translate rad rad scale 0 0 1 0 180 arc tMatrix setmatrix
  closepath} bdef
/FtbRR {MtbRR stroke } bdef
/PtbRR {MtbRR fill } bdef
/stri 6 array def /dtri 6 array def
/smat 6 array def /dmat 6 array def
/tmat1 6 array def /tmat2 6 array def /dif 3 array def
/asub {/ind2 exch def /ind1 exch def dup dup
  ind1 get exch ind2 get sub exch } bdef
/tri_to_matrix {
  2 0 asub 3 1 asub 4 0 asub 5 1 asub
  dup 0 get exch 1 get 7 -1 roll astore } bdef
/compute_transform {
  dmat dtri tri_to_matrix tmat1 invertmatrix 
  smat stri tri_to_matrix tmat2 concatmatrix } bdef
/ds {stri astore pop} bdef
/dt {dtri astore pop} bdef
/db {2 copy /cols xdef /rows xdef mul dup 3 mul string
  currentfile 
  3 index 0 eq {/ASCIIHexDecode filter}
  {/ASCII85Decode filter 3 index 2 eq {/RunLengthDecode filter} if }
  ifelse exch readstring pop
  dup 0 3 index getinterval /rbmap xdef
  dup 2 index dup getinterval /gbmap xdef
  1 index dup 2 mul exch getinterval /bbmap xdef pop pop}bdef
/it {gs np dtri aload pop moveto lineto lineto cp c
  cols rows 8 compute_transform 
  rbmap gbmap bbmap true 3 colorimage gr}bdef
/il {newpath moveto lineto stroke}bdef
currentdict end def
%%EndProlog

%%BeginSetup
MathWorks begin

0 cap

end
%%EndSetup

%%Page: 1 1
%%BeginPageSetup
%%PageBoundingBox:    69   245   542   546
MathWorks begin
bpage
%%EndPageSetup

%%BeginObject: obj1
bplot

/dpi2point 12 def
portraitMode 0828 6552 csm

    0     0  5679  3609 rc
85 dict begin %Colortable dictionary
/c0 { 0.000000 0.000000 0.000000 sr} bdef
/c1 { 1.000000 1.000000 1.000000 sr} bdef
/c2 { 0.900000 0.000000 0.000000 sr} bdef
/c3 { 0.000000 0.820000 0.000000 sr} bdef
/c4 { 0.000000 0.000000 0.800000 sr} bdef
/c5 { 0.910000 0.820000 0.320000 sr} bdef
/c6 { 1.000000 0.260000 0.820000 sr} bdef
/c7 { 0.000000 0.820000 0.820000 sr} bdef
c0
1 j
1 sg
   0    0 5680 3610 rf
6 w
0 2941 4401 0 0 -2941 738 3212 4 MP
PP
-4401 0 0 2941 4401 0 0 -2941 738 3212 5 MP stroke
4 w
DO
SO
6 w
0 sg
 738  271 mt 5139  271 L
 738 3212 mt 5139 3212 L
5139 3212 mt 5139  271 L
 738 3212 mt  738  271 L
 738 3212 mt 5139 3212 L
 738 3212 mt  738  271 L
 738 3212 mt  738 3167 L
 738  271 mt  738  315 L
%%IncludeResource: font Helvetica
/Helvetica /WindowsLatin1Encoding 120 FMSR

 705 3357 mt 
(0) s
1471 3212 mt 1471 3167 L
1471  271 mt 1471  315 L
1438 3357 mt 
(1) s
2205 3212 mt 2205 3167 L
2205  271 mt 2205  315 L
2172 3357 mt 
(2) s
2938 3212 mt 2938 3167 L
2938  271 mt 2938  315 L
2905 3357 mt 
(3) s
3672 3212 mt 3672 3167 L
3672  271 mt 3672  315 L
3639 3357 mt 
(4) s
4405 3212 mt 4405 3167 L
4405  271 mt 4405  315 L
4372 3357 mt 
(5) s
5139 3212 mt 5139 3167 L
5139  271 mt 5139  315 L
5106 3357 mt 
(6) s
 738 3212 mt  782 3212 L
5139 3212 mt 5094 3212 L
 637 3256 mt 
(0) s
 738 2885 mt  782 2885 L
5139 2885 mt 5094 2885 L
 503 2929 mt 
(500) s
 738 2558 mt  782 2558 L
5139 2558 mt 5094 2558 L
 437 2602 mt 
(1000) s
 738 2231 mt  782 2231 L
5139 2231 mt 5094 2231 L
 437 2275 mt 
(1500) s
 738 1904 mt  782 1904 L
5139 1904 mt 5094 1904 L
 437 1948 mt 
(2000) s
 738 1578 mt  782 1578 L
5139 1578 mt 5094 1578 L
 437 1622 mt 
(2500) s
 738 1251 mt  782 1251 L
5139 1251 mt 5094 1251 L
 437 1295 mt 
(3000) s
 738  924 mt  782  924 L
5139  924 mt 5094  924 L
 437  968 mt 
(3500) s
 738  597 mt  782  597 L
5139  597 mt 5094  597 L
 437  641 mt 
(4000) s
 738  271 mt  782  271 L
5139  271 mt 5094  271 L
 437  315 mt 
(4500) s
 738  271 mt 5139  271 L
 738 3212 mt 5139 3212 L
5139 3212 mt 5139  271 L
 738 3212 mt  738  271 L
gs 738 271 4402 2942 rc
/c8 { 0.000000 0.000000 0.562500 sr} bdef
c8
0 2545 437 0 0 -2545 738 3212 4 MP
PP
0 sg
-437 0 0 2545 437 0 0 -2545 738 3212 5 MP stroke
c8
0 2508 438 0 0 -2508 1175 3212 4 MP
PP
0 sg
-438 0 0 2508 438 0 0 -2508 1175 3212 5 MP stroke
c8
0 1647 437 0 0 -1647 1613 3212 4 MP
PP
0 sg
-437 0 0 1647 437 0 0 -1647 1613 3212 5 MP stroke
c8
0 2711 438 0 0 -2711 2050 3212 4 MP
PP
0 sg
-438 0 0 2711 438 0 0 -2711 2050 3212 5 MP stroke
c8
0 2531 438 0 0 -2531 2488 3212 4 MP
PP
0 sg
-438 0 0 2531 438 0 0 -2531 2488 3212 5 MP stroke
c8
0 1536 437 0 0 -1536 2926 3212 4 MP
PP
0 sg
-437 0 0 1536 437 0 0 -1536 2926 3212 5 MP stroke
c8
0 338 438 0 0 -338 3363 3212 4 MP
PP
0 sg
-438 0 0 338 438 0 0 -338 3363 3212 5 MP stroke
c8
0 31 437 0 0 -31 3801 3212 4 MP
PP
0 sg
-437 0 0 31 437 0 0 -31 3801 3212 5 MP stroke
c8
0 12 438 0 0 -12 4238 3212 4 MP
PP
0 sg
-438 0 0 12 438 0 0 -12 4238 3212 5 MP stroke
c8
0 2 438 0 0 -2 4676 3212 4 MP
PP
0 sg
-438 0 0 2 438 0 0 -2 4676 3212 5 MP stroke
gr

2196 3500 mt 
(ln[total citations given + 1.0]) s
 355 1889 mt  -90 rotate
(count) s
90 rotate

end %%Color Dict

eplot
%%EndObject

epage
end

showpage

%%Trailer
%%EOF
