%!PS-Adobe-3.0 EPSF-3.0
%%Creator: MATLAB, The MathWorks, Inc. Version 7.14.0.739 (R2012a). Operating System: Linux 2.6.32.59-0.7-default #1 SMP 2012-07-13 15:50:56 +0200 x86_64.
%%Title: /global/u1/z/zxwang/git/citation-network-analysis/k_clique_complexity.eps
%%CreationDate: 03/14/2014  11:45:41
%%DocumentNeededFonts: Helvetica
%%DocumentProcessColors: Cyan Magenta Yellow Black
%%LanguageLevel: 2
%%Pages: 1
%%BoundingBox:    36   194   574   598
%%EndComments

%%BeginProlog
% MathWorks dictionary
/MathWorks 160 dict begin
% definition operators
/bdef {bind def} bind def
/ldef {load def} bind def
/xdef {exch def} bdef
/xstore {exch store} bdef
% operator abbreviations
/c  /clip ldef
/cc /concat ldef
/cp /closepath ldef
/gr /grestore ldef
/gs /gsave ldef
/mt /moveto ldef
/np /newpath ldef
/cm /currentmatrix ldef
/sm /setmatrix ldef
/rm /rmoveto ldef
/rl /rlineto ldef
/s {show newpath} bdef
/sc {setcmykcolor} bdef
/sr /setrgbcolor ldef
/sg /setgray ldef
/w /setlinewidth ldef
/j /setlinejoin ldef
/cap /setlinecap ldef
/rc {rectclip} bdef
/rf {rectfill} bdef
% page state control
/pgsv () def
/bpage {/pgsv save def} bdef
/epage {pgsv restore} bdef
/bplot /gsave ldef
/eplot {stroke grestore} bdef
% orientation switch
/portraitMode 0 def /landscapeMode 1 def /rotateMode 2 def
% coordinate system mappings
/dpi2point 0 def
% font control
/FontSize 0 def
/FMS {/FontSize xstore findfont [FontSize 0 0 FontSize neg 0 0]
  makefont setfont} bdef
/reencode {exch dup where {pop load} {pop StandardEncoding} ifelse
  exch dup 3 1 roll findfont dup length dict begin
  { 1 index /FID ne {def}{pop pop} ifelse } forall
  /Encoding exch def currentdict end definefont pop} bdef
/isroman {findfont /CharStrings get /Agrave known} bdef
/FMSR {3 1 roll 1 index dup isroman {reencode} {pop pop} ifelse
  exch FMS} bdef
/csm {1 dpi2point div -1 dpi2point div scale neg translate
 dup landscapeMode eq {pop -90 rotate}
  {rotateMode eq {90 rotate} if} ifelse} bdef
% line types: solid, dotted, dashed, dotdash
/SO { [] 0 setdash } bdef
/DO { [.5 dpi2point mul 4 dpi2point mul] 0 setdash } bdef
/DA { [6 dpi2point mul] 0 setdash } bdef
/DD { [.5 dpi2point mul 4 dpi2point mul 6 dpi2point mul 4
  dpi2point mul] 0 setdash } bdef
% macros for lines and objects
/L {lineto stroke} bdef
/MP {3 1 roll moveto 1 sub {rlineto} repeat} bdef
/AP {{rlineto} repeat} bdef
/PDlw -1 def
/W {/PDlw currentlinewidth def setlinewidth} def
/PP {closepath eofill} bdef
/DP {closepath stroke} bdef
/MR {4 -2 roll moveto dup  0 exch rlineto exch 0 rlineto
  neg 0 exch rlineto closepath} bdef
/FR {MR stroke} bdef
/PR {MR fill} bdef
/L1i {{currentfile picstr readhexstring pop} image} bdef
/tMatrix matrix def
/MakeOval {newpath tMatrix currentmatrix pop translate scale
0 0 1 0 360 arc tMatrix setmatrix} bdef
/FO {MakeOval stroke} bdef
/PO {MakeOval fill} bdef
/PD {currentlinewidth 2 div 0 360 arc fill
   PDlw -1 eq not {PDlw w /PDlw -1 def} if} def
/FA {newpath tMatrix currentmatrix pop translate scale
  0 0 1 5 -2 roll arc tMatrix setmatrix stroke} bdef
/PA {newpath tMatrix currentmatrix pop	translate 0 0 moveto scale
  0 0 1 5 -2 roll arc closepath tMatrix setmatrix fill} bdef
/FAn {newpath tMatrix currentmatrix pop translate scale
  0 0 1 5 -2 roll arcn tMatrix setmatrix stroke} bdef
/PAn {newpath tMatrix currentmatrix pop translate 0 0 moveto scale
  0 0 1 5 -2 roll arcn closepath tMatrix setmatrix fill} bdef
/vradius 0 def /hradius 0 def /lry 0 def
/lrx 0 def /uly 0 def /ulx 0 def /rad 0 def
/MRR {/vradius xdef /hradius xdef /lry xdef /lrx xdef /uly xdef
  /ulx xdef newpath tMatrix currentmatrix pop ulx hradius add uly
  vradius add translate hradius vradius scale 0 0 1 180 270 arc 
  tMatrix setmatrix lrx hradius sub uly vradius add translate
  hradius vradius scale 0 0 1 270 360 arc tMatrix setmatrix
  lrx hradius sub lry vradius sub translate hradius vradius scale
  0 0 1 0 90 arc tMatrix setmatrix ulx hradius add lry vradius sub
  translate hradius vradius scale 0 0 1 90 180 arc tMatrix setmatrix
  closepath} bdef
/FRR {MRR stroke } bdef
/PRR {MRR fill } bdef
/MlrRR {/lry xdef /lrx xdef /uly xdef /ulx xdef /rad lry uly sub 2 div def
  newpath tMatrix currentmatrix pop ulx rad add uly rad add translate
  rad rad scale 0 0 1 90 270 arc tMatrix setmatrix lrx rad sub lry rad
  sub translate rad rad scale 0 0 1 270 90 arc tMatrix setmatrix
  closepath} bdef
/FlrRR {MlrRR stroke } bdef
/PlrRR {MlrRR fill } bdef
/MtbRR {/lry xdef /lrx xdef /uly xdef /ulx xdef /rad lrx ulx sub 2 div def
  newpath tMatrix currentmatrix pop ulx rad add uly rad add translate
  rad rad scale 0 0 1 180 360 arc tMatrix setmatrix lrx rad sub lry rad
  sub translate rad rad scale 0 0 1 0 180 arc tMatrix setmatrix
  closepath} bdef
/FtbRR {MtbRR stroke } bdef
/PtbRR {MtbRR fill } bdef
/stri 6 array def /dtri 6 array def
/smat 6 array def /dmat 6 array def
/tmat1 6 array def /tmat2 6 array def /dif 3 array def
/asub {/ind2 exch def /ind1 exch def dup dup
  ind1 get exch ind2 get sub exch } bdef
/tri_to_matrix {
  2 0 asub 3 1 asub 4 0 asub 5 1 asub
  dup 0 get exch 1 get 7 -1 roll astore } bdef
/compute_transform {
  dmat dtri tri_to_matrix tmat1 invertmatrix 
  smat stri tri_to_matrix tmat2 concatmatrix } bdef
/ds {stri astore pop} bdef
/dt {dtri astore pop} bdef
/db {2 copy /cols xdef /rows xdef mul dup 3 mul string
  currentfile 
  3 index 0 eq {/ASCIIHexDecode filter}
  {/ASCII85Decode filter 3 index 2 eq {/RunLengthDecode filter} if }
  ifelse exch readstring pop
  dup 0 3 index getinterval /rbmap xdef
  dup 2 index dup getinterval /gbmap xdef
  1 index dup 2 mul exch getinterval /bbmap xdef pop pop}bdef
/it {gs np dtri aload pop moveto lineto lineto cp c
  cols rows 8 compute_transform 
  rbmap gbmap bbmap true 3 colorimage gr}bdef
/il {newpath moveto lineto stroke}bdef
currentdict end def
%%EndProlog

%%BeginSetup
MathWorks begin

0 cap

end
%%EndSetup

%%Page: 1 1
%%BeginPageSetup
%%PageBoundingBox:    36   194   574   598
MathWorks begin
bpage
%%EndPageSetup

%%BeginObject: obj1
bplot

/dpi2point 12 def
portraitMode 0432 7176 csm

    0     0  6456  4838 rc
85 dict begin %Colortable dictionary
/c0 { 0.000000 0.000000 0.000000 sr} bdef
/c1 { 1.000000 1.000000 1.000000 sr} bdef
/c2 { 0.900000 0.000000 0.000000 sr} bdef
/c3 { 0.000000 0.820000 0.000000 sr} bdef
/c4 { 0.000000 0.000000 0.800000 sr} bdef
/c5 { 0.910000 0.820000 0.320000 sr} bdef
/c6 { 1.000000 0.260000 0.820000 sr} bdef
/c7 { 0.000000 0.820000 0.820000 sr} bdef
c0
1 j
1 sg
   0    0 6457 4839 rf
6 w
0 3943 5004 0 0 -3943 839 4306 4 MP
PP
-5004 0 0 3943 5004 0 0 -3943 839 4306 5 MP stroke
4 w
DO
SO
6 w
0 sg
 839 4306 mt 5843 4306 L
 839  363 mt 5843  363 L
 839 4306 mt  839  363 L
5843 4306 mt 5843  363 L
 839 4306 mt 5843 4306 L
 839 4306 mt  839  363 L
 839 4306 mt  839 4255 L
 839  363 mt  839  413 L
%%IncludeResource: font Helvetica
/Helvetica /ISOLatin1Encoding 120 FMSR

 806 4451 mt 
(2) s
1839 4306 mt 1839 4255 L
1839  363 mt 1839  413 L
1756 4451 mt 
(2.5) s
2840 4306 mt 2840 4255 L
2840  363 mt 2840  413 L
2807 4451 mt 
(3) s
3841 4306 mt 3841 4255 L
3841  363 mt 3841  413 L
3758 4451 mt 
(3.5) s
4842 4306 mt 4842 4255 L
4842  363 mt 4842  413 L
4809 4451 mt 
(4) s
5843 4306 mt 5843 4255 L
5843  363 mt 5843  413 L
5760 4451 mt 
(4.5) s
 839 4306 mt  889 4306 L
5843 4306 mt 5792 4306 L
 668 4350 mt 
(-1) s
 839 3742 mt  889 3742 L
5843 3742 mt 5792 3742 L
 738 3786 mt 
(0) s
 839 3179 mt  889 3179 L
5843 3179 mt 5792 3179 L
 738 3223 mt 
(1) s
 839 2616 mt  889 2616 L
5843 2616 mt 5792 2616 L
 738 2660 mt 
(2) s
 839 2052 mt  889 2052 L
5843 2052 mt 5792 2052 L
 738 2096 mt 
(3) s
 839 1489 mt  889 1489 L
5843 1489 mt 5792 1489 L
 738 1533 mt 
(4) s
 839  926 mt  889  926 L
5843  926 mt 5792  926 L
 738  970 mt 
(5) s
 839  363 mt  889  363 L
5843  363 mt 5792  363 L
 738  407 mt 
(6) s
 839 4306 mt 5843 4306 L
 839  363 mt 5843  363 L
 839 4306 mt  839  363 L
5843 4306 mt 5843  363 L
gs 839 363 5005 3944 rc
24 w
/c8 { 0.000000 0.000000 1.000000 sr} bdef
c8
229 -251 124 -156 249 -200 194 -184 159 -263 443 -395 600 -235 1496 4203 8 MP stroke
gr

24 w
c8
0 j
36 47 -36 47 -36 -47 36 -47 1496 4250 5 MP
DP
36 47 -36 47 -36 -47 36 -47 2096 4015 5 MP
DP
36 47 -36 47 -36 -47 36 -47 2539 3620 5 MP
DP
36 47 -36 47 -36 -47 36 -47 2698 3357 5 MP
DP
36 47 -36 47 -36 -47 36 -47 2892 3173 5 MP
DP
36 47 -36 47 -36 -47 36 -47 3141 2973 5 MP
DP
36 47 -36 47 -36 -47 36 -47 3265 2817 5 MP
DP
36 47 -36 47 -36 -47 36 -47 3494 2566 5 MP
DP
gs 839 363 5005 3944 rc
6 w
/c9 { 1.000000 0.000000 0.000000 sr} bdef
c9
3399 -3522 2096 3977 2 MP stroke
gr

6 w
c9
  36   36 5495  455 FO
gs 839 363 5005 3944 rc
24 w
0 sg
3999 0 1496 962 2 MP stroke
DA
3999 0 1496 486 2 MP stroke
gr

24 w
0 sg
DA
2704 4594 mt 
(log10\(number of nodes\)) s
 586 2939 mt  -90 rotate
(log10\(time in seconds\)) s
90 rotate
 822 4349 mt 
( ) s
5827  405 mt 
( ) s
SO
6 w
1 sg
0 772 1257 0 0 -772 899 2721 4 MP
PP
-1257 0 0 772 1257 0 0 -772 899 2721 5 MP stroke
4 w
DO
SO
6 w
0 sg
 899 2721 mt 2156 2721 L
 899 1949 mt 2156 1949 L
 899 2721 mt  899 1949 L
2156 2721 mt 2156 1949 L
 899 2721 mt 2156 2721 L
 899 2721 mt  899 1949 L
 899 2721 mt 2156 2721 L
 899 1949 mt 2156 1949 L
 899 2721 mt  899 1949 L
2156 2721 mt 2156 1949 L
1275 2082 mt 
(small size test) s
gs 899 1949 1258 773 rc
24 w
c8
290 0 956 2040 2 MP stroke
gr

24 w
c8
gs 1003 1942 197 197 rc
36 47 -36 47 -36 -47 36 -47 1101 2087 5 MP
DP
gr

gs 899 1949 1258 773 rc
gr

0 sg
1275 2230 mt 
(fit) s
gs 899 1949 1258 773 rc
6 w
c9
290 0 956 2187 2 MP stroke
gr

6 w
c9
0 sg
1275 2378 mt 
(target size) s
gs 899 1949 1258 773 rc
gs 1028 2262 147 147 rc
c9
  36   36 1101 2335 FO
gr

c9
gr

c9
0 sg
1275 2525 mt 
(one day) s
gs 899 1949 1258 773 rc
24 w
290 0 956 2482 2 MP stroke
gr

24 w
1275 2673 mt 
(one week) s
gs 899 1949 1258 773 rc
DA
290 0 956 2629 2 MP stroke
SO
6 w
gr

6 w

end %%Color Dict

eplot
%%EndObject

epage
end

showpage

%%Trailer
%%EOF
