%!PS-Adobe-3.0 EPSF-3.0
%%Creator: MATLAB, The MathWorks, Inc. Version 7.14.0.739 (R2012a). Operating System: Linux 2.6.32.59-0.7-default #1 SMP 2012-07-13 15:50:56 +0200 x86_64.
%%Title: /global/u1/z/zxwang/git/citation-network-analysis/link_clustering_large.eps
%%CreationDate: 03/16/2014  23:52:19
%%DocumentNeededFonts: Helvetica
%%DocumentProcessColors: Cyan Magenta Yellow Black
%%LanguageLevel: 2
%%Pages: 1
%%BoundingBox:     0   199   609   592
%%EndComments

%%BeginProlog
% MathWorks dictionary
/MathWorks 160 dict begin
% definition operators
/bdef {bind def} bind def
/ldef {load def} bind def
/xdef {exch def} bdef
/xstore {exch store} bdef
% operator abbreviations
/c  /clip ldef
/cc /concat ldef
/cp /closepath ldef
/gr /grestore ldef
/gs /gsave ldef
/mt /moveto ldef
/np /newpath ldef
/cm /currentmatrix ldef
/sm /setmatrix ldef
/rm /rmoveto ldef
/rl /rlineto ldef
/s {show newpath} bdef
/sc {setcmykcolor} bdef
/sr /setrgbcolor ldef
/sg /setgray ldef
/w /setlinewidth ldef
/j /setlinejoin ldef
/cap /setlinecap ldef
/rc {rectclip} bdef
/rf {rectfill} bdef
% page state control
/pgsv () def
/bpage {/pgsv save def} bdef
/epage {pgsv restore} bdef
/bplot /gsave ldef
/eplot {stroke grestore} bdef
% orientation switch
/portraitMode 0 def /landscapeMode 1 def /rotateMode 2 def
% coordinate system mappings
/dpi2point 0 def
% font control
/FontSize 0 def
/FMS {/FontSize xstore findfont [FontSize 0 0 FontSize neg 0 0]
  makefont setfont} bdef
/reencode {exch dup where {pop load} {pop StandardEncoding} ifelse
  exch dup 3 1 roll findfont dup length dict begin
  { 1 index /FID ne {def}{pop pop} ifelse } forall
  /Encoding exch def currentdict end definefont pop} bdef
/isroman {findfont /CharStrings get /Agrave known} bdef
/FMSR {3 1 roll 1 index dup isroman {reencode} {pop pop} ifelse
  exch FMS} bdef
/csm {1 dpi2point div -1 dpi2point div scale neg translate
 dup landscapeMode eq {pop -90 rotate}
  {rotateMode eq {90 rotate} if} ifelse} bdef
% line types: solid, dotted, dashed, dotdash
/SO { [] 0 setdash } bdef
/DO { [.5 dpi2point mul 4 dpi2point mul] 0 setdash } bdef
/DA { [6 dpi2point mul] 0 setdash } bdef
/DD { [.5 dpi2point mul 4 dpi2point mul 6 dpi2point mul 4
  dpi2point mul] 0 setdash } bdef
% macros for lines and objects
/L {lineto stroke} bdef
/MP {3 1 roll moveto 1 sub {rlineto} repeat} bdef
/AP {{rlineto} repeat} bdef
/PDlw -1 def
/W {/PDlw currentlinewidth def setlinewidth} def
/PP {closepath eofill} bdef
/DP {closepath stroke} bdef
/MR {4 -2 roll moveto dup  0 exch rlineto exch 0 rlineto
  neg 0 exch rlineto closepath} bdef
/FR {MR stroke} bdef
/PR {MR fill} bdef
/L1i {{currentfile picstr readhexstring pop} image} bdef
/tMatrix matrix def
/MakeOval {newpath tMatrix currentmatrix pop translate scale
0 0 1 0 360 arc tMatrix setmatrix} bdef
/FO {MakeOval stroke} bdef
/PO {MakeOval fill} bdef
/PD {currentlinewidth 2 div 0 360 arc fill
   PDlw -1 eq not {PDlw w /PDlw -1 def} if} def
/FA {newpath tMatrix currentmatrix pop translate scale
  0 0 1 5 -2 roll arc tMatrix setmatrix stroke} bdef
/PA {newpath tMatrix currentmatrix pop	translate 0 0 moveto scale
  0 0 1 5 -2 roll arc closepath tMatrix setmatrix fill} bdef
/FAn {newpath tMatrix currentmatrix pop translate scale
  0 0 1 5 -2 roll arcn tMatrix setmatrix stroke} bdef
/PAn {newpath tMatrix currentmatrix pop translate 0 0 moveto scale
  0 0 1 5 -2 roll arcn closepath tMatrix setmatrix fill} bdef
/vradius 0 def /hradius 0 def /lry 0 def
/lrx 0 def /uly 0 def /ulx 0 def /rad 0 def
/MRR {/vradius xdef /hradius xdef /lry xdef /lrx xdef /uly xdef
  /ulx xdef newpath tMatrix currentmatrix pop ulx hradius add uly
  vradius add translate hradius vradius scale 0 0 1 180 270 arc 
  tMatrix setmatrix lrx hradius sub uly vradius add translate
  hradius vradius scale 0 0 1 270 360 arc tMatrix setmatrix
  lrx hradius sub lry vradius sub translate hradius vradius scale
  0 0 1 0 90 arc tMatrix setmatrix ulx hradius add lry vradius sub
  translate hradius vradius scale 0 0 1 90 180 arc tMatrix setmatrix
  closepath} bdef
/FRR {MRR stroke } bdef
/PRR {MRR fill } bdef
/MlrRR {/lry xdef /lrx xdef /uly xdef /ulx xdef /rad lry uly sub 2 div def
  newpath tMatrix currentmatrix pop ulx rad add uly rad add translate
  rad rad scale 0 0 1 90 270 arc tMatrix setmatrix lrx rad sub lry rad
  sub translate rad rad scale 0 0 1 270 90 arc tMatrix setmatrix
  closepath} bdef
/FlrRR {MlrRR stroke } bdef
/PlrRR {MlrRR fill } bdef
/MtbRR {/lry xdef /lrx xdef /uly xdef /ulx xdef /rad lrx ulx sub 2 div def
  newpath tMatrix currentmatrix pop ulx rad add uly rad add translate
  rad rad scale 0 0 1 180 360 arc tMatrix setmatrix lrx rad sub lry rad
  sub translate rad rad scale 0 0 1 0 180 arc tMatrix setmatrix
  closepath} bdef
/FtbRR {MtbRR stroke } bdef
/PtbRR {MtbRR fill } bdef
/stri 6 array def /dtri 6 array def
/smat 6 array def /dmat 6 array def
/tmat1 6 array def /tmat2 6 array def /dif 3 array def
/asub {/ind2 exch def /ind1 exch def dup dup
  ind1 get exch ind2 get sub exch } bdef
/tri_to_matrix {
  2 0 asub 3 1 asub 4 0 asub 5 1 asub
  dup 0 get exch 1 get 7 -1 roll astore } bdef
/compute_transform {
  dmat dtri tri_to_matrix tmat1 invertmatrix 
  smat stri tri_to_matrix tmat2 concatmatrix } bdef
/ds {stri astore pop} bdef
/dt {dtri astore pop} bdef
/db {2 copy /cols xdef /rows xdef mul dup 3 mul string
  currentfile 
  3 index 0 eq {/ASCIIHexDecode filter}
  {/ASCII85Decode filter 3 index 2 eq {/RunLengthDecode filter} if }
  ifelse exch readstring pop
  dup 0 3 index getinterval /rbmap xdef
  dup 2 index dup getinterval /gbmap xdef
  1 index dup 2 mul exch getinterval /bbmap xdef pop pop}bdef
/it {gs np dtri aload pop moveto lineto lineto cp c
  cols rows 8 compute_transform 
  rbmap gbmap bbmap true 3 colorimage gr}bdef
/il {newpath moveto lineto stroke}bdef
currentdict end def
%%EndProlog

%%BeginSetup
MathWorks begin

0 cap

end
%%EndSetup

%%Page: 1 1
%%BeginPageSetup
%%PageBoundingBox:     0   199   609   592
MathWorks begin
bpage
%%EndPageSetup

%%BeginObject: obj1
bplot

/dpi2point 12 def
portraitMode 0000 7104 csm

    0     0  7309  4711 rc
85 dict begin %Colortable dictionary
/c0 { 0.000000 0.000000 0.000000 sr} bdef
/c1 { 1.000000 1.000000 1.000000 sr} bdef
/c2 { 0.900000 0.000000 0.000000 sr} bdef
/c3 { 0.000000 0.820000 0.000000 sr} bdef
/c4 { 0.000000 0.000000 0.800000 sr} bdef
/c5 { 0.910000 0.820000 0.320000 sr} bdef
/c6 { 1.000000 0.260000 0.820000 sr} bdef
/c7 { 0.000000 0.820000 0.820000 sr} bdef
c0
1 j
1 sg
   0    0 7310 4712 rf
6 w
0 3840 5665 0 0 -3840 950 4193 4 MP
PP
-5665 0 0 3840 5665 0 0 -3840 950 4193 5 MP stroke
4 w
DO
SO
6 w
0 sg
 950 4193 mt 6615 4193 L
 950  353 mt 6615  353 L
 950 4193 mt  950  353 L
6615 4193 mt 6615  353 L
 950 4193 mt 6615 4193 L
 950 4193 mt  950  353 L
 950 4193 mt  950 4136 L
 950  353 mt  950  409 L
%%IncludeResource: font Helvetica
/Helvetica /ISOLatin1Encoding 120 FMSR

 917 4338 mt 
(0) s
1516 4193 mt 1516 4136 L
1516  353 mt 1516  409 L
1433 4338 mt 
(0.1) s
2083 4193 mt 2083 4136 L
2083  353 mt 2083  409 L
2000 4338 mt 
(0.2) s
2649 4193 mt 2649 4136 L
2649  353 mt 2649  409 L
2566 4338 mt 
(0.3) s
3216 4193 mt 3216 4136 L
3216  353 mt 3216  409 L
3133 4338 mt 
(0.4) s
3782 4193 mt 3782 4136 L
3782  353 mt 3782  409 L
3699 4338 mt 
(0.5) s
4349 4193 mt 4349 4136 L
4349  353 mt 4349  409 L
4266 4338 mt 
(0.6) s
4915 4193 mt 4915 4136 L
4915  353 mt 4915  409 L
4832 4338 mt 
(0.7) s
5482 4193 mt 5482 4136 L
5482  353 mt 5482  409 L
5399 4338 mt 
(0.8) s
6048 4193 mt 6048 4136 L
6048  353 mt 6048  409 L
5965 4338 mt 
(0.9) s
6615 4193 mt 6615 4136 L
6615  353 mt 6615  409 L
6582 4338 mt 
(1) s
 950 4193 mt 1006 4193 L
6615 4193 mt 6558 4193 L
 849 4237 mt 
(0) s
 950 3644 mt 1006 3644 L
6615 3644 mt 6558 3644 L
 682 3688 mt 
(0.02) s
 950 3095 mt 1006 3095 L
6615 3095 mt 6558 3095 L
 682 3139 mt 
(0.04) s
 950 2547 mt 1006 2547 L
6615 2547 mt 6558 2547 L
 682 2591 mt 
(0.06) s
 950 1998 mt 1006 1998 L
6615 1998 mt 6558 1998 L
 682 2042 mt 
(0.08) s
 950 1450 mt 1006 1450 L
6615 1450 mt 6558 1450 L
 749 1494 mt 
(0.1) s
 950  901 mt 1006  901 L
6615  901 mt 6558  901 L
 682  945 mt 
(0.12) s
 950  353 mt 1006  353 L
6615  353 mt 6558  353 L
 682  397 mt 
(0.14) s
 950 4193 mt 6615 4193 L
 950  353 mt 6615  353 L
 950 4193 mt  950  353 L
6615 4193 mt 6615  353 L
gs 950 353 5666 3841 rc
/c8 { 0.000000 0.000000 1.000000 sr} bdef
c8
-1 0 -1 0 -3 0 -1 0 -2 0 -1 0 -1 0 -1 0 
-1 0 -1 0 -1 0 -1 0 -1 0 -1 0 -1 0 -1 0 
-1 0 -1 0 -1 0 -1 0 -1 0 -1 0 -1 0 -1 0 
-1 0 -1 0 -1 0 -1 0 -1 0 -1 0 -1 0 -1 0 
-1 0 -1 0 -1 0 -1 0 -1 0 -1 0 -1 0 -1 0 
-1 0 -1 0 -1 0 -1 0 -1 0 -1 0 -1 0 -1 0 
-1 0 -1 0 -1 0 -1 0 -1 0 -1 0 -1 0 -1 0 
-1 0 -1 0 -1 0 -1 0 -1 0 -1 0 -1 0 -1 0 
-1 0 -1 0 -1 0 -1 0 -1 0 -1 0 -1 0 -1 0 
-1 0 -1 0 -1 0 -1 0 -1 0 -1 0 -1 0 -1 0 
-1 0 -1 0 -1 0 -1 0 -1 0 -1 0 -1 0 -1 0 
-1 0 -1 0 -1 0 -1 0 -1 0 -1 0 -1 0 -1 0 
-1 0 -1 0 -1 0 -1 0 -1 0 -1 0 -1 0 -1 0 
-1 0 -1 0 -1 0 -1 0 -1 0 -1 0 -1 0 -1 0 
-1 0 -1 0 -1 0 -1 0 -1 0 -1 0 -1 0 -1 0 
-1 0 -1 0 -1 0 -1 0 -1 0 -1 0 -1 0 0 4 
-1 0 -1 0 -1 0 -1 0 -1 0 -1 0 -1 0 -1 0 
-1 0 -1 0 -1 0 -1 0 -1 0 -1 0 -1 0 -1 0 
-1 0 -1 0 -1 0 -1 0 -1 0 -1 0 -1 0 -1 0 
-1 0 -1 0 -1 0 -1 0 -1 0 -1 0 -1 0 -1 0 
-1 0 -1 0 -1 0 -1 0 -1 0 -1 0 -1 0 -1 0 
-1 0 -1 0 -1 0 -1 0 -1 0 -1 0 -1 0 -2 0 
-1 0 -1 0 -1 0 -1 0 -1 0 -1 0 -1 0 -1 0 
-1 0 -1 0 -1 0 -1 0 -1 0 -1 0 -1 0 -1 0 
-1 0 -1 0 -1 0 -1 0 -1 0 -1 0 -1 0 -1 0 
-1 0 -1 0 -1 0 -1 0 -1 0 -1 0 -1 0 -1 0 
-1 0 -1 0 -1 0 -1 0 -1 0 -1 0 -1 0 -1 0 
-1 0 -1 0 -1 0 -1 0 -1 0 -1 0 -1 0 -1 0 
-1 0 -1 0 -1 0 -1 0 -1 0 -1 0 -1 0 -1 0 
-1 0 -1 0 -1 0 -1 0 -1 0 -1 0 -1 0 -1 0 
-1 0 -1 0 -1 0 -1 0 -1 0 -1 0 -1 0 -1 0 
-1 0 -1 0 -1 0 -1 0 -1 0 -1 0 -1 0 -1 0 
-1 0 -1 0 -1 0 -1 0 -1 0 -1 0 -1 0 -1 0 
-1 0 -1 0 -1 0 -2 0 -1 0 -1 0 -1 0 -2 0 
-1 0 -1 0 -1 0 -1 0 -1 0 -1 0 -1 0 -3 0 
-1 1 -1 0 -1 0 -1 0 -1 0 -1 0 -1 0 -1 0 
-1 0 -1 0 -1 0 -1 0 -1 0 -1 0 -2 0 -1 0 
-1 0 -1 0 -1 0 1268 4098 300 MP stroke
-1 0 -1 0 -1 0 -1 0 -1 0 -1 0 -1 0 -1 0 
-1 0 -1 0 -1 0 -1 0 -1 0 -2 0 -1 0 -2 0 
-1 0 -1 0 -1 0 -1 0 -1 0 -1 0 -1 0 -1 0 
-1 0 -1 0 -1 0 -1 0 -1 0 -1 0 -1 0 -1 0 
-2 0 0 2 -1 0 -1 0 -1 0 -1 0 -1 0 -2 0 
-1 0 -1 0 -1 0 -1 0 -1 0 -1 0 -1 0 -1 0 
-1 0 -1 0 -1 0 -1 0 -1 0 -3 0 -1 1 -1 0 
-1 0 -1 0 -1 0 -2 0 -1 0 -1 0 -1 0 -1 0 
-1 0 -1 0 -2 0 -1 0 -1 0 -1 0 -1 0 -1 0 
-1 0 -1 0 -1 0 -1 0 -1 0 -2 0 0 1 -2 0 
-1 0 -1 0 -1 0 -1 0 -2 0 -1 0 -1 0 -1 0 
-1 0 -1 0 -1 0 -1 0 -2 0 -1 0 -1 0 -1 0 
-1 0 -1 0 -1 0 -2 0 -1 0 -1 0 -1 0 -3 0 
0 1 -2 0 -1 0 -1 0 -1 0 -1 0 -1 0 -1 0 
-1 0 -1 0 -1 0 -1 0 -1 0 -1 0 -1 0 -1 0 
-2 0 -1 0 -1 0 -1 0 -1 0 -1 0 -1 0 -1 0 
-1 0 -1 0 -2 0 -1 0 -1 0 -1 0 -1 0 -4 0 
0 12 -3 0 -1 0 -1 0 -1 0 -2 0 -1 0 -1 0 
-1 0 -2 0 -1 0 -1 0 -1 0 -1 0 -1 0 -1 0 
-1 0 -1 0 -1 0 -1 0 -1 0 -2 0 -1 0 -1 0 
-1 0 -2 0 -1 0 -1 0 -1 0 -1 0 -1 0 -1 0 
-1 0 -5 0 0 45 -1 6 -1 0 -1 0 -1 0 -1 0 
-1 0 -1 0 -1 0 -1 0 -1 0 -1 0 1 0 -3 1 
-1 0 -1 0 -1 0 -1 0 -1 0 -1 0 -1 0 -1 0 
-1 0 -2 0 0 1 -2 0 -1 0 -1 0 -1 0 -2 0 
-2 0 0 2 -2 0 -1 0 -1 0 -1 0 -1 0 -1 0 
-2 0 -1 0 -1 0 -1 0 -1 0 -1 0 -2 0 -2 0 
0 44 -6 0 -1 0 -1 0 -1 0 -1 0 -2 0 -1 0 
-2 0 -1 0 -1 0 -1 0 -2 0 -1 0 -1 0 -2 0 
-1 0 -1 0 -1 0 -1 0 -2 0 -1 1 -1 0 -1 0 
-1 0 -1 0 -1 0 -1 0 -1 0 -1 0 -1 0 0 -5 
-1 1 -1 0 -1 0 -1 0 -2 0 -2 0 -1 0 -1 0 
-2 0 -1 0 -1 0 -1 0 -1 0 -1 0 -2 0 -4 0 
0 118 -5 0 -1 0 -1 0 -1 0 -1 0 -1 0 -1 0 
-1 0 0 4 -1 0 -1 0 -1 0 -1 0 -2 0 0 -1 
-2 0 -1 0 -1 0 -2 0 0 -1 -1 1 -1 0 -1 0 
-2 0 -1 0 -1 0 -2 0 -1 0 -3 0 0 4 0 -5 
0 4 -3 0 -1 0 1620 3861 300 MP stroke
-2 0 -1 0 -1 0 0 2 -1 0 -1 0 -1 0 -2 0 
0 -1 0 6 -3 0 -1 0 -1 1 -1 0 0 0 -3 -1 
-1 0 -1 0 -2 0 -1 0 -2 0 0 1 -2 0 -1 0 
-1 -1 -1 0 -1 0 -3 0 -4 0 0 181 -2 0 -2 0 
-1 0 -1 0 -1 0 -1 0 -1 0 -1 -1 -1 0 -2 0 
-1 0 -1 0 -3 0 -2 0 -1 0 -1 0 0 2 -3 0 
-1 0 -1 0 -2 0 -1 0 0 22 -3 0 -1 0 -2 0 
-1 -1 0 -1 -2 0 -1 0 -1 0 -1 0 -1 0 -4 0 
0 20 0 -1 -3 0 -1 0 -1 0 -1 0 -1 0 0 -2 
-3 0 0 -1 -2 0 -1 0 -4 0 0 6 -2 0 -1 0 
-1 0 -1 0 -1 0 -3 0 0 6 -2 0 -1 0 -2 0 
0 8 -4 0 -3 0 -2 0 -1 0 -1 0 -1 0 -1 0 
-2 0 -1 0 -7 0 0 248 -7 0 0 1 -2 0 -1 0 
-2 0 -1 0 -2 0 0 5 -2 0 -1 0 -2 0 -1 0 
-1 0 -1 0 -1 0 -1 0 -1 0 -1 0 1 0 -4 -1 
0 11 0 -1 -2 0 -1 0 -1 0 -2 0 -1 0 -3 0 
0 3 0 -1 -3 0 -1 0 -2 0 -1 0 -2 0 0 4 
-2 0 -2 0 0 10 -2 0 -1 0 -1 0 -1 0 -4 0 
0 45 0 -1 -5 0 -1 1 -2 0 -2 0 -1 0 -3 0 
0 5 -2 0 -1 0 -2 0 -3 0 -1 0 0 -4 0 6 
-5 0 -2 0 0 -1 0 1 -2 0 -3 0 0 10 0 -11 
0 10 -4 0 -1 0 -2 0 0 4 0 -6 -3 0 -2 0 
0 5 -2 0 -2 0 -2 0 0 1 -3 0 -1 0 -2 0 
-1 0 -2 0 -2 0 -9 0 0 340 -8 0 -2 0 -2 0 
-1 0 -1 0 0 8 -2 0 -1 0 -3 0 -1 0 -2 0 
0 -1 -2 0 -2 0 -1 0 -1 0 -3 0 0 -1 0 1 
-3 0 -1 0 -2 0 -3 0 0 28 -2 0 -1 0 -1 0 
-2 0 0 2 -2 0 0 -1 0 1 -2 0 -1 0 -3 0 
0 6 0 -7 0 5 -6 0 -2 0 0 2 -1 0 -3 0 
0 30 -2 0 -1 0 -2 0 0 -3 0 3 -3 0 0 2 
-2 0 -1 0 -3 0 -5 0 0 -3 0 60 -5 0 -1 0 
-1 0 -1 0 0 5 0 -1 -2 0 -1 0 -2 0 0 5 
-2 2 0 -2 -4 -2 0 0 0 15 -4 0 0 -1 -3 0 
-1 0 -5 0 0 -5 0 31 -6 0 -2 0 -1 0 0 -1 
0 5 -2 0 -1 0 -5 0 0 3 0 -11 0 1 -3 -1 
-1 0 -1 0 0 5 -5 0 0 8 0 -11 0 10 -4 0 
-1 0 -2 0 0 1 -5 7 -2 0 -2 0 0 -1 0 2 
-3 0 0 1 0 -2 2058 2737 300 MP stroke
0 2 -2 0 0 -4 -2 0 -2 0 0 4 -3 0 0 15 
-2 2 0 -1 -14 -1 0 556 -10 -1 -1 0 -1 0 -3 0 
0 3 0 -2 -1 0 -1 0 -2 0 -1 0 -3 0 -2 0 
0 20 0 -1 -2 0 0 1 0 -1 -2 0 0 32 -4 0 
0 -1 0 1 -6 0 0 11 0 -2 -3 0 -2 0 -3 0 
0 39 0 -41 0 40 -3 0 0 1 0 -4 -2 0 -1 0 
0 -1 0 1 -1 28 -1 0 -4 0 0 60 -4 0 -2 0 
-1 0 -2 0 0 -2 -4 0 -2 -5 0 -1 -1 1 -2 0 
-3 0 0 132 -6 2 -2 0 0 -1 -3 0 0 -1 -3 0 
0 5 -4 0 0 69 0 -76 0 76 -3 0 -2 0 -3 0 
0 56 -2 0 -2 0 0 -1 0 2 -3 0 0 10 0 -1 
-2 0 0 3 -4 0 0 -2 0 2 -6 0 0 104 0 -2 
-10 0 0 -2 0 15 -2 2 -1 -1 0 4 -3 0 0 14 
0 -15 0 7 -5 0 0 -1 -1 -1 -1 15 -1 0 -2 0 
-3 -1 0 45 -3 0 0 8 -2 1 -1 0 0 -1 0 4 
-1 -1 0 6 0 -8 0 3 -2 0 -2 0 0 3 -2 0 
-7 0 0 73 0 -5 -10 0 -4 0 0 -1 0 17 -1 -1 
0 -2 -2 0 0 -1 0 2 -1 2 0 -1 -2 0 0 -1 
-5 0 0 45 0 -49 0 37 -4 -1 -1 0 0 1 0 -2 
-2 0 -2 0 0 -7 0 13 -3 0 -4 0 0 79 0 -9 
-6 0 0 42 -5 0 0 -13 0 49 -4 0 -4 0 0 7 
0 -14 0 2 -2 0 -4 0 0 24 0 -1 -3 0 -1 0 
0 15 0 -16 0 15 -4 0 0 -2 -3 0 0 20 -3 0 
0 -2 -2 0 0 -5 -2 1 0 -2 -2 0 -23 0 0 413 
-26 0 0 -2 -2 0 -2 0 0 -6 -1 -5 -2 0 -3 0 
0 41 -4 3 0 -1 0 15 -5 -1 0 17 0 -13 -2 0 
0 1 0 -1 -2 0 0 -7 -3 -2 0 -6 0 1 -3 0 
0 -1 0 10 -6 0 0 14 0 -24 0 22 -6 1 0 -1 
0 37 -2 0 0 -2 -5 0 0 6 0 -17 0 8 -6 0 
0 -2 -3 0 -3 0 -8 0 0 53 0 -12 -5 0 0 1 
0 -1 -2 0 0 1 0 -21 -2 1 0 12 -6 0 0 3 
0 -18 -4 0 -2 -2 0 8 0 -2 -3 0 0 2 0 -1 
-2 0 0 3 -4 -1 0 -11 -5 0 0 6 0 -42 0 36 
-17 1 0 3 0 -8 -4 1 -7 0 0 26 0 -27 0 26 
-7 0 0 -1 0 71 -6 0 0 2 0 -9 0 8 -4 0 
0 -9 -3 0 0 -3 0 20 -4 0 -3 0 0 -1 -18 0 
0 106 -16 0 0 -5 -2 2 0 -2 -3 0 0 -5 -3 0 
0 -4 -2 0 -8 0 2602 501 300 MP stroke
0 7 0 -10 0 6 -3 -2 0 -10 -3 0 -8 0 0 4 
0 -26 0 5 -3 0 0 -15 0 5 -4 0 -5 0 0 39 
0 -5 -2 0 0 -10 -4 0 0 7 0 -15 0 11 -3 -1 
0 2 0 -2 -12 0 0 37 0 -41 0 10 -5 -2 -8 0 
-4 0 0 8 0 -12 -3 0 0 1 0 -10 -5 -1 0 2 
0 -12 -6 0 0 -1 0 31 -4 4 -9 0 0 2 0 -88 
0 3 -10 -2 0 -3 -5 0 0 6 0 -19 0 4 -12 1 
0 -7 0 13 -7 0 -3 -7 0 -16 0 1 -8 0 0 -25 
-5 0 0 -2 -3 -7 0 -7 -6 -13 0 3 0 -10 -10 0 
0 -11 -8 0 0 13 0 -20 0 18 -7 0 0 -7 -5 0 
0 -2 -5 0 0 -8 0 1 -4 0 0 -3 -3 0 0 -18 
-3 0 -2 0 -5 0 -1 0 0 -8 -33 0 0 49 0 -72 
0 9 -34 0 0 -1 -9 0 -7 0 0 -10 0 2 -4 -7 
-5 0 0 -6 -6 0 0 -4 -7 0 0 -9 0 6 -5 6 
0 -12 0 3 -5 -3 0 -21 -6 1 -6 0 0 5 0 -11 
-17 0 0 4 0 -57 -11 0 0 -10 0 4 -13 0 0 -77 
-10 -3 -6 0 0 8 0 -23 -6 -4 0 -25 -15 0 0 10 
0 -105 -12 0 0 -5 -5 -5 0 -7 0 2 -4 0 0 -10 
-6 -2 0 -34 0 2 -11 0 0 1 0 -4 -6 0 -20 0 
0 5 0 -142 0 8 -16 -4 -3 -13 0 -2 -5 0 0 1 
0 -8 -10 0 0 -32 -8 0 -12 -11 0 -51 -10 -2 0 -8 
-4 0 0 -6 -11 0 0 -39 -7 0 0 -15 -6 0 0 -23 
0 2 -9 0 0 -5 -11 0 0 -8 -30 0 0 -183 -21 0 
0 -12 -14 0 0 -15 -6 0 0 -17 -10 0 0 -15 -3 0 
-12 0 0 -34 -7 -2 0 -7 0 0 -5 0 0 -13 -4 0 
0 -1 -12 0 0 -66 0 4 -15 0 0 -1 -10 0 0 -28 
-6 0 0 -5 -3 0 0 -6 -2 0 0 -23 -11 0 0 -1 
-3 0 0 -1 -7 -5 0 -5 -10 0 0 1 0 -136 0 2 
-25 0 0 -13 -2 0 0 -7 -9 0 0 -32 -6 0 0 -12 
-9 0 0 -38 -14 0 0 -18 -7 -5 0 -3 -18 0 0 1 
0 -109 -17 -8 0 -9 -2 0 0 -8 -3 0 0 -7 -10 0 
0 -20 0 15 -9 0 -17 0 0 -67 -21 0 0 5 0 -9 
-6 0 0 -1 -12 0 0 -64 -29 0 0 -49 -22 -3 0 -36 
-18 1 0 1 0 -9 -14 0 0 3 0 -13 -12 0 0 -5 
-10 0 0 -1 -8 -6 0 -7 -7 -1 0 -3 -7 0 0 -3 
-10 0 -23 0 0 -5 -58 0 0 -537 -69 0 0 -11 -22 0 
-7 0 -7 0 -8 0 0 -14 -10 0 -12 0 0 -3 -14 0 
0 -4 -8 0 -10 0 3949 3166 300 MP stroke
0 -15 -22 0 0 -13 -29 0 0 -12 -39 0 0 -27 -26 0 
0 -4 -15 0 0 -8 -17 0 0 -51 -25 0 -14 0 0 -5 
-15 0 0 -5 -36 -3 0 -112 -31 0 0 -7 -11 0 0 -20 
-25 0 0 -50 0 1 -28 -2 0 -8 -67 0 0 -150 -29 -1 
0 -6 -11 0 0 -2 -9 0 0 -3 -13 0 0 -5 -25 0 
0 -12 -20 0 -34 0 0 -53 -37 0 -15 0 -13 0 0 -24 
-36 0 0 -5 -24 0 0 -14 -111 -2 0 -96 -100 -5 -18 0 
-27 0 0 -2 -44 0 0 -10 -33 0 0 -5 -48 0 0 -41 
-74 0 0 -8 -54 -6 -13 0 -61 0 0 -75 -109 0 -49 0 
0 -18 -45 0 -41 0 -40 0 0 -49 -103 0 -85 0 0 -21 
-135 0 0 -7 -101 -4 0 -5 -79 0 -63 0 -189 0 -378 0 
0 -57 6615 4193 90 MP stroke
gr

c8
0 sg
3547 4481 mt 
(similarity) s
 600 2697 mt  -90 rotate
(partition density) s
90 rotate
/c9 { 1.000000 0.000000 0.000000 sr} bdef
c9
0 3854 2651 373 2 MP stroke

end %%Color Dict

eplot
%%EndObject

epage
end

showpage

%%Trailer
%%EOF
