%!PS-Adobe-3.0 EPSF-3.0
%%Creator: MATLAB, The MathWorks, Inc. Version 8.1.0.604 (R2013a). Operating System: Microsoft Windows 7.
%%Title: E:\Data Mining Project\logl_convergence.eps
%%CreationDate: 02/26/2014  01:11:18
%%DocumentNeededFonts: Helvetica
%%DocumentProcessColors: Cyan Magenta Yellow Black
%%LanguageLevel: 2
%%Pages: 1
%%BoundingBox:    69   245   542   546
%%EndComments

%%BeginProlog
% MathWorks dictionary
/MathWorks 160 dict begin
% definition operators
/bdef {bind def} bind def
/ldef {load def} bind def
/xdef {exch def} bdef
/xstore {exch store} bdef
% operator abbreviations
/c  /clip ldef
/cc /concat ldef
/cp /closepath ldef
/gr /grestore ldef
/gs /gsave ldef
/mt /moveto ldef
/np /newpath ldef
/cm /currentmatrix ldef
/sm /setmatrix ldef
/rm /rmoveto ldef
/rl /rlineto ldef
/s {show newpath} bdef
/sc {setcmykcolor} bdef
/sr /setrgbcolor ldef
/sg /setgray ldef
/w /setlinewidth ldef
/j /setlinejoin ldef
/cap /setlinecap ldef
/rc {rectclip} bdef
/rf {rectfill} bdef
% page state control
/pgsv () def
/bpage {/pgsv save def} bdef
/epage {pgsv restore} bdef
/bplot /gsave ldef
/eplot {stroke grestore} bdef
% orientation switch
/portraitMode 0 def /landscapeMode 1 def /rotateMode 2 def
% coordinate system mappings
/dpi2point 0 def
% font control
/FontSize 0 def
/FMS {/FontSize xstore findfont [FontSize 0 0 FontSize neg 0 0]
  makefont setfont} bdef
/ISOLatin1Encoding where {pop /WindowsLatin1Encoding 256 array bdef
ISOLatin1Encoding WindowsLatin1Encoding copy pop
/.notdef/.notdef/quotesinglbase/florin/quotedblbase/ellipsis/dagger
/daggerdbl/circumflex/perthousand/Scaron/guilsinglleft/OE/.notdef/.notdef
/.notdef/.notdef/quoteleft/quoteright/quotedblleft/quotedblright/bullet
/endash/emdash/tilde/trademark/scaron/guilsinglright/oe/.notdef/.notdef
/Ydieresis WindowsLatin1Encoding 128 32 getinterval astore pop}
{/WindowsLatin1Encoding StandardEncoding bdef} ifelse
/reencode {exch dup where {pop load} {pop StandardEncoding} ifelse
  exch dup 3 1 roll findfont dup length dict begin
  { 1 index /FID ne {def}{pop pop} ifelse } forall
  /Encoding exch def currentdict end definefont pop} bdef
/isroman {findfont /CharStrings get /Agrave known} bdef
/FMSR {3 1 roll 1 index dup isroman {reencode} {pop pop} ifelse
  exch FMS} bdef
/csm {1 dpi2point div -1 dpi2point div scale neg translate
 dup landscapeMode eq {pop -90 rotate}
  {rotateMode eq {90 rotate} if} ifelse} bdef
% line types: solid, dotted, dashed, dotdash
/SO { [] 0 setdash } bdef
/DO { [.5 dpi2point mul 4 dpi2point mul] 0 setdash } bdef
/DA { [6 dpi2point mul] 0 setdash } bdef
/DD { [.5 dpi2point mul 4 dpi2point mul 6 dpi2point mul 4
  dpi2point mul] 0 setdash } bdef
% macros for lines and objects
/L {lineto stroke} bdef
/MP {3 1 roll moveto 1 sub {rlineto} repeat} bdef
/AP {{rlineto} repeat} bdef
/PDlw -1 def
/W {/PDlw currentlinewidth def setlinewidth} def
/PP {closepath eofill} bdef
/DP {closepath stroke} bdef
/MR {4 -2 roll moveto dup  0 exch rlineto exch 0 rlineto
  neg 0 exch rlineto closepath} bdef
/FR {MR stroke} bdef
/PR {MR fill} bdef
/L1i {{currentfile picstr readhexstring pop} image} bdef
/tMatrix matrix def
/MakeOval {newpath tMatrix currentmatrix pop translate scale
0 0 1 0 360 arc tMatrix setmatrix} bdef
/FO {MakeOval stroke} bdef
/PO {MakeOval fill} bdef
/PD {currentlinewidth 2 div 0 360 arc fill
   PDlw -1 eq not {PDlw w /PDlw -1 def} if} def
/FA {newpath tMatrix currentmatrix pop translate scale
  0 0 1 5 -2 roll arc tMatrix setmatrix stroke} bdef
/PA {newpath tMatrix currentmatrix pop	translate 0 0 moveto scale
  0 0 1 5 -2 roll arc closepath tMatrix setmatrix fill} bdef
/FAn {newpath tMatrix currentmatrix pop translate scale
  0 0 1 5 -2 roll arcn tMatrix setmatrix stroke} bdef
/PAn {newpath tMatrix currentmatrix pop translate 0 0 moveto scale
  0 0 1 5 -2 roll arcn closepath tMatrix setmatrix fill} bdef
/vradius 0 def /hradius 0 def /lry 0 def
/lrx 0 def /uly 0 def /ulx 0 def /rad 0 def
/MRR {/vradius xdef /hradius xdef /lry xdef /lrx xdef /uly xdef
  /ulx xdef newpath tMatrix currentmatrix pop ulx hradius add uly
  vradius add translate hradius vradius scale 0 0 1 180 270 arc 
  tMatrix setmatrix lrx hradius sub uly vradius add translate
  hradius vradius scale 0 0 1 270 360 arc tMatrix setmatrix
  lrx hradius sub lry vradius sub translate hradius vradius scale
  0 0 1 0 90 arc tMatrix setmatrix ulx hradius add lry vradius sub
  translate hradius vradius scale 0 0 1 90 180 arc tMatrix setmatrix
  closepath} bdef
/FRR {MRR stroke } bdef
/PRR {MRR fill } bdef
/MlrRR {/lry xdef /lrx xdef /uly xdef /ulx xdef /rad lry uly sub 2 div def
  newpath tMatrix currentmatrix pop ulx rad add uly rad add translate
  rad rad scale 0 0 1 90 270 arc tMatrix setmatrix lrx rad sub lry rad
  sub translate rad rad scale 0 0 1 270 90 arc tMatrix setmatrix
  closepath} bdef
/FlrRR {MlrRR stroke } bdef
/PlrRR {MlrRR fill } bdef
/MtbRR {/lry xdef /lrx xdef /uly xdef /ulx xdef /rad lrx ulx sub 2 div def
  newpath tMatrix currentmatrix pop ulx rad add uly rad add translate
  rad rad scale 0 0 1 180 360 arc tMatrix setmatrix lrx rad sub lry rad
  sub translate rad rad scale 0 0 1 0 180 arc tMatrix setmatrix
  closepath} bdef
/FtbRR {MtbRR stroke } bdef
/PtbRR {MtbRR fill } bdef
/stri 6 array def /dtri 6 array def
/smat 6 array def /dmat 6 array def
/tmat1 6 array def /tmat2 6 array def /dif 3 array def
/asub {/ind2 exch def /ind1 exch def dup dup
  ind1 get exch ind2 get sub exch } bdef
/tri_to_matrix {
  2 0 asub 3 1 asub 4 0 asub 5 1 asub
  dup 0 get exch 1 get 7 -1 roll astore } bdef
/compute_transform {
  dmat dtri tri_to_matrix tmat1 invertmatrix 
  smat stri tri_to_matrix tmat2 concatmatrix } bdef
/ds {stri astore pop} bdef
/dt {dtri astore pop} bdef
/db {2 copy /cols xdef /rows xdef mul dup 3 mul string
  currentfile 
  3 index 0 eq {/ASCIIHexDecode filter}
  {/ASCII85Decode filter 3 index 2 eq {/RunLengthDecode filter} if }
  ifelse exch readstring pop
  dup 0 3 index getinterval /rbmap xdef
  dup 2 index dup getinterval /gbmap xdef
  1 index dup 2 mul exch getinterval /bbmap xdef pop pop}bdef
/it {gs np dtri aload pop moveto lineto lineto cp c
  cols rows 8 compute_transform 
  rbmap gbmap bbmap true 3 colorimage gr}bdef
/il {newpath moveto lineto stroke}bdef
currentdict end def
%%EndProlog

%%BeginSetup
MathWorks begin

0 cap

end
%%EndSetup

%%Page: 1 1
%%BeginPageSetup
%%PageBoundingBox:    69   245   542   546
MathWorks begin
bpage
%%EndPageSetup

%%BeginObject: obj1
bplot

/dpi2point 12 def
portraitMode 0828 6552 csm

    0     0  5679  3609 rc
88 dict begin %Colortable dictionary
/c0 { 0.000000 0.000000 0.000000 sr} bdef
/c1 { 1.000000 1.000000 1.000000 sr} bdef
/c2 { 0.900000 0.000000 0.000000 sr} bdef
/c3 { 0.000000 0.820000 0.000000 sr} bdef
/c4 { 0.000000 0.000000 0.800000 sr} bdef
/c5 { 0.910000 0.820000 0.320000 sr} bdef
/c6 { 1.000000 0.260000 0.820000 sr} bdef
/c7 { 0.000000 0.820000 0.820000 sr} bdef
c0
1 j
1 sg
   0    0 5680 3610 rf
6 w
0 2942 4401 0 0 -2942 738 3212 4 MP
PP
-4401 0 0 2942 4401 0 0 -2942 738 3212 5 MP stroke
4 w
DO
SO
6 w
0 sg
 738 3212 mt 5139 3212 L
 738 3212 mt  738  270 L
 738 3212 mt  738 3167 L
%%IncludeResource: font Helvetica
/Helvetica /WindowsLatin1Encoding 120 FMSR

 705 3357 mt 
(0) s
1173 3212 mt 1173 3167 L
1107 3357 mt 
(10) s
1609 3212 mt 1609 3167 L
1543 3357 mt 
(20) s
2045 3212 mt 2045 3167 L
1979 3357 mt 
(30) s
2480 3212 mt 2480 3167 L
2414 3357 mt 
(40) s
2916 3212 mt 2916 3167 L
2850 3357 mt 
(50) s
3352 3212 mt 3352 3167 L
3286 3357 mt 
(60) s
3788 3212 mt 3788 3167 L
3722 3357 mt 
(70) s
4223 3212 mt 4223 3167 L
4157 3357 mt 
(80) s
4659 3212 mt 4659 3167 L
4593 3357 mt 
(90) s
5095 3212 mt 5095 3167 L
4995 3357 mt 
(100) s
 738 3212 mt  782 3212 L
 537 3256 mt 
(2.3) s
 738 2917 mt  782 2917 L
 470 2961 mt 
(2.32) s
 738 2623 mt  782 2623 L
 470 2667 mt 
(2.34) s
 738 2329 mt  782 2329 L
 470 2373 mt 
(2.36) s
 738 2035 mt  782 2035 L
 470 2079 mt 
(2.38) s
 738 1741 mt  782 1741 L
 537 1785 mt 
(2.4) s
 738 1447 mt  782 1447 L
 470 1491 mt 
(2.42) s
 738 1153 mt  782 1153 L
 470 1197 mt 
(2.44) s
 738  859 mt  782  859 L
 470  903 mt 
(2.46) s
 738  565 mt  782  565 L
 470  609 mt 
(2.48) s
 738  271 mt  782  271 L
 537  315 mt 
(2.5) s
 738  217 mt 
(x 10) s
%%IncludeResource: font Helvetica
/Helvetica /WindowsLatin1Encoding 80 FMSR

 964  143 mt 
(5) s
gs 738 271 4402 2942 rc
/c8 { 0.000000 0.000000 1.000000 sr} bdef
c8
34 1047 16 -1047 1157 3213 3 MP stroke
14 1789 44 -427 39 -1362 1265 3213 4 MP stroke
41 1968 44 -1703 44 243 43 1098 44 -945 43 1180 44 -175 43 -578 
44 376 44 316 43 83 44 -1129 43 1017 14 -1751 1421 3213 15 MP stroke
44 14 44 -10 43 8 44 1 43 -23 44 -20 44 34 43 2 
44 -75 43 62 44 -169 43 171 44 -36 44 35 43 10 44 -61 
43 16 44 49 43 -2 44 2 44 -114 43 45 44 70 43 -73 
44 68 43 -11 44 12 44 3 43 -132 44 45 43 85 44 -10 
43 10 44 -28 44 -228 43 -11 44 233 43 -432 44 428 43 -63 
44 76 44 6 43 -3 44 2 43 -101 44 107 43 -137 44 121 
44 0 43 20 44 -20 43 7 44 -5 44 5 43 -74 44 78 
43 -238 44 -156 43 -77 44 62 44 -294 43 689 44 -12 43 -1 
44 -1027 43 997 44 -396 44 380 43 43 44 -984 43 132 41 -1134 
2004 3213 73 MP stroke
/c9 { 1.000000 0.000000 0.000000 sr} bdef
c9
3 421 0 -421 1043 3213 3 MP stroke
28 1030 44 520 43 -118 11 -1432 1119 3213 5 MP stroke
20 557 22 -557 1282 3213 3 MP stroke
16 1708 43 -84 44 -887 23 -737 1368 3213 5 MP stroke
27 1604 44 -817 9 -787 1556 3213 4 MP stroke
42 1791 28 -1791 1668 3213 3 MP stroke
32 1815 44 -336 43 -33 44 16 43 445 44 -124 44 -640 43 678 
44 28 43 -214 44 -140 43 377 44 -712 44 -63 43 785 44 -1134 
43 1108 44 7 43 2 44 -260 44 -204 43 452 44 -419 41 -1434 
1742 3213 25 MP stroke
44 14 44 -42 43 26 44 -47 43 57 44 3 44 4 43 -14 
44 4 43 12 44 -37 43 38 44 -76 44 17 43 56 44 -11 
43 12 44 -44 43 4 44 7 44 -33 43 29 44 28 43 -39 
44 29 43 17 44 -151 44 129 43 -288 44 -79 43 262 44 125 
43 -13 44 -140 44 -70 43 202 44 -21 43 -170 44 149 43 59 
44 -6 44 -35 43 -54 44 -338 43 307 44 110 43 -127 44 -123 
44 194 43 -339 44 399 43 -11 44 -56 32 -1874 2797 3213 55 MP stroke
/c10 { 0.000000 1.000000 0.000000 sr} bdef
c10
43 1064 43 133 44 -181 43 -827 44 392 781 2632 6 MP stroke
44 -4 44 -21 43 17 44 -16 43 0 44 4 44 15 43 -28 
44 29 43 4 44 -3 43 -8 44 -12 44 20 43 1 44 -30 
43 -107 44 137 43 -6 44 -12 44 1 43 -11 44 14 43 3 
44 -145 43 140 44 9 44 -73 43 61 44 -49 43 -56 44 112 
43 -51 44 57 44 -13 43 -12 44 2 43 6 44 5 43 5 
44 -75 44 74 43 -42 44 17 43 11 44 11 43 -8 44 -62 
44 64 43 -166 44 57 43 35 44 -210 44 265 43 -291 44 -25 
43 214 44 103 43 -102 44 -789 44 629 43 247 44 -192 43 81 
44 -41 43 -988 44 1130 44 -241 43 236 44 -51 43 -252 44 -278 
43 551 44 -13 44 -818 43 125 44 667 43 -394 44 -264 43 105 
44 212 44 299 43 -26 44 -557 43 473 44 -936 43 768 44 183 
44 -439 43 413 44 -748 43 611 44 -236 43 -374 43 -676 1000 3213 96 MP stroke
/c11 { 0.000000 1.000000 1.000000 sr} bdef
c11
23 561 43 666 44 -83 43 -183 16 -961 809 3213 6 MP stroke
38 958 43 -372 23 -586 1020 3213 4 MP stroke
9 384 43 1000 44 256 43 -1 44 -1145 44 1117 43 -24 44 26 
43 -990 44 949 43 -271 44 -25 44 300 43 -626 44 600 43 -44 
44 -305 43 -891 44 1158 44 -602 43 601 44 -48 40 -1419 1133 3213 24 MP stroke
44 1 44 0 43 -11 44 11 43 -23 44 -6 44 23 43 0 
44 -9 43 1 44 6 43 -56 44 57 44 2 43 -7 44 9 
43 -14 44 -41 43 49 44 -14 44 -6 43 24 44 1 43 -22 
44 -62 43 10 44 38 44 29 43 -4 44 -7 43 -24 44 23 
43 -67 44 78 44 -163 43 151 44 -147 43 127 44 13 43 15 
44 1 44 -38 43 37 44 -236 43 164 44 62 43 -13 44 -12 
44 -271 43 247 44 49 43 -795 44 41 44 724 43 6 44 -330 
43 335 44 -7 43 -81 44 80 44 -264 43 -119 44 378 43 -54 
44 55 43 -26 44 -67 44 -835 14 -746 2161 3213 70 MP stroke
/c12 { 1.000000 0.000000 1.000000 sr} bdef
c12
23 1055 16 -1055 896 3213 3 MP stroke
0 503 5 -503 1648 3213 3 MP stroke
29 1863 0 -1863 1870 3213 3 MP stroke
0 1975 43 -691 25 -1284 1933 3213 4 MP stroke
0 2099 44 -1267 0 -832 2088 3213 4 MP stroke
10 1146 44 817 43 -878 44 -484 43 550 44 332 0 -1483 2219 3213 8 MP stroke
0 1172 11 -1172 2513 3213 3 MP stroke
16 1548 44 237 40 -1785 2658 3213 4 MP stroke
3 1049 44 136 43 -749 44 844 43 716 15 -1996 2858 3213 7 MP stroke
18 1997 43 225 44 -149 43 -1642 1 -431 3177 3213 6 MP stroke
2 1311 44 63 22 -1374 3417 3213 4 MP stroke
21 932 43 869 4 -1801 3566 3213 4 MP stroke
17 1043 43 403 26 -1446 3675 3213 4 MP stroke
4 2217 43 12 44 -58 25 -2171 3806 3213 5 MP stroke
42 2262 43 -919 44 641 43 181 44 -851 44 870 43 73 44 -128 
43 -492 44 527 43 -196 3 -1968 4003 3213 13 MP stroke
33 2175 43 -846 44 -377 26 -952 4546 3213 5 MP stroke
10 2229 33 -2229 4713 3213 3 MP stroke
40 1208 44 960 43 -1734 44 452 44 315 6 -1201 4827 3213 7 MP stroke
44 -429 41 -1153 5054 3213 3 MP stroke
DA
0 sg
4401 0 738 937 2 MP stroke
gr

DA
%%IncludeResource: font Helvetica
/Helvetica /WindowsLatin1Encoding 120 FMSR

2408 3500 mt 
(number of iterations) s
 388 2088 mt  -90 rotate
(log likelihood) s
90 rotate
SO

end %%Color Dict

eplot
%%EndObject

epage
end

showpage

%%Trailer
%%EOF
