%!PS-Adobe-3.0 EPSF-3.0
%%Creator: MATLAB, The MathWorks, Inc. Version 7.14.0.739 (R2012a). Operating System: Linux 2.6.32.59-0.7-default #1 SMP 2012-07-13 15:50:56 +0200 x86_64.
%%Title: /global/u1/z/zxwang/git/citation-network-analysis/modularity_dir3.eps
%%CreationDate: 03/16/2014  19:33:41
%%DocumentNeededFonts: Helvetica
%%DocumentProcessColors: Cyan Magenta Yellow Black
%%LanguageLevel: 2
%%Pages: 1
%%BoundingBox:  -173   156   787   636
%%EndComments

%%BeginProlog
% MathWorks dictionary
/MathWorks 160 dict begin
% definition operators
/bdef {bind def} bind def
/ldef {load def} bind def
/xdef {exch def} bdef
/xstore {exch store} bdef
% operator abbreviations
/c  /clip ldef
/cc /concat ldef
/cp /closepath ldef
/gr /grestore ldef
/gs /gsave ldef
/mt /moveto ldef
/np /newpath ldef
/cm /currentmatrix ldef
/sm /setmatrix ldef
/rm /rmoveto ldef
/rl /rlineto ldef
/s {show newpath} bdef
/sc {setcmykcolor} bdef
/sr /setrgbcolor ldef
/sg /setgray ldef
/w /setlinewidth ldef
/j /setlinejoin ldef
/cap /setlinecap ldef
/rc {rectclip} bdef
/rf {rectfill} bdef
% page state control
/pgsv () def
/bpage {/pgsv save def} bdef
/epage {pgsv restore} bdef
/bplot /gsave ldef
/eplot {stroke grestore} bdef
% orientation switch
/portraitMode 0 def /landscapeMode 1 def /rotateMode 2 def
% coordinate system mappings
/dpi2point 0 def
% font control
/FontSize 0 def
/FMS {/FontSize xstore findfont [FontSize 0 0 FontSize neg 0 0]
  makefont setfont} bdef
/reencode {exch dup where {pop load} {pop StandardEncoding} ifelse
  exch dup 3 1 roll findfont dup length dict begin
  { 1 index /FID ne {def}{pop pop} ifelse } forall
  /Encoding exch def currentdict end definefont pop} bdef
/isroman {findfont /CharStrings get /Agrave known} bdef
/FMSR {3 1 roll 1 index dup isroman {reencode} {pop pop} ifelse
  exch FMS} bdef
/csm {1 dpi2point div -1 dpi2point div scale neg translate
 dup landscapeMode eq {pop -90 rotate}
  {rotateMode eq {90 rotate} if} ifelse} bdef
% line types: solid, dotted, dashed, dotdash
/SO { [] 0 setdash } bdef
/DO { [.5 dpi2point mul 4 dpi2point mul] 0 setdash } bdef
/DA { [6 dpi2point mul] 0 setdash } bdef
/DD { [.5 dpi2point mul 4 dpi2point mul 6 dpi2point mul 4
  dpi2point mul] 0 setdash } bdef
% macros for lines and objects
/L {lineto stroke} bdef
/MP {3 1 roll moveto 1 sub {rlineto} repeat} bdef
/AP {{rlineto} repeat} bdef
/PDlw -1 def
/W {/PDlw currentlinewidth def setlinewidth} def
/PP {closepath eofill} bdef
/DP {closepath stroke} bdef
/MR {4 -2 roll moveto dup  0 exch rlineto exch 0 rlineto
  neg 0 exch rlineto closepath} bdef
/FR {MR stroke} bdef
/PR {MR fill} bdef
/L1i {{currentfile picstr readhexstring pop} image} bdef
/tMatrix matrix def
/MakeOval {newpath tMatrix currentmatrix pop translate scale
0 0 1 0 360 arc tMatrix setmatrix} bdef
/FO {MakeOval stroke} bdef
/PO {MakeOval fill} bdef
/PD {currentlinewidth 2 div 0 360 arc fill
   PDlw -1 eq not {PDlw w /PDlw -1 def} if} def
/FA {newpath tMatrix currentmatrix pop translate scale
  0 0 1 5 -2 roll arc tMatrix setmatrix stroke} bdef
/PA {newpath tMatrix currentmatrix pop	translate 0 0 moveto scale
  0 0 1 5 -2 roll arc closepath tMatrix setmatrix fill} bdef
/FAn {newpath tMatrix currentmatrix pop translate scale
  0 0 1 5 -2 roll arcn tMatrix setmatrix stroke} bdef
/PAn {newpath tMatrix currentmatrix pop translate 0 0 moveto scale
  0 0 1 5 -2 roll arcn closepath tMatrix setmatrix fill} bdef
/vradius 0 def /hradius 0 def /lry 0 def
/lrx 0 def /uly 0 def /ulx 0 def /rad 0 def
/MRR {/vradius xdef /hradius xdef /lry xdef /lrx xdef /uly xdef
  /ulx xdef newpath tMatrix currentmatrix pop ulx hradius add uly
  vradius add translate hradius vradius scale 0 0 1 180 270 arc 
  tMatrix setmatrix lrx hradius sub uly vradius add translate
  hradius vradius scale 0 0 1 270 360 arc tMatrix setmatrix
  lrx hradius sub lry vradius sub translate hradius vradius scale
  0 0 1 0 90 arc tMatrix setmatrix ulx hradius add lry vradius sub
  translate hradius vradius scale 0 0 1 90 180 arc tMatrix setmatrix
  closepath} bdef
/FRR {MRR stroke } bdef
/PRR {MRR fill } bdef
/MlrRR {/lry xdef /lrx xdef /uly xdef /ulx xdef /rad lry uly sub 2 div def
  newpath tMatrix currentmatrix pop ulx rad add uly rad add translate
  rad rad scale 0 0 1 90 270 arc tMatrix setmatrix lrx rad sub lry rad
  sub translate rad rad scale 0 0 1 270 90 arc tMatrix setmatrix
  closepath} bdef
/FlrRR {MlrRR stroke } bdef
/PlrRR {MlrRR fill } bdef
/MtbRR {/lry xdef /lrx xdef /uly xdef /ulx xdef /rad lrx ulx sub 2 div def
  newpath tMatrix currentmatrix pop ulx rad add uly rad add translate
  rad rad scale 0 0 1 180 360 arc tMatrix setmatrix lrx rad sub lry rad
  sub translate rad rad scale 0 0 1 0 180 arc tMatrix setmatrix
  closepath} bdef
/FtbRR {MtbRR stroke } bdef
/PtbRR {MtbRR fill } bdef
/stri 6 array def /dtri 6 array def
/smat 6 array def /dmat 6 array def
/tmat1 6 array def /tmat2 6 array def /dif 3 array def
/asub {/ind2 exch def /ind1 exch def dup dup
  ind1 get exch ind2 get sub exch } bdef
/tri_to_matrix {
  2 0 asub 3 1 asub 4 0 asub 5 1 asub
  dup 0 get exch 1 get 7 -1 roll astore } bdef
/compute_transform {
  dmat dtri tri_to_matrix tmat1 invertmatrix 
  smat stri tri_to_matrix tmat2 concatmatrix } bdef
/ds {stri astore pop} bdef
/dt {dtri astore pop} bdef
/db {2 copy /cols xdef /rows xdef mul dup 3 mul string
  currentfile 
  3 index 0 eq {/ASCIIHexDecode filter}
  {/ASCII85Decode filter 3 index 2 eq {/RunLengthDecode filter} if }
  ifelse exch readstring pop
  dup 0 3 index getinterval /rbmap xdef
  dup 2 index dup getinterval /gbmap xdef
  1 index dup 2 mul exch getinterval /bbmap xdef pop pop}bdef
/it {gs np dtri aload pop moveto lineto lineto cp c
  cols rows 8 compute_transform 
  rbmap gbmap bbmap true 3 colorimage gr}bdef
/il {newpath moveto lineto stroke}bdef
currentdict end def
%%EndProlog

%%BeginSetup
MathWorks begin

0 cap

end
%%EndSetup

%%Page: 1 1
%%BeginPageSetup
%%PageBoundingBox:  -173   156   787   636
MathWorks begin
bpage
%%EndPageSetup

%%BeginObject: obj1
bplot

/dpi2point 12 def
portraitMode -2076 7632 csm

    0     0 11528  5760 rc
85 dict begin %Colortable dictionary
/c0 { 0.000000 0.000000 0.000000 sr} bdef
/c1 { 1.000000 1.000000 1.000000 sr} bdef
/c2 { 0.900000 0.000000 0.000000 sr} bdef
/c3 { 0.000000 0.820000 0.000000 sr} bdef
/c4 { 0.000000 0.000000 0.800000 sr} bdef
/c5 { 0.910000 0.820000 0.320000 sr} bdef
/c6 { 1.000000 0.260000 0.820000 sr} bdef
/c7 { 0.000000 0.820000 0.820000 sr} bdef
c0
1 j
1 sg
   0    0 11529 5761 rf
6 w
0 4694 3858 0 0 -4694 1499 5126 4 MP
PP
-3858 0 0 4694 3858 0 0 -4694 1499 5126 5 MP stroke
4 w
DO
SO
6 w
0 sg
1499 5126 mt 5357 5126 L
1499  432 mt 5357  432 L
1499 5126 mt 1499  432 L
5357 5126 mt 5357  432 L
1499 5126 mt 5357 5126 L
1499 5126 mt 1499  432 L
1499 5126 mt 1499 5079 L
1499  432 mt 1499  478 L
%%IncludeResource: font Helvetica
/Helvetica /ISOLatin1Encoding 120 FMSR

1433 5271 mt 
(40) s
2270 5126 mt 2270 5079 L
2270  432 mt 2270  478 L
2204 5271 mt 
(60) s
3042 5126 mt 3042 5079 L
3042  432 mt 3042  478 L
2976 5271 mt 
(80) s
3813 5126 mt 3813 5079 L
3813  432 mt 3813  478 L
3713 5271 mt 
(100) s
4585 5126 mt 4585 5079 L
4585  432 mt 4585  478 L
4485 5271 mt 
(120) s
5357 5126 mt 5357 5079 L
5357  432 mt 5357  478 L
5257 5271 mt 
(140) s
1499 5126 mt 1545 5126 L
5357 5126 mt 5310 5126 L
1298 5170 mt 
(3.5) s
1499 4343 mt 1545 4343 L
5357 4343 mt 5310 4343 L
1398 4387 mt 
(4) s
1499 3561 mt 1545 3561 L
5357 3561 mt 5310 3561 L
1298 3605 mt 
(4.5) s
1499 2779 mt 1545 2779 L
5357 2779 mt 5310 2779 L
1398 2823 mt 
(5) s
1499 1996 mt 1545 1996 L
5357 1996 mt 5310 1996 L
1298 2040 mt 
(5.5) s
1499 1214 mt 1545 1214 L
5357 1214 mt 5310 1214 L
1398 1258 mt 
(6) s
1499  432 mt 1545  432 L
5357  432 mt 5310  432 L
1298  476 mt 
(6.5) s
1499 5126 mt 5357 5126 L
1499  432 mt 5357  432 L
1499 5126 mt 1499  432 L
5357 5126 mt 5357  432 L
gs 1499 432 3859 4695 rc
/c8 { 0.000000 0.000000 1.000000 sr} bdef
c8
772 -403 772 3150 771 -1852 772 200 771 840 1499 1408 6 MP stroke
gr

c8
0 j
36 47 -36 47 -36 -47 36 -47 1499 1455 5 MP
DP
36 47 -36 47 -36 -47 36 -47 2270 2295 5 MP
DP
36 47 -36 47 -36 -47 36 -47 3042 2495 5 MP
DP
36 47 -36 47 -36 -47 36 -47 3813 643 5 MP
DP
36 47 -36 47 -36 -47 36 -47 4585 3793 5 MP
DP
36 47 -36 47 -36 -47 36 -47 5357 3390 5 MP
DP
gs 1499 432 3859 4695 rc
/c9 { 0.000000 0.500000 0.000000 sr} bdef
c9
772 -207 772 1610 771 -986 772 -479 771 -1874 1499 4882 6 MP stroke
gr

c9
36 47 -36 47 -36 -47 36 -47 1499 4929 5 MP
DP
36 47 -36 47 -36 -47 36 -47 2270 3055 5 MP
DP
36 47 -36 47 -36 -47 36 -47 3042 2576 5 MP
DP
36 47 -36 47 -36 -47 36 -47 3813 1590 5 MP
DP
36 47 -36 47 -36 -47 36 -47 4585 3200 5 MP
DP
36 47 -36 47 -36 -47 36 -47 5357 2993 5 MP
DP
gs 1499 432 3859 4695 rc
gr

36 47 -36 47 -36 -47 36 -47 1499 1455 5 MP
/c10 { 1.000000 0.000000 0.000000 sr} bdef
c10
DP
36 47 -36 47 -36 -47 36 -47 2270 2295 5 MP
DP
36 47 -36 47 -36 -47 36 -47 3042 2495 5 MP
DP
36 47 -36 47 -36 -47 36 -47 3813 643 5 MP
DP
36 47 -36 47 -36 -47 36 -47 4585 3793 5 MP
DP
36 47 -36 47 -36 -47 36 -47 5357 3390 5 MP
DP
gs 1499 432 3859 4695 rc
gr

36 47 -36 47 -36 -47 36 -47 1499 4929 5 MP
DP
36 47 -36 47 -36 -47 36 -47 2270 3055 5 MP
DP
36 47 -36 47 -36 -47 36 -47 3042 2576 5 MP
DP
36 47 -36 47 -36 -47 36 -47 3813 1590 5 MP
DP
36 47 -36 47 -36 -47 36 -47 4585 3200 5 MP
DP
36 47 -36 47 -36 -47 36 -47 5357 2993 5 MP
DP
gs 1499 432 3859 4695 rc
gr

0 sg
%%IncludeResource: font Helvetica
/Helvetica /ISOLatin1Encoding 180 FMSR

1554 5458 mt 
(minimum number of documents per community) s
1203 4385 mt  -90 rotate
(percentage improvement in loglikelihood) s
90 rotate
%%IncludeResource: font Helvetica
/Helvetica /ISOLatin1Encoding 120 FMSR

1482 5169 mt 
( ) s
5341  474 mt 
( ) s
1 sg
0 399 1495 0 0 -399 3534 4762 4 MP
PP
-1495 0 0 399 1495 0 0 -399 3534 4762 5 MP stroke
4 w
DO
SO
6 w
0 sg
3534 4762 mt 5029 4762 L
3534 4363 mt 5029 4363 L
3534 4762 mt 3534 4363 L
5029 4762 mt 5029 4363 L
3534 4762 mt 5029 4762 L
3534 4762 mt 3534 4363 L
3534 4762 mt 5029 4762 L
3534 4363 mt 5029 4363 L
3534 4762 mt 3534 4363 L
5029 4762 mt 5029 4363 L
4002 4516 mt 
(training set) s
gs 3534 4363 1496 400 rc
c8
360 0 3606 4473 2 MP stroke
gs 3713 4400 147 147 rc
36 47 -36 47 -36 -47 36 -47 3786 4520 5 MP
DP
gr

gr

c8
0 sg
4002 4694 mt 
(validation set) s
gs 3534 4363 1496 400 rc
c9
360 0 3606 4651 2 MP stroke
gs 3713 4578 147 147 rc
36 47 -36 47 -36 -47 36 -47 3786 4698 5 MP
DP
gr

gr

c9
1 sg
0 4694 3858 0 0 -4694 6575 5126 4 MP
PP
-3858 0 0 4694 3858 0 0 -4694 6575 5126 5 MP stroke
4 w
DO
SO
6 w
0 sg
6575 5126 mt 10433 5126 L
6575  432 mt 10433  432 L
6575 5126 mt 6575  432 L
10433 5126 mt 10433  432 L
6575 5126 mt 10433 5126 L
6575 5126 mt 6575  432 L
6575 5126 mt 6575 5079 L
6575  432 mt 6575  478 L
6509 5271 mt 
(40) s
7346 5126 mt 7346 5079 L
7346  432 mt 7346  478 L
7280 5271 mt 
(60) s
8118 5126 mt 8118 5079 L
8118  432 mt 8118  478 L
8052 5271 mt 
(80) s
8889 5126 mt 8889 5079 L
8889  432 mt 8889  478 L
8789 5271 mt 
(100) s
9661 5126 mt 9661 5079 L
9661  432 mt 9661  478 L
9561 5271 mt 
(120) s
10433 5126 mt 10433 5079 L
10433  432 mt 10433  478 L
10333 5271 mt 
(140) s
6575 5126 mt 6621 5126 L
10433 5126 mt 10386 5126 L
6474 5170 mt 
(7) s
6575 4455 mt 6621 4455 L
10433 4455 mt 10386 4455 L
6374 4499 mt 
(7.5) s
6575 3784 mt 6621 3784 L
10433 3784 mt 10386 3784 L
6474 3828 mt 
(8) s
6575 3114 mt 6621 3114 L
10433 3114 mt 10386 3114 L
6374 3158 mt 
(8.5) s
6575 2443 mt 6621 2443 L
10433 2443 mt 10386 2443 L
6474 2487 mt 
(9) s
6575 1773 mt 6621 1773 L
10433 1773 mt 10386 1773 L
6374 1817 mt 
(9.5) s
6575 1102 mt 6621 1102 L
10433 1102 mt 10386 1102 L
6407 1146 mt 
(10) s
6575  432 mt 6621  432 L
10433  432 mt 10386  432 L
6307  476 mt 
(10.5) s
6575 5126 mt 10433 5126 L
6575  432 mt 10433  432 L
6575 5126 mt 6575  432 L
10433 5126 mt 10433  432 L
gs 6575 432 3859 4695 rc
c8
772 -908 772 4064 771 -2006 772 -636 771 1548 6575 1970 6 MP stroke
gr

c8
36 47 -36 47 -36 -47 36 -47 6575 2017 5 MP
DP
36 47 -36 47 -36 -47 36 -47 7346 3565 5 MP
DP
36 47 -36 47 -36 -47 36 -47 8118 2929 5 MP
DP
36 47 -36 47 -36 -47 36 -47 8889 923 5 MP
DP
36 47 -36 47 -36 -47 36 -47 9661 4987 5 MP
DP
36 47 -36 47 -36 -47 36 -47 10433 4079 5 MP
DP
gs 6575 432 3859 4695 rc
c9
772 496 772 1438 771 -405 772 -1143 771 -2550 6575 5081 6 MP stroke
gr

c9
36 47 -36 47 -36 -47 36 -47 6575 5128 5 MP
DP
36 47 -36 47 -36 -47 36 -47 7346 2578 5 MP
DP
36 47 -36 47 -36 -47 36 -47 8118 1435 5 MP
DP
36 47 -36 47 -36 -47 36 -47 8889 1030 5 MP
DP
36 47 -36 47 -36 -47 36 -47 9661 2468 5 MP
DP
36 47 -36 47 -36 -47 36 -47 10433 2964 5 MP
DP
gs 6575 432 3859 4695 rc
gr

36 47 -36 47 -36 -47 36 -47 6575 2017 5 MP
c10
DP
36 47 -36 47 -36 -47 36 -47 7346 3565 5 MP
DP
36 47 -36 47 -36 -47 36 -47 8118 2929 5 MP
DP
36 47 -36 47 -36 -47 36 -47 8889 923 5 MP
DP
36 47 -36 47 -36 -47 36 -47 9661 4987 5 MP
DP
36 47 -36 47 -36 -47 36 -47 10433 4079 5 MP
DP
gs 6575 432 3859 4695 rc
gr

36 47 -36 47 -36 -47 36 -47 6575 5128 5 MP
DP
36 47 -36 47 -36 -47 36 -47 7346 2578 5 MP
DP
36 47 -36 47 -36 -47 36 -47 8118 1435 5 MP
DP
36 47 -36 47 -36 -47 36 -47 8889 1030 5 MP
DP
36 47 -36 47 -36 -47 36 -47 9661 2468 5 MP
DP
36 47 -36 47 -36 -47 36 -47 10433 2964 5 MP
DP
gs 6575 432 3859 4695 rc
gr

0 sg
%%IncludeResource: font Helvetica
/Helvetica /ISOLatin1Encoding 180 FMSR

6630 5458 mt 
(minimum number of documents per community) s
6212 4722 mt  -90 rotate
(percentage improvement in sum of square errors) s
90 rotate
%%IncludeResource: font Helvetica
/Helvetica /ISOLatin1Encoding 120 FMSR

6558 5169 mt 
( ) s
10417  474 mt 
( ) s
1 sg
0 399 1495 0 0 -399 6889 1041 4 MP
PP
-1495 0 0 399 1495 0 0 -399 6889 1041 5 MP stroke
4 w
DO
SO
6 w
0 sg
6889 1041 mt 8384 1041 L
6889  642 mt 8384  642 L
6889 1041 mt 6889  642 L
8384 1041 mt 8384  642 L
6889 1041 mt 8384 1041 L
6889 1041 mt 6889  642 L
6889 1041 mt 8384 1041 L
6889  642 mt 8384  642 L
6889 1041 mt 6889  642 L
8384 1041 mt 8384  642 L
7357  795 mt 
(training set) s
gs 6889 642 1496 400 rc
c8
360 0 6961 752 2 MP stroke
gs 7068 679 147 147 rc
36 47 -36 47 -36 -47 36 -47 7141 799 5 MP
DP
gr

gr

c8
0 sg
7357  973 mt 
(validation set) s
gs 6889 642 1496 400 rc
c9
360 0 6961 930 2 MP stroke
gs 7068 857 147 147 rc
36 47 -36 47 -36 -47 36 -47 7141 977 5 MP
DP
gr

gr

c9

end %%Color Dict

eplot
%%EndObject

epage
end

showpage

%%Trailer
%%EOF
