%!PS-Adobe-3.0 EPSF-3.0
%%Creator: MATLAB, The MathWorks, Inc. Version 7.14.0.739 (R2012a). Operating System: Linux 2.6.32.59-0.7-default #1 SMP 2012-07-13 15:50:56 +0200 x86_64.
%%Title: /global/u1/z/zxwang/git/citation-network-analysis/modularity_dir4.eps
%%CreationDate: 03/16/2014  20:23:09
%%DocumentNeededFonts: Helvetica
%%DocumentProcessColors: Cyan Magenta Yellow Black
%%LanguageLevel: 2
%%Pages: 1
%%BoundingBox:  -173   156   787   636
%%EndComments

%%BeginProlog
% MathWorks dictionary
/MathWorks 160 dict begin
% definition operators
/bdef {bind def} bind def
/ldef {load def} bind def
/xdef {exch def} bdef
/xstore {exch store} bdef
% operator abbreviations
/c  /clip ldef
/cc /concat ldef
/cp /closepath ldef
/gr /grestore ldef
/gs /gsave ldef
/mt /moveto ldef
/np /newpath ldef
/cm /currentmatrix ldef
/sm /setmatrix ldef
/rm /rmoveto ldef
/rl /rlineto ldef
/s {show newpath} bdef
/sc {setcmykcolor} bdef
/sr /setrgbcolor ldef
/sg /setgray ldef
/w /setlinewidth ldef
/j /setlinejoin ldef
/cap /setlinecap ldef
/rc {rectclip} bdef
/rf {rectfill} bdef
% page state control
/pgsv () def
/bpage {/pgsv save def} bdef
/epage {pgsv restore} bdef
/bplot /gsave ldef
/eplot {stroke grestore} bdef
% orientation switch
/portraitMode 0 def /landscapeMode 1 def /rotateMode 2 def
% coordinate system mappings
/dpi2point 0 def
% font control
/FontSize 0 def
/FMS {/FontSize xstore findfont [FontSize 0 0 FontSize neg 0 0]
  makefont setfont} bdef
/reencode {exch dup where {pop load} {pop StandardEncoding} ifelse
  exch dup 3 1 roll findfont dup length dict begin
  { 1 index /FID ne {def}{pop pop} ifelse } forall
  /Encoding exch def currentdict end definefont pop} bdef
/isroman {findfont /CharStrings get /Agrave known} bdef
/FMSR {3 1 roll 1 index dup isroman {reencode} {pop pop} ifelse
  exch FMS} bdef
/csm {1 dpi2point div -1 dpi2point div scale neg translate
 dup landscapeMode eq {pop -90 rotate}
  {rotateMode eq {90 rotate} if} ifelse} bdef
% line types: solid, dotted, dashed, dotdash
/SO { [] 0 setdash } bdef
/DO { [.5 dpi2point mul 4 dpi2point mul] 0 setdash } bdef
/DA { [6 dpi2point mul] 0 setdash } bdef
/DD { [.5 dpi2point mul 4 dpi2point mul 6 dpi2point mul 4
  dpi2point mul] 0 setdash } bdef
% macros for lines and objects
/L {lineto stroke} bdef
/MP {3 1 roll moveto 1 sub {rlineto} repeat} bdef
/AP {{rlineto} repeat} bdef
/PDlw -1 def
/W {/PDlw currentlinewidth def setlinewidth} def
/PP {closepath eofill} bdef
/DP {closepath stroke} bdef
/MR {4 -2 roll moveto dup  0 exch rlineto exch 0 rlineto
  neg 0 exch rlineto closepath} bdef
/FR {MR stroke} bdef
/PR {MR fill} bdef
/L1i {{currentfile picstr readhexstring pop} image} bdef
/tMatrix matrix def
/MakeOval {newpath tMatrix currentmatrix pop translate scale
0 0 1 0 360 arc tMatrix setmatrix} bdef
/FO {MakeOval stroke} bdef
/PO {MakeOval fill} bdef
/PD {currentlinewidth 2 div 0 360 arc fill
   PDlw -1 eq not {PDlw w /PDlw -1 def} if} def
/FA {newpath tMatrix currentmatrix pop translate scale
  0 0 1 5 -2 roll arc tMatrix setmatrix stroke} bdef
/PA {newpath tMatrix currentmatrix pop	translate 0 0 moveto scale
  0 0 1 5 -2 roll arc closepath tMatrix setmatrix fill} bdef
/FAn {newpath tMatrix currentmatrix pop translate scale
  0 0 1 5 -2 roll arcn tMatrix setmatrix stroke} bdef
/PAn {newpath tMatrix currentmatrix pop translate 0 0 moveto scale
  0 0 1 5 -2 roll arcn closepath tMatrix setmatrix fill} bdef
/vradius 0 def /hradius 0 def /lry 0 def
/lrx 0 def /uly 0 def /ulx 0 def /rad 0 def
/MRR {/vradius xdef /hradius xdef /lry xdef /lrx xdef /uly xdef
  /ulx xdef newpath tMatrix currentmatrix pop ulx hradius add uly
  vradius add translate hradius vradius scale 0 0 1 180 270 arc 
  tMatrix setmatrix lrx hradius sub uly vradius add translate
  hradius vradius scale 0 0 1 270 360 arc tMatrix setmatrix
  lrx hradius sub lry vradius sub translate hradius vradius scale
  0 0 1 0 90 arc tMatrix setmatrix ulx hradius add lry vradius sub
  translate hradius vradius scale 0 0 1 90 180 arc tMatrix setmatrix
  closepath} bdef
/FRR {MRR stroke } bdef
/PRR {MRR fill } bdef
/MlrRR {/lry xdef /lrx xdef /uly xdef /ulx xdef /rad lry uly sub 2 div def
  newpath tMatrix currentmatrix pop ulx rad add uly rad add translate
  rad rad scale 0 0 1 90 270 arc tMatrix setmatrix lrx rad sub lry rad
  sub translate rad rad scale 0 0 1 270 90 arc tMatrix setmatrix
  closepath} bdef
/FlrRR {MlrRR stroke } bdef
/PlrRR {MlrRR fill } bdef
/MtbRR {/lry xdef /lrx xdef /uly xdef /ulx xdef /rad lrx ulx sub 2 div def
  newpath tMatrix currentmatrix pop ulx rad add uly rad add translate
  rad rad scale 0 0 1 180 360 arc tMatrix setmatrix lrx rad sub lry rad
  sub translate rad rad scale 0 0 1 0 180 arc tMatrix setmatrix
  closepath} bdef
/FtbRR {MtbRR stroke } bdef
/PtbRR {MtbRR fill } bdef
/stri 6 array def /dtri 6 array def
/smat 6 array def /dmat 6 array def
/tmat1 6 array def /tmat2 6 array def /dif 3 array def
/asub {/ind2 exch def /ind1 exch def dup dup
  ind1 get exch ind2 get sub exch } bdef
/tri_to_matrix {
  2 0 asub 3 1 asub 4 0 asub 5 1 asub
  dup 0 get exch 1 get 7 -1 roll astore } bdef
/compute_transform {
  dmat dtri tri_to_matrix tmat1 invertmatrix 
  smat stri tri_to_matrix tmat2 concatmatrix } bdef
/ds {stri astore pop} bdef
/dt {dtri astore pop} bdef
/db {2 copy /cols xdef /rows xdef mul dup 3 mul string
  currentfile 
  3 index 0 eq {/ASCIIHexDecode filter}
  {/ASCII85Decode filter 3 index 2 eq {/RunLengthDecode filter} if }
  ifelse exch readstring pop
  dup 0 3 index getinterval /rbmap xdef
  dup 2 index dup getinterval /gbmap xdef
  1 index dup 2 mul exch getinterval /bbmap xdef pop pop}bdef
/it {gs np dtri aload pop moveto lineto lineto cp c
  cols rows 8 compute_transform 
  rbmap gbmap bbmap true 3 colorimage gr}bdef
/il {newpath moveto lineto stroke}bdef
currentdict end def
%%EndProlog

%%BeginSetup
MathWorks begin

0 cap

end
%%EndSetup

%%Page: 1 1
%%BeginPageSetup
%%PageBoundingBox:  -173   156   787   636
MathWorks begin
bpage
%%EndPageSetup

%%BeginObject: obj1
bplot

/dpi2point 12 def
portraitMode -2076 7632 csm

    0     0 11528  5760 rc
85 dict begin %Colortable dictionary
/c0 { 0.000000 0.000000 0.000000 sr} bdef
/c1 { 1.000000 1.000000 1.000000 sr} bdef
/c2 { 0.900000 0.000000 0.000000 sr} bdef
/c3 { 0.000000 0.820000 0.000000 sr} bdef
/c4 { 0.000000 0.000000 0.800000 sr} bdef
/c5 { 0.910000 0.820000 0.320000 sr} bdef
/c6 { 1.000000 0.260000 0.820000 sr} bdef
/c7 { 0.000000 0.820000 0.820000 sr} bdef
c0
1 j
1 sg
   0    0 11529 5761 rf
6 w
0 4694 3858 0 0 -4694 1499 5126 4 MP
PP
-3858 0 0 4694 3858 0 0 -4694 1499 5126 5 MP stroke
4 w
DO
SO
6 w
0 sg
1499 5126 mt 5357 5126 L
1499  432 mt 5357  432 L
1499 5126 mt 1499  432 L
5357 5126 mt 5357  432 L
1499 5126 mt 5357 5126 L
1499 5126 mt 1499  432 L
1499 5126 mt 1499 5079 L
1499  432 mt 1499  478 L
%%IncludeResource: font Helvetica
/Helvetica /ISOLatin1Encoding 120 FMSR

1433 5271 mt 
(80) s
1981 5126 mt 1981 5079 L
1981  432 mt 1981  478 L
1915 5271 mt 
(85) s
2463 5126 mt 2463 5079 L
2463  432 mt 2463  478 L
2397 5271 mt 
(90) s
2945 5126 mt 2945 5079 L
2945  432 mt 2945  478 L
2879 5271 mt 
(95) s
3428 5126 mt 3428 5079 L
3428  432 mt 3428  478 L
3328 5271 mt 
(100) s
3910 5126 mt 3910 5079 L
3910  432 mt 3910  478 L
3810 5271 mt 
(105) s
4392 5126 mt 4392 5079 L
4392  432 mt 4392  478 L
4292 5271 mt 
(110) s
4874 5126 mt 4874 5079 L
4874  432 mt 4874  478 L
4774 5271 mt 
(115) s
5357 5126 mt 5357 5079 L
5357  432 mt 5357  478 L
5257 5271 mt 
(120) s
1499 5126 mt 1545 5126 L
5357 5126 mt 5310 5126 L
1298 5170 mt 
(4.4) s
1499 4656 mt 1545 4656 L
5357 4656 mt 5310 4656 L
1298 4700 mt 
(4.5) s
1499 4187 mt 1545 4187 L
5357 4187 mt 5310 4187 L
1298 4231 mt 
(4.6) s
1499 3717 mt 1545 3717 L
5357 3717 mt 5310 3717 L
1298 3761 mt 
(4.7) s
1499 3248 mt 1545 3248 L
5357 3248 mt 5310 3248 L
1298 3292 mt 
(4.8) s
1499 2779 mt 1545 2779 L
5357 2779 mt 5310 2779 L
1298 2823 mt 
(4.9) s
1499 2309 mt 1545 2309 L
5357 2309 mt 5310 2309 L
1398 2353 mt 
(5) s
1499 1840 mt 1545 1840 L
5357 1840 mt 5310 1840 L
1298 1884 mt 
(5.1) s
1499 1370 mt 1545 1370 L
5357 1370 mt 5310 1370 L
1298 1414 mt 
(5.2) s
1499  901 mt 1545  901 L
5357  901 mt 5310  901 L
1298  945 mt 
(5.3) s
1499  432 mt 1545  432 L
5357  432 mt 5310  432 L
1298  476 mt 
(5.4) s
1499 5126 mt 5357 5126 L
1499  432 mt 5357  432 L
1499 5126 mt 1499  432 L
5357 5126 mt 5357  432 L
gs 1499 432 3859 4695 rc
/c8 { 0.000000 0.000000 1.000000 sr} bdef
c8
965 3095 964 -1123 965 -1063 964 1895 1499 1383 5 MP stroke
gr

c8
0 j
36 47 -36 47 -36 -47 36 -47 1499 1430 5 MP
DP
36 47 -36 47 -36 -47 36 -47 2463 3325 5 MP
DP
36 47 -36 47 -36 -47 36 -47 3428 2262 5 MP
DP
36 47 -36 47 -36 -47 36 -47 4392 1139 5 MP
DP
36 47 -36 47 -36 -47 36 -47 5357 4234 5 MP
DP
gs 1499 432 3859 4695 rc
/c9 { 0.000000 0.500000 0.000000 sr} bdef
c9
965 3051 964 1579 965 -574 964 479 1499 576 5 MP stroke
gr

c9
36 47 -36 47 -36 -47 36 -47 1499 623 5 MP
DP
36 47 -36 47 -36 -47 36 -47 2463 1102 5 MP
DP
36 47 -36 47 -36 -47 36 -47 3428 528 5 MP
DP
36 47 -36 47 -36 -47 36 -47 4392 2107 5 MP
DP
36 47 -36 47 -36 -47 36 -47 5357 5158 5 MP
DP
gs 1499 432 3859 4695 rc
gr

36 47 -36 47 -36 -47 36 -47 1499 1430 5 MP
/c10 { 1.000000 0.000000 0.000000 sr} bdef
c10
DP
36 47 -36 47 -36 -47 36 -47 2463 3325 5 MP
DP
36 47 -36 47 -36 -47 36 -47 3428 2262 5 MP
DP
36 47 -36 47 -36 -47 36 -47 4392 1139 5 MP
DP
36 47 -36 47 -36 -47 36 -47 5357 4234 5 MP
DP
gs 1499 432 3859 4695 rc
gr

36 47 -36 47 -36 -47 36 -47 1499 623 5 MP
DP
36 47 -36 47 -36 -47 36 -47 2463 1102 5 MP
DP
36 47 -36 47 -36 -47 36 -47 3428 528 5 MP
DP
36 47 -36 47 -36 -47 36 -47 4392 2107 5 MP
DP
36 47 -36 47 -36 -47 36 -47 5357 5158 5 MP
DP
gs 1499 432 3859 4695 rc
gr

0 sg
%%IncludeResource: font Helvetica
/Helvetica /ISOLatin1Encoding 180 FMSR

1554 5458 mt 
(minimum number of documents per community) s
1203 4385 mt  -90 rotate
(percentage improvement in loglikelihood) s
90 rotate
%%IncludeResource: font Helvetica
/Helvetica /ISOLatin1Encoding 120 FMSR

1482 5169 mt 
( ) s
5341  474 mt 
( ) s
1 sg
0 334 1204 0 0 -334 4094 826 4 MP
PP
-1204 0 0 334 1204 0 0 -334 4094 826 5 MP stroke
4 w
DO
SO
6 w
0 sg
4094  826 mt 5298  826 L
4094  492 mt 5298  492 L
4094  826 mt 4094  492 L
5298  826 mt 5298  492 L
4094  826 mt 5298  826 L
4094  826 mt 4094  492 L
4094  826 mt 5298  826 L
4094  492 mt 5298  492 L
4094  826 mt 4094  492 L
5298  826 mt 5298  492 L
4471  627 mt 
(training set) s
gs 4094 492 1205 335 rc
c8
290 0 4151 584 2 MP stroke
gs 4223 511 147 147 rc
36 47 -36 47 -36 -47 36 -47 4296 631 5 MP
DP
gr

gr

c8
0 sg
4471  776 mt 
(validation set) s
gs 4094 492 1205 335 rc
c9
290 0 4151 733 2 MP stroke
gs 4223 660 147 147 rc
36 47 -36 47 -36 -47 36 -47 4296 780 5 MP
DP
gr

gr

c9
1 sg
0 4694 3858 0 0 -4694 6575 5126 4 MP
PP
-3858 0 0 4694 3858 0 0 -4694 6575 5126 5 MP stroke
4 w
DO
SO
6 w
0 sg
6575 5126 mt 10433 5126 L
6575  432 mt 10433  432 L
6575 5126 mt 6575  432 L
10433 5126 mt 10433  432 L
6575 5126 mt 10433 5126 L
6575 5126 mt 6575  432 L
6575 5126 mt 6575 5079 L
6575  432 mt 6575  478 L
6509 5271 mt 
(80) s
7057 5126 mt 7057 5079 L
7057  432 mt 7057  478 L
6991 5271 mt 
(85) s
7539 5126 mt 7539 5079 L
7539  432 mt 7539  478 L
7473 5271 mt 
(90) s
8021 5126 mt 8021 5079 L
8021  432 mt 8021  478 L
7955 5271 mt 
(95) s
8504 5126 mt 8504 5079 L
8504  432 mt 8504  478 L
8404 5271 mt 
(100) s
8986 5126 mt 8986 5079 L
8986  432 mt 8986  478 L
8886 5271 mt 
(105) s
9468 5126 mt 9468 5079 L
9468  432 mt 9468  478 L
9368 5271 mt 
(110) s
9950 5126 mt 9950 5079 L
9950  432 mt 9950  478 L
9850 5271 mt 
(115) s
10433 5126 mt 10433 5079 L
10433  432 mt 10433  478 L
10333 5271 mt 
(120) s
6575 5126 mt 6621 5126 L
10433 5126 mt 10386 5126 L
6374 5170 mt 
(7.5) s
6575 4455 mt 6621 4455 L
10433 4455 mt 10386 4455 L
6474 4499 mt 
(8) s
6575 3784 mt 6621 3784 L
10433 3784 mt 10386 3784 L
6374 3828 mt 
(8.5) s
6575 3114 mt 6621 3114 L
10433 3114 mt 10386 3114 L
6474 3158 mt 
(9) s
6575 2443 mt 6621 2443 L
10433 2443 mt 10386 2443 L
6374 2487 mt 
(9.5) s
6575 1773 mt 6621 1773 L
10433 1773 mt 10386 1773 L
6407 1817 mt 
(10) s
6575 1102 mt 6621 1102 L
10433 1102 mt 10386 1102 L
6307 1146 mt 
(10.5) s
6575  432 mt 6621  432 L
10433  432 mt 10386  432 L
6407  476 mt 
(11) s
6575 5126 mt 10433 5126 L
6575  432 mt 10433  432 L
6575 5126 mt 6575  432 L
10433 5126 mt 10433  432 L
gs 6575 432 3859 4695 rc
c8
965 1713 964 -950 965 -761 964 1295 6575 3510 5 MP stroke
gr

c8
36 47 -36 47 -36 -47 36 -47 6575 3557 5 MP
DP
36 47 -36 47 -36 -47 36 -47 7539 4852 5 MP
DP
36 47 -36 47 -36 -47 36 -47 8504 4091 5 MP
DP
36 47 -36 47 -36 -47 36 -47 9468 3141 5 MP
DP
36 47 -36 47 -36 -47 36 -47 10433 4854 5 MP
DP
gs 6575 432 3859 4695 rc
c9
965 1426 964 947 965 490 964 922 6575 703 5 MP stroke
gr

c9
36 47 -36 47 -36 -47 36 -47 6575 750 5 MP
DP
36 47 -36 47 -36 -47 36 -47 7539 1672 5 MP
DP
36 47 -36 47 -36 -47 36 -47 8504 2162 5 MP
DP
36 47 -36 47 -36 -47 36 -47 9468 3109 5 MP
DP
36 47 -36 47 -36 -47 36 -47 10433 4535 5 MP
DP
gs 6575 432 3859 4695 rc
gr

36 47 -36 47 -36 -47 36 -47 6575 3557 5 MP
c10
DP
36 47 -36 47 -36 -47 36 -47 7539 4852 5 MP
DP
36 47 -36 47 -36 -47 36 -47 8504 4091 5 MP
DP
36 47 -36 47 -36 -47 36 -47 9468 3141 5 MP
DP
36 47 -36 47 -36 -47 36 -47 10433 4854 5 MP
DP
gs 6575 432 3859 4695 rc
gr

36 47 -36 47 -36 -47 36 -47 6575 750 5 MP
DP
36 47 -36 47 -36 -47 36 -47 7539 1672 5 MP
DP
36 47 -36 47 -36 -47 36 -47 8504 2162 5 MP
DP
36 47 -36 47 -36 -47 36 -47 9468 3109 5 MP
DP
36 47 -36 47 -36 -47 36 -47 10433 4535 5 MP
DP
gs 6575 432 3859 4695 rc
gr

0 sg
%%IncludeResource: font Helvetica
/Helvetica /ISOLatin1Encoding 180 FMSR

6630 5458 mt 
(minimum number of documents per community) s
6212 4722 mt  -90 rotate
(percentage improvement in sum of square errors) s
90 rotate
%%IncludeResource: font Helvetica
/Helvetica /ISOLatin1Encoding 120 FMSR

6558 5169 mt 
( ) s
10417  474 mt 
( ) s
1 sg
0 334 1203 0 0 -334 9170 826 4 MP
PP
-1203 0 0 334 1203 0 0 -334 9170 826 5 MP stroke
4 w
DO
SO
6 w
0 sg
9170  826 mt 10373  826 L
9170  492 mt 10373  492 L
9170  826 mt 9170  492 L
10373  826 mt 10373  492 L
9170  826 mt 10373  826 L
9170  826 mt 9170  492 L
9170  826 mt 10373  826 L
9170  492 mt 10373  492 L
9170  826 mt 9170  492 L
10373  826 mt 10373  492 L
9547  627 mt 
(training set) s
gs 9170 492 1204 335 rc
c8
290 0 9227 584 2 MP stroke
gs 9299 511 147 147 rc
36 47 -36 47 -36 -47 36 -47 9372 631 5 MP
DP
gr

gr

c8
0 sg
9547  776 mt 
(validation set) s
gs 9170 492 1204 335 rc
c9
290 0 9227 733 2 MP stroke
gs 9299 660 147 147 rc
36 47 -36 47 -36 -47 36 -47 9372 780 5 MP
DP
gr

gr

c9

end %%Color Dict

eplot
%%EndObject

epage
end

showpage

%%Trailer
%%EOF
