%!PS-Adobe-3.0 EPSF-3.0
%%Creator: MATLAB, The MathWorks, Inc. Version 7.13.0.564 (R2011b). Operating System: Linux 2.6.32-358.23.2.el6.x86_64 #1 SMP Wed Oct 16 18:37:12 UTC 2013 x86_64.
%%Title: /data/users/zhixuanw/git/citation-network-analysis/weird.eps
%%CreationDate: 03/17/2014  04:08:20
%%DocumentNeededFonts: Helvetica
%%DocumentProcessColors: Cyan Magenta Yellow Black
%%LanguageLevel: 2
%%Pages: 1
%%BoundingBox:    29   182   580   609
%%EndComments

%%BeginProlog
% MathWorks dictionary
/MathWorks 160 dict begin
% definition operators
/bdef {bind def} bind def
/ldef {load def} bind def
/xdef {exch def} bdef
/xstore {exch store} bdef
% operator abbreviations
/c  /clip ldef
/cc /concat ldef
/cp /closepath ldef
/gr /grestore ldef
/gs /gsave ldef
/mt /moveto ldef
/np /newpath ldef
/cm /currentmatrix ldef
/sm /setmatrix ldef
/rm /rmoveto ldef
/rl /rlineto ldef
/s {show newpath} bdef
/sc {setcmykcolor} bdef
/sr /setrgbcolor ldef
/sg /setgray ldef
/w /setlinewidth ldef
/j /setlinejoin ldef
/cap /setlinecap ldef
/rc {rectclip} bdef
/rf {rectfill} bdef
% page state control
/pgsv () def
/bpage {/pgsv save def} bdef
/epage {pgsv restore} bdef
/bplot /gsave ldef
/eplot {stroke grestore} bdef
% orientation switch
/portraitMode 0 def /landscapeMode 1 def /rotateMode 2 def
% coordinate system mappings
/dpi2point 0 def
% font control
/FontSize 0 def
/FMS {/FontSize xstore findfont [FontSize 0 0 FontSize neg 0 0]
  makefont setfont} bdef
/reencode {exch dup where {pop load} {pop StandardEncoding} ifelse
  exch dup 3 1 roll findfont dup length dict begin
  { 1 index /FID ne {def}{pop pop} ifelse } forall
  /Encoding exch def currentdict end definefont pop} bdef
/isroman {findfont /CharStrings get /Agrave known} bdef
/FMSR {3 1 roll 1 index dup isroman {reencode} {pop pop} ifelse
  exch FMS} bdef
/csm {1 dpi2point div -1 dpi2point div scale neg translate
 dup landscapeMode eq {pop -90 rotate}
  {rotateMode eq {90 rotate} if} ifelse} bdef
% line types: solid, dotted, dashed, dotdash
/SO { [] 0 setdash } bdef
/DO { [.5 dpi2point mul 4 dpi2point mul] 0 setdash } bdef
/DA { [6 dpi2point mul] 0 setdash } bdef
/DD { [.5 dpi2point mul 4 dpi2point mul 6 dpi2point mul 4
  dpi2point mul] 0 setdash } bdef
% macros for lines and objects
/L {lineto stroke} bdef
/MP {3 1 roll moveto 1 sub {rlineto} repeat} bdef
/AP {{rlineto} repeat} bdef
/PDlw -1 def
/W {/PDlw currentlinewidth def setlinewidth} def
/PP {closepath eofill} bdef
/DP {closepath stroke} bdef
/MR {4 -2 roll moveto dup  0 exch rlineto exch 0 rlineto
  neg 0 exch rlineto closepath} bdef
/FR {MR stroke} bdef
/PR {MR fill} bdef
/L1i {{currentfile picstr readhexstring pop} image} bdef
/tMatrix matrix def
/MakeOval {newpath tMatrix currentmatrix pop translate scale
0 0 1 0 360 arc tMatrix setmatrix} bdef
/FO {MakeOval stroke} bdef
/PO {MakeOval fill} bdef
/PD {currentlinewidth 2 div 0 360 arc fill
   PDlw -1 eq not {PDlw w /PDlw -1 def} if} def
/FA {newpath tMatrix currentmatrix pop translate scale
  0 0 1 5 -2 roll arc tMatrix setmatrix stroke} bdef
/PA {newpath tMatrix currentmatrix pop	translate 0 0 moveto scale
  0 0 1 5 -2 roll arc closepath tMatrix setmatrix fill} bdef
/FAn {newpath tMatrix currentmatrix pop translate scale
  0 0 1 5 -2 roll arcn tMatrix setmatrix stroke} bdef
/PAn {newpath tMatrix currentmatrix pop translate 0 0 moveto scale
  0 0 1 5 -2 roll arcn closepath tMatrix setmatrix fill} bdef
/vradius 0 def /hradius 0 def /lry 0 def
/lrx 0 def /uly 0 def /ulx 0 def /rad 0 def
/MRR {/vradius xdef /hradius xdef /lry xdef /lrx xdef /uly xdef
  /ulx xdef newpath tMatrix currentmatrix pop ulx hradius add uly
  vradius add translate hradius vradius scale 0 0 1 180 270 arc 
  tMatrix setmatrix lrx hradius sub uly vradius add translate
  hradius vradius scale 0 0 1 270 360 arc tMatrix setmatrix
  lrx hradius sub lry vradius sub translate hradius vradius scale
  0 0 1 0 90 arc tMatrix setmatrix ulx hradius add lry vradius sub
  translate hradius vradius scale 0 0 1 90 180 arc tMatrix setmatrix
  closepath} bdef
/FRR {MRR stroke } bdef
/PRR {MRR fill } bdef
/MlrRR {/lry xdef /lrx xdef /uly xdef /ulx xdef /rad lry uly sub 2 div def
  newpath tMatrix currentmatrix pop ulx rad add uly rad add translate
  rad rad scale 0 0 1 90 270 arc tMatrix setmatrix lrx rad sub lry rad
  sub translate rad rad scale 0 0 1 270 90 arc tMatrix setmatrix
  closepath} bdef
/FlrRR {MlrRR stroke } bdef
/PlrRR {MlrRR fill } bdef
/MtbRR {/lry xdef /lrx xdef /uly xdef /ulx xdef /rad lrx ulx sub 2 div def
  newpath tMatrix currentmatrix pop ulx rad add uly rad add translate
  rad rad scale 0 0 1 180 360 arc tMatrix setmatrix lrx rad sub lry rad
  sub translate rad rad scale 0 0 1 0 180 arc tMatrix setmatrix
  closepath} bdef
/FtbRR {MtbRR stroke } bdef
/PtbRR {MtbRR fill } bdef
/stri 6 array def /dtri 6 array def
/smat 6 array def /dmat 6 array def
/tmat1 6 array def /tmat2 6 array def /dif 3 array def
/asub {/ind2 exch def /ind1 exch def dup dup
  ind1 get exch ind2 get sub exch } bdef
/tri_to_matrix {
  2 0 asub 3 1 asub 4 0 asub 5 1 asub
  dup 0 get exch 1 get 7 -1 roll astore } bdef
/compute_transform {
  dmat dtri tri_to_matrix tmat1 invertmatrix 
  smat stri tri_to_matrix tmat2 concatmatrix } bdef
/ds {stri astore pop} bdef
/dt {dtri astore pop} bdef
/db {2 copy /cols xdef /rows xdef mul dup 3 mul string
  currentfile 
  3 index 0 eq {/ASCIIHexDecode filter}
  {/ASCII85Decode filter 3 index 2 eq {/RunLengthDecode filter} if }
  ifelse exch readstring pop
  dup 0 3 index getinterval /rbmap xdef
  dup 2 index dup getinterval /gbmap xdef
  1 index dup 2 mul exch getinterval /bbmap xdef pop pop}bdef
/it {gs np dtri aload pop moveto lineto lineto cp c
  cols rows 8 compute_transform 
  rbmap gbmap bbmap true 3 colorimage gr}bdef
/il {newpath moveto lineto stroke}bdef
currentdict end def
%%EndProlog

%%BeginSetup
MathWorks begin

0 cap

end
%%EndSetup

%%Page: 1 1
%%BeginPageSetup
%%PageBoundingBox:    29   182   580   609
MathWorks begin
bpage
%%EndPageSetup

%%BeginObject: obj1
bplot

/dpi2point 12 def
portraitMode 0348 7308 csm

    0     0  6618  5121 rc
86 dict begin %Colortable dictionary
/c0 { 0.000000 0.000000 0.000000 sr} bdef
/c1 { 1.000000 1.000000 1.000000 sr} bdef
/c2 { 0.900000 0.000000 0.000000 sr} bdef
/c3 { 0.000000 0.820000 0.000000 sr} bdef
/c4 { 0.000000 0.000000 0.800000 sr} bdef
/c5 { 0.910000 0.820000 0.320000 sr} bdef
/c6 { 1.000000 0.260000 0.820000 sr} bdef
/c7 { 0.000000 0.820000 0.820000 sr} bdef
c0
1 j
1 sg
   0    0 6619 5122 rf
6 w
0 4175 5129 0 0 -4175 860 4558 4 MP
PP
-5129 0 0 4175 5129 0 0 -4175 860 4558 5 MP stroke
4 w
DO
SO
6 w
0 sg
 860 4558 mt 5989 4558 L
 860  383 mt 5989  383 L
/c8 { 0.000000 0.000000 1.000000 sr} bdef
c8
 860 4558 mt  860  383 L
5989 4558 mt 5989  383 L
0 sg
 860 4558 mt 5989 4558 L
c8
 860 4558 mt  860  383 L
0 sg
 860 4558 mt  860 4506 L
 860  384 mt  860  435 L
%%IncludeResource: font Helvetica
/Helvetica /ISOLatin1Encoding 120 FMSR

 777 4703 mt 
(0.5) s
1885 4558 mt 1885 4506 L
1885  384 mt 1885  435 L
1852 4703 mt 
(1) s
2911 4558 mt 2911 4506 L
2911  384 mt 2911  435 L
2828 4703 mt 
(1.5) s
3937 4558 mt 3937 4506 L
3937  384 mt 3937  435 L
3904 4703 mt 
(2) s
4963 4558 mt 4963 4506 L
4963  384 mt 4963  435 L
4880 4703 mt 
(2.5) s
5989 4558 mt 5989 4506 L
5989  384 mt 5989  435 L
5956 4703 mt 
(3) s
5719 4905 mt 
(x 10) s
%%IncludeResource: font Helvetica
/Helvetica /ISOLatin1Encoding 80 FMSR

5945 4831 mt 
(4) s
c8
 860 4558 mt  911 4558 L
5989 4558 mt 5937 4558 L
%%IncludeResource: font Helvetica
/Helvetica /ISOLatin1Encoding 120 FMSR

 759 4602 mt 
(0) s
 860 4140 mt  911 4140 L
5989 4140 mt 5937 4140 L
 659 4184 mt 
(0.5) s
 860 3723 mt  911 3723 L
5989 3723 mt 5937 3723 L
 759 3767 mt 
(1) s
 860 3305 mt  911 3305 L
5989 3305 mt 5937 3305 L
 659 3349 mt 
(1.5) s
 860 2888 mt  911 2888 L
5989 2888 mt 5937 2888 L
 759 2932 mt 
(2) s
 860 2471 mt  911 2471 L
5989 2471 mt 5937 2471 L
 659 2515 mt 
(2.5) s
 860 2053 mt  911 2053 L
5989 2053 mt 5937 2053 L
 759 2097 mt 
(3) s
 860 1636 mt  911 1636 L
5989 1636 mt 5937 1636 L
 659 1680 mt 
(3.5) s
 860 1218 mt  911 1218 L
5989 1218 mt 5937 1218 L
 759 1262 mt 
(4) s
 860  801 mt  911  801 L
5989  801 mt 5937  801 L
 659  845 mt 
(4.5) s
 860  384 mt  911  384 L
5989  384 mt 5937  384 L
 759  428 mt 
(5) s
 860  330 mt 
(x 10) s
%%IncludeResource: font Helvetica
/Helvetica /ISOLatin1Encoding 80 FMSR

1086  256 mt 
(4) s
0 sg
 860 4558 mt 5989 4558 L
 860  383 mt 5989  383 L
c8
 860 4558 mt  860  383 L
5989 4558 mt 5989  383 L
gs 860 384 5130 4175 rc
-155 207 -221 31 -185 208 -118 3 -572 547 -527 554 -844 811 -1337 1575 
5277 458 9 MP stroke
gs 1245 385 4106 4083 rc
0 j
36 47 -36 47 -36 -47 36 -47 5277 505 5 MP
DP
36 47 -36 47 -36 -47 36 -47 3940 2080 5 MP
DP
36 47 -36 47 -36 -47 36 -47 3096 2891 5 MP
DP
36 47 -36 47 -36 -47 36 -47 2569 3445 5 MP
DP
36 47 -36 47 -36 -47 36 -47 1997 3992 5 MP
DP
36 47 -36 47 -36 -47 36 -47 1879 3995 5 MP
DP
36 47 -36 47 -36 -47 36 -47 1694 4203 5 MP
DP
36 47 -36 47 -36 -47 36 -47 1473 4234 5 MP
DP
36 47 -36 47 -36 -47 36 -47 1318 4441 5 MP
DP
gr

gr

0 sg
%%IncludeResource: font Helvetica
/Helvetica /ISOLatin1Encoding 120 FMSR

2500 4846 mt 
(number of nodes in the training set) s
c8
 577 3211 mt  -90 rotate
(log likelihood on the test set) s
90 rotate
4 w
DO
SO
6 w
0 sg
 860 4558 mt 5989 4558 L
/c9 { 0.000000 0.500000 0.000000 sr} bdef
c9
5989 4558 mt 5989  384 L
0 sg
 860 4558 mt  860 4506 L
 777 4703 mt 
(0.5) s
1885 4558 mt 1885 4506 L
1852 4703 mt 
(1) s
2911 4558 mt 2911 4506 L
2828 4703 mt 
(1.5) s
3937 4558 mt 3937 4506 L
3904 4703 mt 
(2) s
4963 4558 mt 4963 4506 L
4880 4703 mt 
(2.5) s
5989 4558 mt 5989 4506 L
5956 4703 mt 
(3) s
5719 4905 mt 
(x 10) s
%%IncludeResource: font Helvetica
/Helvetica /ISOLatin1Encoding 80 FMSR

5945 4831 mt 
(4) s
c9
5989 4558 mt 5937 4558 L
%%IncludeResource: font Helvetica
/Helvetica /ISOLatin1Encoding 120 FMSR

6023 4602 mt 
(0) s
5989 4140 mt 5937 4140 L
6023 4184 mt 
(0.5) s
5989 3723 mt 5937 3723 L
6023 3767 mt 
(1) s
5989 3305 mt 5937 3305 L
6023 3349 mt 
(1.5) s
5989 2888 mt 5937 2888 L
6023 2932 mt 
(2) s
5989 2471 mt 5937 2471 L
6023 2515 mt 
(2.5) s
5989 2053 mt 5937 2053 L
6023 2097 mt 
(3) s
5989 1636 mt 5937 1636 L
6023 1680 mt 
(3.5) s
5989 1218 mt 5937 1218 L
6023 1262 mt 
(4) s
5989  801 mt 5937  801 L
6023  845 mt 
(4.5) s
5989  384 mt 5937  384 L
6023  428 mt 
(5) s
5989  330 mt 
(x 10) s
%%IncludeResource: font Helvetica
/Helvetica /ISOLatin1Encoding 80 FMSR

6215  256 mt 
(5) s
gs 860 384 5130 4175 rc
/c10 { 1.000000 0.000000 0.000000 sr} bdef
c10
-155 136 -221 -23 -185 167 -118 -20 -572 391 -527 338 -844 647 -1337 1400 
5277 1223 9 MP stroke
gr

c10
  36   36 5277 1223 FO
  36   36 3940 2623 FO
  36   36 3096 3270 FO
  36   36 2569 3608 FO
  36   36 1997 3999 FO
  36   36 1879 3979 FO
  36   36 1694 4146 FO
  36   36 1473 4123 FO
  36   36 1318 4259 FO
gs 860 384 5130 4175 rc
gr

c9
%%IncludeResource: font Helvetica
/Helvetica /ISOLatin1Encoding 120 FMSR

6330 2986 mt  -90 rotate
(SSE on the test set) s
90 rotate
0 sg
 843 4601 mt 
( ) s
5973  426 mt 
( ) s
0.8 sg
0 400 1495 0 0 -400 1592 1296 4 MP
PP
-1495 0 0 400 1495 0 0 -400 1592 1296 5 MP stroke
4 w
DO
SO
6 w
0 sg
1592 1296 mt 3087 1296 L
1592  896 mt 3087  896 L
1592 1296 mt 1592  896 L
3087 1296 mt 3087  896 L
1592 1296 mt 3087 1296 L
1592 1296 mt 1592  896 L
1592 1296 mt 3087 1296 L
1592  896 mt 3087  896 L
1592 1296 mt 1592  896 L
3087 1296 mt 3087  896 L
2060 1049 mt 
(sse) s
gs 1592 896 1496 401 rc
c10
360 0 1664 1006 2 MP stroke
gs 1771 933 147 147 rc
  36   36 1844 1006 FO
gr

gr

c10
0 sg
2060 1228 mt 
(log likelihood) s
gs 1592 896 1496 401 rc
c8
360 0 1664 1185 2 MP stroke
gs 1771 1112 147 147 rc
0 j
36 47 -36 47 -36 -47 36 -47 1844 1232 5 MP
DP
gr

gr

c8

end %%Color Dict

eplot
%%EndObject

epage
end

showpage

%%Trailer
%%EOF
